^D:\24DIALER\SMOOTH DIALER BASIC\MULTIBYTE CHARACTERSET RELEASE\SMOOTHDIALER-PC-VS2008\AUDIOENGINESYMBIAN.CPP
/c /Ig729 /ZI /nologo /W3 /WX- /Od /Oy- /D WIN32 /D NDEBUG /D _WINDOWS /D _VC80_UPGRADE=0x0600 /D _MBCS /D _AFXDLL /Gm /EHsc /RTC1 /MD /GS /Gy /fp:precise /Zc:wchar_t /Zc:forScope /Fo".\RELEASE\\" /Fd".\RELEASE\VC110.PDB" /Gd /TP /analyze- D:\24DIALER\SMOOTH DIALER BASIC\MULTIBYTE CHARACTERSET RELEASE\SMOOTHDIALER-PC-VS2008\AUDIOENGINESYMBIAN.CPP
^D:\24DIALER\SMOOTH DIALER BASIC\MULTIBYTE CHARACTERSET RELEASE\SMOOTHDIALER-PC-VS2008\AUDIOTHREAD.CPP
/c /Ig729 /ZI /nologo /W3 /WX- /Od /Oy- /D WIN32 /D NDEBUG /D _WINDOWS /D _VC80_UPGRADE=0x0600 /D _MBCS /D _AFXDLL /Gm /EHsc /RTC1 /MD /GS /Gy /fp:precise /Zc:wchar_t /Zc:forScope /Fo".\RELEASE\\" /Fd".\RELEASE\VC110.PDB" /Gd /TP /analyze- D:\24DIALER\SMOOTH DIALER BASIC\MULTIBYTE CHARACTERSET RELEASE\SMOOTHDIALER-PC-VS2008\AUDIOTHREAD.CPP
^D:\24DIALER\SMOOTH DIALER BASIC\MULTIBYTE CHARACTERSET RELEASE\SMOOTHDIALER-PC-VS2008\DIALERAGENT.CPP
/c /Ig729 /ZI /nologo /W3 /WX- /Od /Oy- /D WIN32 /D NDEBUG /D _WINDOWS /D _VC80_UPGRADE=0x0600 /D _MBCS /D _AFXDLL /Gm /EHsc /RTC1 /MD /GS /Gy /fp:precise /Zc:wchar_t /Zc:forScope /Fo".\RELEASE\\" /Fd".\RELEASE\VC110.PDB" /Gd /TP /analyze- D:\24DIALER\SMOOTH DIALER BASIC\MULTIBYTE CHARACTERSET RELEASE\SMOOTHDIALER-PC-VS2008\DIALERAGENT.CPP
^D:\24DIALER\SMOOTH DIALER BASIC\MULTIBYTE CHARACTERSET RELEASE\SMOOTHDIALER-PC-VS2008\DIALERAGENTEXTENSION.CPP
/c /Ig729 /ZI /nologo /W3 /WX- /Od /Oy- /D WIN32 /D NDEBUG /D _WINDOWS /D _VC80_UPGRADE=0x0600 /D _MBCS /D _AFXDLL /Gm /EHsc /RTC1 /MD /GS /Gy /fp:precise /Zc:wchar_t /Zc:forScope /Fo".\RELEASE\\" /Fd".\RELEASE\VC110.PDB" /Gd /TP /analyze- D:\24DIALER\SMOOTH DIALER BASIC\MULTIBYTE CHARACTERSET RELEASE\SMOOTHDIALER-PC-VS2008\DIALERAGENTEXTENSION.CPP
^D:\24DIALER\SMOOTH DIALER BASIC\MULTIBYTE CHARACTERSET RELEASE\SMOOTHDIALER-PC-VS2008\GLOBALS.CPP
/c /Ig729 /ZI /nologo /W3 /WX- /Od /Oy- /D WIN32 /D NDEBUG /D _WINDOWS /D _VC80_UPGRADE=0x0600 /D _MBCS /D _AFXDLL /Gm /EHsc /RTC1 /MD /GS /Gy /fp:precise /Zc:wchar_t /Zc:forScope /Fo".\RELEASE\\" /Fd".\RELEASE\VC110.PDB" /Gd /TP /analyze- D:\24DIALER\SMOOTH DIALER BASIC\MULTIBYTE CHARACTERSET RELEASE\SMOOTHDIALER-PC-VS2008\GLOBALS.CPP
^D:\24DIALER\SMOOTH DIALER BASIC\MULTIBYTE CHARACTERSET RELEASE\SMOOTHDIALER-PC-VS2008\SMOOTHDIALER.CPP
/c /Ig729 /ZI /nologo /W3 /WX- /Od /Oy- /D WIN32 /D NDEBUG /D _WINDOWS /D _VC80_UPGRADE=0x0600 /D _MBCS /D _AFXDLL /Gm /EHsc /RTC1 /MD /GS /Gy /fp:precise /Zc:wchar_t /Zc:forScope /Fo".\RELEASE\\" /Fd".\RELEASE\VC110.PDB" /Gd /TP /analyze- D:\24DIALER\SMOOTH DIALER BASIC\MULTIBYTE CHARACTERSET RELEASE\SMOOTHDIALER-PC-VS2008\SMOOTHDIALER.CPP
^D:\24DIALER\SMOOTH DIALER BASIC\MULTIBYTE CHARACTERSET RELEASE\SMOOTHDIALER-PC-VS2008\SMOOTHDIALERDLG.CPP
/c /Ig729 /ZI /nologo /W3 /WX- /Od /Oy- /D WIN32 /D NDEBUG /D _WINDOWS /D _VC80_UPGRADE=0x0600 /D _MBCS /D _AFXDLL /Gm /EHsc /RTC1 /MD /GS /Gy /fp:precise /Zc:wchar_t /Zc:forScope /Fo".\RELEASE\\" /Fd".\RELEASE\VC110.PDB" /Gd /TP /analyze- D:\24DIALER\SMOOTH DIALER BASIC\MULTIBYTE CHARACTERSET RELEASE\SMOOTHDIALER-PC-VS2008\SMOOTHDIALERDLG.CPP
^D:\24DIALER\SMOOTH DIALER BASIC\MULTIBYTE CHARACTERSET RELEASE\SMOOTHDIALER-PC-VS2008\STDAFX.CPP
/c /Ig729 /ZI /nologo /W3 /WX- /Od /Oy- /D WIN32 /D NDEBUG /D _WINDOWS /D _VC80_UPGRADE=0x0600 /D _MBCS /D _AFXDLL /Gm /EHsc /RTC1 /MD /GS /Gy /fp:precise /Zc:wchar_t /Zc:forScope /Fo".\RELEASE\\" /Fd".\RELEASE\VC110.PDB" /Gd /TP /analyze- D:\24DIALER\SMOOTH DIALER BASIC\MULTIBYTE CHARACTERSET RELEASE\SMOOTHDIALER-PC-VS2008\STDAFX.CPP
