^D:\24DIALER\SMOOTH DIALER BASIC\MULTIBYTE CHARACTERSET RELEASE\SMOOTHDIALER-PC-VS2008\RELEASE\AUDIOENGINESYMBIAN.OBJ|D:\24DIALER\SMOOTH DIALER BASIC\MULTIBYTE CHARACTERSET RELEASE\SMOOTHDIALER-PC-VS2008\RELEASE\AUDIOTHREAD.OBJ|D:\24DIALER\SMOOTH DIALER BASIC\MULTIBYTE CHARACTERSET RELEASE\SMOOTHDIALER-PC-VS2008\RELEASE\DIALERAGENT.OBJ|D:\24DIALER\SMOOTH DIALER BASIC\MULTIBYTE CHARACTERSET RELEASE\SMOOTHDIALER-PC-VS2008\RELEASE\DIALERAGENTEXTENSION.OBJ|D:\24DIALER\SMOOTH DIALER BASIC\MULTIBYTE CHARACTERSET RELEASE\SMOOTHDIALER-PC-VS2008\RELEASE\GLOBALS.OBJ|D:\24DIALER\SMOOTH DIALER BASIC\MULTIBYTE CHARACTERSET RELEASE\SMOOTHDIALER-PC-VS2008\RELEASE\SMOOTHDIALER.OBJ|D:\24DIALER\SMOOTH DIALER BASIC\MULTIBYTE CHARACTERSET RELEASE\SMOOTHDIALER-PC-VS2008\RELEASE\SMOOTHDIALER.RES|D:\24DIALER\SMOOTH DIALER BASIC\MULTIBYTE CHARACTERSET RELEASE\SMOOTHDIALER-PC-VS2008\RELEASE\SMOOTHDIALERDLG.OBJ|D:\24DIALER\SMOOTH DIALER BASIC\MULTIBYTE CHARACTERSET RELEASE\SMOOTHDIALER-PC-VS2008\RELEASE\STDAFX.OBJ
C:\PROGRAM FILES (X86)\WINDOWS KITS\8.0\LIB\WIN8\UM\X86\WS2_32.LIB
C:\PROGRAM FILES (X86)\WINDOWS KITS\8.0\LIB\WIN8\UM\X86\WINMM.LIB
D:\24DIALER\SMOOTH DIALER BASIC\MULTIBYTE CHARACTERSET RELEASE\SMOOTHDIALER-PC-VS2008\EASYG729A.LIB
D:\24DIALER\SMOOTH DIALER BASIC\MULTIBYTE CHARACTERSET RELEASE\SMOOTHDIALER-PC-VS2008\RELEASE\SMOOTHDIALER.RES
D:\24DIALER\SMOOTH DIALER BASIC\MULTIBYTE CHARACTERSET RELEASE\SMOOTHDIALER-PC-VS2008\RELEASE\AUDIOENGINESYMBIAN.OBJ
D:\24DIALER\SMOOTH DIALER BASIC\MULTIBYTE CHARACTERSET RELEASE\SMOOTHDIALER-PC-VS2008\RELEASE\AUDIOTHREAD.OBJ
D:\24DIALER\SMOOTH DIALER BASIC\MULTIBYTE CHARACTERSET RELEASE\SMOOTHDIALER-PC-VS2008\RELEASE\DIALERAGENT.OBJ
D:\24DIALER\SMOOTH DIALER BASIC\MULTIBYTE CHARACTERSET RELEASE\SMOOTHDIALER-PC-VS2008\RELEASE\DIALERAGENTEXTENSION.OBJ
D:\24DIALER\SMOOTH DIALER BASIC\MULTIBYTE CHARACTERSET RELEASE\SMOOTHDIALER-PC-VS2008\RELEASE\GLOBALS.OBJ
D:\24DIALER\SMOOTH DIALER BASIC\MULTIBYTE CHARACTERSET RELEASE\SMOOTHDIALER-PC-VS2008\RELEASE\SMOOTHDIALER.OBJ
D:\24DIALER\SMOOTH DIALER BASIC\MULTIBYTE CHARACTERSET RELEASE\SMOOTHDIALER-PC-VS2008\RELEASE\SMOOTHDIALERDLG.OBJ
D:\24DIALER\SMOOTH DIALER BASIC\MULTIBYTE CHARACTERSET RELEASE\SMOOTHDIALER-PC-VS2008\RELEASE\STDAFX.OBJ
C:\PROGRAM FILES (X86)\MICROSOFT VISUAL STUDIO 11.0\VC\INCLUDE\MANIFEST\DPIAWARE.MANIFEST
C:\WINDOWS\GLOBALIZATION\SORTING\SORTDEFAULT.NLS
C:\PROGRAM FILES (X86)\MICROSOFT VISUAL STUDIO 11.0\VC\LIB\MSVCPRT.LIB
C:\PROGRAM FILES (X86)\MICROSOFT VISUAL STUDIO 11.0\VC\ATLMFC\LIB\MFC110.LIB
C:\PROGRAM FILES (X86)\MICROSOFT VISUAL STUDIO 11.0\VC\ATLMFC\LIB\MFCS110.LIB
C:\PROGRAM FILES (X86)\MICROSOFT VISUAL STUDIO 11.0\VC\LIB\MSVCRT.LIB
C:\PROGRAM FILES (X86)\WINDOWS KITS\8.0\LIB\WIN8\UM\X86\KERNEL32.LIB
C:\PROGRAM FILES (X86)\WINDOWS KITS\8.0\LIB\WIN8\UM\X86\USER32.LIB
C:\PROGRAM FILES (X86)\WINDOWS KITS\8.0\LIB\WIN8\UM\X86\GDI32.LIB
C:\PROGRAM FILES (X86)\WINDOWS KITS\8.0\LIB\WIN8\UM\X86\MSIMG32.LIB
C:\PROGRAM FILES (X86)\WINDOWS KITS\8.0\LIB\WIN8\UM\X86\COMDLG32.LIB
C:\PROGRAM FILES (X86)\WINDOWS KITS\8.0\LIB\WIN8\UM\X86\WINSPOOL.LIB
C:\PROGRAM FILES (X86)\WINDOWS KITS\8.0\LIB\WIN8\UM\X86\ADVAPI32.LIB
C:\PROGRAM FILES (X86)\WINDOWS KITS\8.0\LIB\WIN8\UM\X86\SHELL32.LIB
C:\PROGRAM FILES (X86)\WINDOWS KITS\8.0\LIB\WIN8\UM\X86\COMCTL32.LIB
C:\PROGRAM FILES (X86)\WINDOWS KITS\8.0\LIB\WIN8\UM\X86\SHLWAPI.LIB
C:\PROGRAM FILES (X86)\WINDOWS KITS\8.0\LIB\WIN8\UM\X86\UXTHEME.LIB
C:\PROGRAM FILES (X86)\WINDOWS KITS\8.0\LIB\WIN8\UM\X86\WINDOWSCODECS.LIB
C:\PROGRAM FILES (X86)\WINDOWS KITS\8.0\LIB\WIN8\UM\X86\DWMAPI.LIB
C:\PROGRAM FILES (X86)\WINDOWS KITS\8.0\LIB\WIN8\UM\X86\UUID.LIB
C:\PROGRAM FILES (X86)\MICROSOFT VISUAL STUDIO 11.0\VC\ATLMFC\LIB\ATLSN.LIB
C:\PROGRAM FILES (X86)\WINDOWS KITS\8.0\LIB\WIN8\UM\X86\OLE32.LIB
C:\PROGRAM FILES (X86)\WINDOWS KITS\8.0\LIB\WIN8\UM\X86\OLEAUT32.LIB
C:\PROGRAM FILES (X86)\MICROSOFT VISUAL STUDIO 11.0\VC\LIB\OLDNAMES.LIB
C:\PROGRAM FILES (X86)\WINDOWS KITS\8.0\LIB\WIN8\UM\X86\OLEDLG.LIB
C:\PROGRAM FILES (X86)\WINDOWS KITS\8.0\LIB\WIN8\UM\X86\URLMON.LIB
C:\PROGRAM FILES (X86)\WINDOWS KITS\8.0\LIB\WIN8\UM\X86\MSWSOCK.LIB
C:\PROGRAM FILES (X86)\WINDOWS KITS\8.0\LIB\WIN8\UM\X86\WSOCK32.LIB
C:\PROGRAM FILES (X86)\WINDOWS KITS\8.0\LIB\WIN8\UM\X86\WININET.LIB
C:\PROGRAM FILES (X86)\WINDOWS KITS\8.0\BIN\X86\MT.EXE
C:\PROGRAM FILES (X86)\WINDOWS KITS\8.0\BIN\X86\RC.EXE
C:\PROGRAM FILES (X86)\MICROSOFT VISUAL STUDIO 11.0\VC\BIN\CVTRES.EXE
C:\WINDOWS\SYSTEM32\TZRES.DLL
