^D:\24DIALER\NEW VERSION\SMOOTHDIALER-PC\DEBUG\DIALER_AGENT.LIB|D:\24DIALER\NEW VERSION\SMOOTHDIALER-PC\SMOOTHDIALER\DEBUG\ACCOUNTDIALOG.OBJ|D:\24DIALER\NEW VERSION\SMOOTHDIALER-PC\SMOOTHDIALER\DEBUG\ADDCONTACT.OBJ|D:\24DIALER\NEW VERSION\SMOOTHDIALER-PC\SMOOTHDIALER\DEBUG\AUDIO_PLAYER.OBJ|D:\24DIALER\NEW VERSION\SMOOTHDIALER-PC\SMOOTHDIALER\DEBUG\AUDIO_RECORDER.OBJ|D:\24DIALER\NEW VERSION\SMOOTHDIALER-PC\SMOOTHDIALER\DEBUG\CALLLOG.OBJ|D:\24DIALER\NEW VERSION\SMOOTHDIALER-PC\SMOOTHDIALER\DEBUG\CONTACTVIEW.OBJ|D:\24DIALER\NEW VERSION\SMOOTHDIALER-PC\SMOOTHDIALER\DEBUG\MYUTIL.OBJ|D:\24DIALER\NEW VERSION\SMOOTHDIALER-PC\SMOOTHDIALER\DEBUG\SMOOTHDIALER.OBJ|D:\24DIALER\NEW VERSION\SMOOTHDIALER-PC\SMOOTHDIALER\DEBUG\SMOOTHDIALER.RES|D:\24DIALER\NEW VERSION\SMOOTHDIALER-PC\SMOOTHDIALER\DEBUG\SMOOTHDIALERDLG.OBJ|D:\24DIALER\NEW VERSION\SMOOTHDIALER-PC\SMOOTHDIALER\DEBUG\STDAFX.OBJ
D:\24DIALER\NEW VERSION\SMOOTHDIALER-PC\DEBUG\SMOOTHDIALER.ILK
D:\24DIALER\NEW VERSION\SMOOTHDIALER-PC\DEBUG\SMOOTHDIALER.EXE
D:\24DIALER\NEW VERSION\SMOOTHDIALER-PC\DEBUG\SMOOTHDIALER.PDB
