^D:\24DIALER\NEW FOLDER\SMOOTHDIALER-PC\DEBUG\DIALER_AGENT.LIB|D:\24DIALER\NEW FOLDER\SMOOTHDIALER-PC\SMOOTHDIALER\DEBUG\ACCOUNTDIALOG.OBJ|D:\24DIALER\NEW FOLDER\SMOOTHDIALER-PC\SMOOTHDIALER\DEBUG\ADDCONTACT.OBJ|D:\24DIALER\NEW FOLDER\SMOOTHDIALER-PC\SMOOTHDIALER\DEBUG\AUDIO_PLAYER.OBJ|D:\24DIALER\NEW FOLDER\SMOOTHDIALER-PC\SMOOTHDIALER\DEBUG\AUDIO_RECORDER.OBJ|D:\24DIALER\NEW FOLDER\SMOOTHDIALER-PC\SMOOTHDIALER\DEBUG\CALLLOG.OBJ|D:\24DIALER\NEW FOLDER\SMOOTHDIALER-PC\SMOOTHDIALER\DEBUG\CONTACTVIEW.OBJ|D:\24DIALER\NEW FOLDER\SMOOTHDIALER-PC\SMOOTHDIALER\DEBUG\MYUTIL.OBJ|D:\24DIALER\NEW FOLDER\SMOOTHDIALER-PC\SMOOTHDIALER\DEBUG\SMOOTHDIALER.OBJ|D:\24DIALER\NEW FOLDER\SMOOTHDIALER-PC\SMOOTHDIALER\DEBUG\SMOOTHDIALER.RES|D:\24DIALER\NEW FOLDER\SMOOTHDIALER-PC\SMOOTHDIALER\DEBUG\SMOOTHDIALERDLG.OBJ|D:\24DIALER\NEW FOLDER\SMOOTHDIALER-PC\SMOOTHDIALER\DEBUG\STDAFX.OBJ
/OUT:"D:\24DIALER\NEW FOLDER\SMOOTHDIALER-PC\DEBUG\SMOOTHDIALER.EXE" /INCREMENTAL /NOLOGO ../Debug/dialer_agent.lib ../Debug/G729.lib winmm.lib /MANIFEST /MANIFESTUAC:"level='asInvoker' uiAccess='false'" /manifest:embed /manifestinput:"C:\Program Files (x86)\Microsoft Visual Studio 11.0\VC\Include\Manifest\dpiaware.manifest" /DEBUG /PDB:"D:\24DIALER\NEW FOLDER\SMOOTHDIALER-PC\DEBUG\SMOOTHDIALER.PDB" /SUBSYSTEM:WINDOWS /TLBID:1 /ENTRY:"wWinMainCRTStartup" /DYNAMICBASE /NXCOMPAT /IMPLIB:"D:\24DIALER\NEW FOLDER\SMOOTHDIALER-PC\DEBUG\SMOOTHDIALER.LIB" /MACHINE:X86 /SAFESEH DEBUG\SMOOTHDIALER.RESDEBUG\ACCOUNTDIALOG.OBJDEBUG\ADDCONTACT.OBJDEBUG\AUDIO_PLAYER.OBJDEBUG\AUDIO_RECORDER.OBJDEBUG\CALLLOG.OBJDEBUG\CONTACTVIEW.OBJDEBUG\MYUTIL.OBJDEBUG\SMOOTHDIALER.OBJDEBUG\SMOOTHDIALERDLG.OBJDEBUG\STDAFX.OBJ"D:\24DIALER\NEW FOLDER\SMOOTHDIALER-PC\DEBUG\DIALER_AGENT.LIB"
^D:\24DIALER\NEW VERSION\SMOOTHDIALER-PC\DEBUG\DIALER_AGENT.LIB|D:\24DIALER\NEW VERSION\SMOOTHDIALER-PC\SMOOTHDIALER\DEBUG\ACCOUNTDIALOG.OBJ|D:\24DIALER\NEW VERSION\SMOOTHDIALER-PC\SMOOTHDIALER\DEBUG\ADDCONTACT.OBJ|D:\24DIALER\NEW VERSION\SMOOTHDIALER-PC\SMOOTHDIALER\DEBUG\AUDIO_PLAYER.OBJ|D:\24DIALER\NEW VERSION\SMOOTHDIALER-PC\SMOOTHDIALER\DEBUG\AUDIO_RECORDER.OBJ|D:\24DIALER\NEW VERSION\SMOOTHDIALER-PC\SMOOTHDIALER\DEBUG\CALLLOG.OBJ|D:\24DIALER\NEW VERSION\SMOOTHDIALER-PC\SMOOTHDIALER\DEBUG\CONTACTVIEW.OBJ|D:\24DIALER\NEW VERSION\SMOOTHDIALER-PC\SMOOTHDIALER\DEBUG\MYUTIL.OBJ|D:\24DIALER\NEW VERSION\SMOOTHDIALER-PC\SMOOTHDIALER\DEBUG\SMOOTHDIALER.OBJ|D:\24DIALER\NEW VERSION\SMOOTHDIALER-PC\SMOOTHDIALER\DEBUG\SMOOTHDIALER.RES|D:\24DIALER\NEW VERSION\SMOOTHDIALER-PC\SMOOTHDIALER\DEBUG\SMOOTHDIALERDLG.OBJ|D:\24DIALER\NEW VERSION\SMOOTHDIALER-PC\SMOOTHDIALER\DEBUG\STDAFX.OBJ
/OUT:"D:\24DIALER\NEW VERSION\SMOOTHDIALER-PC\DEBUG\SMOOTHDIALER.EXE" /INCREMENTAL /NOLOGO ../Debug/dialer_agent.lib ../Debug/G729.lib winmm.lib /MANIFEST /MANIFESTUAC:"level='asInvoker' uiAccess='false'" /manifest:embed /manifestinput:"C:\Program Files (x86)\Microsoft Visual Studio 11.0\VC\Include\Manifest\dpiaware.manifest" /DEBUG /PDB:"D:\24DIALER\NEW VERSION\SMOOTHDIALER-PC\DEBUG\SMOOTHDIALER.PDB" /SUBSYSTEM:WINDOWS /TLBID:1 /ENTRY:"wWinMainCRTStartup" /DYNAMICBASE /NXCOMPAT /IMPLIB:"D:\24DIALER\NEW VERSION\SMOOTHDIALER-PC\DEBUG\SMOOTHDIALER.LIB" /MACHINE:X86 /SAFESEH DEBUG\SMOOTHDIALER.RESDEBUG\ACCOUNTDIALOG.OBJDEBUG\ADDCONTACT.OBJDEBUG\AUDIO_PLAYER.OBJDEBUG\AUDIO_RECORDER.OBJDEBUG\CALLLOG.OBJDEBUG\CONTACTVIEW.OBJDEBUG\MYUTIL.OBJDEBUG\SMOOTHDIALER.OBJDEBUG\SMOOTHDIALERDLG.OBJDEBUG\STDAFX.OBJ"D:\24DIALER\NEW VERSION\SMOOTHDIALER-PC\DEBUG\DIALER_AGENT.LIB"
