^D:\24DIALER\NEW VERSION\SMOOTHDIALER-PC\DEBUG\DIALER_AGENT.LIB|D:\24DIALER\NEW VERSION\SMOOTHDIALER-PC\SMOOTHDIALER\DEBUG\ACCOUNTDIALOG.OBJ|D:\24DIALER\NEW VERSION\SMOOTHDIALER-PC\SMOOTHDIALER\DEBUG\ADDCONTACT.OBJ|D:\24DIALER\NEW VERSION\SMOOTHDIALER-PC\SMOOTHDIALER\DEBUG\AUDIO_PLAYER.OBJ|D:\24DIALER\NEW VERSION\SMOOTHDIALER-PC\SMOOTHDIALER\DEBUG\AUDIO_RECORDER.OBJ|D:\24DIALER\NEW VERSION\SMOOTHDIALER-PC\SMOOTHDIALER\DEBUG\CALLLOG.OBJ|D:\24DIALER\NEW VERSION\SMOOTHDIALER-PC\SMOOTHDIALER\DEBUG\CONTACTVIEW.OBJ|D:\24DIALER\NEW VERSION\SMOOTHDIALER-PC\SMOOTHDIALER\DEBUG\MYUTIL.OBJ|D:\24DIALER\NEW VERSION\SMOOTHDIALER-PC\SMOOTHDIALER\DEBUG\SMOOTHDIALER.OBJ|D:\24DIALER\NEW VERSION\SMOOTHDIALER-PC\SMOOTHDIALER\DEBUG\SMOOTHDIALER.RES|D:\24DIALER\NEW VERSION\SMOOTHDIALER-PC\SMOOTHDIALER\DEBUG\SMOOTHDIALERDLG.OBJ|D:\24DIALER\NEW VERSION\SMOOTHDIALER-PC\SMOOTHDIALER\DEBUG\STDAFX.OBJ
D:\24DIALER\NEW VERSION\SMOOTHDIALER-PC\DEBUG\DIALER_AGENT.LIB
D:\24DIALER\NEW VERSION\SMOOTHDIALER-PC\DEBUG\G729.LIB
C:\PROGRAM FILES (X86)\WINDOWS KITS\8.0\LIB\WIN8\UM\X86\WINMM.LIB
D:\24DIALER\NEW VERSION\SMOOTHDIALER-PC\SMOOTHDIALER\DEBUG\SMOOTHDIALER.RES
D:\24DIALER\NEW VERSION\SMOOTHDIALER-PC\SMOOTHDIALER\DEBUG\ACCOUNTDIALOG.OBJ
D:\24DIALER\NEW VERSION\SMOOTHDIALER-PC\SMOOTHDIALER\DEBUG\ADDCONTACT.OBJ
D:\24DIALER\NEW VERSION\SMOOTHDIALER-PC\SMOOTHDIALER\DEBUG\AUDIO_PLAYER.OBJ
D:\24DIALER\NEW VERSION\SMOOTHDIALER-PC\SMOOTHDIALER\DEBUG\AUDIO_RECORDER.OBJ
D:\24DIALER\NEW VERSION\SMOOTHDIALER-PC\SMOOTHDIALER\DEBUG\CALLLOG.OBJ
D:\24DIALER\NEW VERSION\SMOOTHDIALER-PC\SMOOTHDIALER\DEBUG\CONTACTVIEW.OBJ
D:\24DIALER\NEW VERSION\SMOOTHDIALER-PC\SMOOTHDIALER\DEBUG\MYUTIL.OBJ
D:\24DIALER\NEW VERSION\SMOOTHDIALER-PC\SMOOTHDIALER\DEBUG\SMOOTHDIALER.OBJ
D:\24DIALER\NEW VERSION\SMOOTHDIALER-PC\SMOOTHDIALER\DEBUG\SMOOTHDIALERDLG.OBJ
D:\24DIALER\NEW VERSION\SMOOTHDIALER-PC\SMOOTHDIALER\DEBUG\STDAFX.OBJ
C:\WINDOWS\SYSTEM32\TZRES.DLL
C:\PROGRAM FILES (X86)\MICROSOFT VISUAL STUDIO 11.0\VC\INCLUDE\MANIFEST\DPIAWARE.MANIFEST
C:\WINDOWS\GLOBALIZATION\SORTING\SORTDEFAULT.NLS
C:\PROGRAM FILES (X86)\MICROSOFT VISUAL STUDIO 11.0\VC\BIN\1033\LINKUI.DLL
C:\PROGRAM FILES (X86)\MICROSOFT VISUAL STUDIO 11.0\VC\ATLMFC\LIB\UAFXCWD.LIB
C:\PROGRAM FILES (X86)\MICROSOFT VISUAL STUDIO 11.0\VC\LIB\LIBCMTD.LIB
C:\PROGRAM FILES (X86)\WINDOWS KITS\8.0\LIB\WIN8\UM\X86\KERNEL32.LIB
C:\PROGRAM FILES (X86)\WINDOWS KITS\8.0\LIB\WIN8\UM\X86\USER32.LIB
C:\PROGRAM FILES (X86)\WINDOWS KITS\8.0\LIB\WIN8\UM\X86\GDI32.LIB
C:\PROGRAM FILES (X86)\WINDOWS KITS\8.0\LIB\WIN8\UM\X86\MSIMG32.LIB
C:\PROGRAM FILES (X86)\WINDOWS KITS\8.0\LIB\WIN8\UM\X86\COMDLG32.LIB
C:\PROGRAM FILES (X86)\WINDOWS KITS\8.0\LIB\WIN8\UM\X86\WINSPOOL.LIB
C:\PROGRAM FILES (X86)\WINDOWS KITS\8.0\LIB\WIN8\UM\X86\ADVAPI32.LIB
C:\PROGRAM FILES (X86)\WINDOWS KITS\8.0\LIB\WIN8\UM\X86\SHELL32.LIB
C:\PROGRAM FILES (X86)\WINDOWS KITS\8.0\LIB\WIN8\UM\X86\COMCTL32.LIB
C:\PROGRAM FILES (X86)\WINDOWS KITS\8.0\LIB\WIN8\UM\X86\SHLWAPI.LIB
C:\PROGRAM FILES (X86)\WINDOWS KITS\8.0\LIB\WIN8\UM\X86\UXTHEME.LIB
C:\PROGRAM FILES (X86)\WINDOWS KITS\8.0\LIB\WIN8\UM\X86\WINDOWSCODECS.LIB
C:\PROGRAM FILES (X86)\WINDOWS KITS\8.0\LIB\WIN8\UM\X86\UUID.LIB
C:\PROGRAM FILES (X86)\MICROSOFT VISUAL STUDIO 11.0\VC\ATLMFC\LIB\ATLSD.LIB
C:\PROGRAM FILES (X86)\WINDOWS KITS\8.0\LIB\WIN8\UM\X86\OLE32.LIB
C:\PROGRAM FILES (X86)\WINDOWS KITS\8.0\LIB\WIN8\UM\X86\OLEAUT32.LIB
C:\PROGRAM FILES (X86)\WINDOWS KITS\8.0\LIB\WIN8\UM\X86\OLEDLG.LIB
C:\PROGRAM FILES (X86)\WINDOWS KITS\8.0\LIB\WIN8\UM\X86\URLMON.LIB
C:\PROGRAM FILES (X86)\MICROSOFT VISUAL STUDIO 11.0\VC\LIB\OLDNAMES.LIB
C:\PROGRAM FILES (X86)\MICROSOFT VISUAL STUDIO 11.0\VC\LIB\LIBCPMTD.LIB
C:\PROGRAM FILES (X86)\WINDOWS KITS\8.0\LIB\WIN8\UM\X86\WS2_32.LIB
C:\PROGRAM FILES (X86)\WINDOWS KITS\8.0\LIB\WIN8\UM\X86\MSWSOCK.LIB
C:\PROGRAM FILES (X86)\WINDOWS KITS\8.0\LIB\WIN8\UM\X86\OLEACC.LIB
C:\PROGRAM FILES (X86)\WINDOWS KITS\8.0\LIB\WIN8\UM\X86\GDIPLUS.LIB
C:\PROGRAM FILES (X86)\MICROSOFT VISUAL STUDIO 11.0\VC\LIB\COMSUPPWD.LIB
C:\PROGRAM FILES (X86)\WINDOWS KITS\8.0\LIB\WIN8\UM\X86\PROPSYS.LIB
C:\PROGRAM FILES (X86)\WINDOWS KITS\8.0\LIB\WIN8\UM\X86\IMM32.LIB
C:\PROGRAM FILES (X86)\WINDOWS KITS\8.0\LIB\WIN8\UM\X86\MSXML6.LIB
C:\PROGRAM FILES (X86)\WINDOWS KITS\8.0\BIN\X86\MT.EXE
C:\PROGRAM FILES (X86)\WINDOWS KITS\8.0\BIN\X86\RC.EXE
C:\PROGRAM FILES (X86)\MICROSOFT VISUAL STUDIO 11.0\VC\BIN\CVTRES.EXE
