^D:\24DIALER\NEW VERSION\SMOOTHDIALER-PC\RELEASE\DIALER_AGENT.LIB|D:\24DIALER\NEW VERSION\SMOOTHDIALER-PC\SMOOTHDIALER\RELEASE\ACCOUNTDIALOG.OBJ|D:\24DIALER\NEW VERSION\SMOOTHDIALER-PC\SMOOTHDIALER\RELEASE\ADDCONTACT.OBJ|D:\24DIALER\NEW VERSION\SMOOTHDIALER-PC\SMOOTHDIALER\RELEASE\AUDIO_PLAYER.OBJ|D:\24DIALER\NEW VERSION\SMOOTHDIALER-PC\SMOOTHDIALER\RELEASE\AUDIO_RECORDER.OBJ|D:\24DIALER\NEW VERSION\SMOOTHDIALER-PC\SMOOTHDIALER\RELEASE\CALLLOG.OBJ|D:\24DIALER\NEW VERSION\SMOOTHDIALER-PC\SMOOTHDIALER\RELEASE\CONTACTVIEW.OBJ|D:\24DIALER\NEW VERSION\SMOOTHDIALER-PC\SMOOTHDIALER\RELEASE\MYUTIL.OBJ|D:\24DIALER\NEW VERSION\SMOOTHDIALER-PC\SMOOTHDIALER\RELEASE\SMOOTHDIALER.OBJ|D:\24DIALER\NEW VERSION\SMOOTHDIALER-PC\SMOOTHDIALER\RELEASE\SMOOTHDIALER.RES|D:\24DIALER\NEW VERSION\SMOOTHDIALER-PC\SMOOTHDIALER\RELEASE\SMOOTHDIALERDLG.OBJ|D:\24DIALER\NEW VERSION\SMOOTHDIALER-PC\SMOOTHDIALER\RELEASE\STDAFX.OBJ
D:\24DIALER\NEW VERSION\SMOOTHDIALER-PC\RELEASE\24PCDIALER.EXE
D:\24DIALER\NEW VERSION\SMOOTHDIALER-PC\RELEASE\24PCDIALER.PDB
