^D:\24RUNNINGAPPS\WALIPCDIALER\24DIALER\SMOOTHDIALER.RC
D:\24RUNNINGAPPS\WALIPCDIALER\24DIALER\RESOURCE.H
C:\PROGRAM FILES (X86)\MICROSOFT VISUAL STUDIO 11.0\VC\ATLMFC\INCLUDE\AFXRES.H
C:\PROGRAM FILES (X86)\WINDOWS KITS\8.0\INCLUDE\UM\WINRES.H
C:\PROGRAM FILES (X86)\WINDOWS KITS\8.0\INCLUDE\UM\WINRESRC.H
C:\PROGRAM FILES (X86)\WINDOWS KITS\8.0\INCLUDE\UM\WINUSER.RH
C:\PROGRAM FILES (X86)\WINDOWS KITS\8.0\INCLUDE\UM\COMMCTRL.RH
C:\PROGRAM FILES (X86)\WINDOWS KITS\8.0\INCLUDE\UM\DDE.RH
C:\PROGRAM FILES (X86)\WINDOWS KITS\8.0\INCLUDE\UM\WINNT.RH
C:\PROGRAM FILES (X86)\WINDOWS KITS\8.0\INCLUDE\UM\DLGS.H
C:\PROGRAM FILES (X86)\WINDOWS KITS\8.0\INCLUDE\SHARED\WINAPIFAMILY.H
C:\PROGRAM FILES (X86)\WINDOWS KITS\8.0\INCLUDE\UM\WINVER.H
C:\PROGRAM FILES (X86)\WINDOWS KITS\8.0\INCLUDE\SHARED\SPECSTRINGS.H
C:\PROGRAM FILES (X86)\MICROSOFT VISUAL STUDIO 11.0\VC\INCLUDE\SAL.H
C:\PROGRAM FILES (X86)\MICROSOFT VISUAL STUDIO 11.0\VC\INCLUDE\CONCURRENCYSAL.H
C:\PROGRAM FILES (X86)\WINDOWS KITS\8.0\INCLUDE\SHARED\DRIVERSPECS.H
C:\PROGRAM FILES (X86)\WINDOWS KITS\8.0\INCLUDE\SHARED\SDV_DRIVERSPECS.H
C:\PROGRAM FILES (X86)\WINDOWS KITS\8.0\INCLUDE\UM\VERRSRC.H
D:\24RUNNINGAPPS\WALIPCDIALER\24DIALER\RES\SMOOTHDIALER.RC2
C:\PROGRAM FILES (X86)\MICROSOFT VISUAL STUDIO 11.0\VC\ATLMFC\INCLUDE\AFXRES.RC
D:\24RUNNINGAPPS\WALIPCDIALER\24DIALER\RES\24DIALER.ICO
D:\24RUNNINGAPPS\WALIPCDIALER\24DIALER\RES\MAIN_BG.BMP
D:\24RUNNINGAPPS\WALIPCDIALER\24DIALER\RES\DIAL_CALL.BMP
D:\24RUNNINGAPPS\WALIPCDIALER\24DIALER\RES\#.BMP
D:\24RUNNINGAPPS\WALIPCDIALER\24DIALER\RES\+.BMP
D:\24RUNNINGAPPS\WALIPCDIALER\24DIALER\RES\0.BMP
D:\24RUNNINGAPPS\WALIPCDIALER\24DIALER\RES\1.BMP
D:\24RUNNINGAPPS\WALIPCDIALER\24DIALER\RES\2.BMP
D:\24RUNNINGAPPS\WALIPCDIALER\24DIALER\RES\3.BMP
D:\24RUNNINGAPPS\WALIPCDIALER\24DIALER\RES\4.BMP
D:\24RUNNINGAPPS\WALIPCDIALER\24DIALER\RES\5.BMP
D:\24RUNNINGAPPS\WALIPCDIALER\24DIALER\RES\6.BMP
D:\24RUNNINGAPPS\WALIPCDIALER\24DIALER\RES\7.BMP
D:\24RUNNINGAPPS\WALIPCDIALER\24DIALER\RES\8.BMP
D:\24RUNNINGAPPS\WALIPCDIALER\24DIALER\RES\9.BMP
D:\24RUNNINGAPPS\WALIPCDIALER\24DIALER\RES\C.BMP
D:\24RUNNINGAPPS\WALIPCDIALER\24DIALER\RES\CANCEL.BMP
D:\24RUNNINGAPPS\WALIPCDIALER\24DIALER\RES\END_CALL.BMP
D:\24RUNNINGAPPS\WALIPCDIALER\24DIALER\RES\OK.BMP
D:\24RUNNINGAPPS\WALIPCDIALER\24DIALER\RES\LOGIN_BG.BMP
