^D:\24PCDIALER WORKS\NEW VERSION\INTELVOIZ\24PCDIALER\DIALERAGENT\ASSEMBLYINFO.CPP|D:\24PCDIALER WORKS\NEW VERSION\INTELVOIZ\24PCDIALER\DIALERAGENT\DIALER_AGENT.CPP|D:\24PCDIALER WORKS\NEW VERSION\INTELVOIZ\24PCDIALER\DIALERAGENT\DIALER_AGENT_UTIL.CPP|D:\24PCDIALER WORKS\NEW VERSION\INTELVOIZ\24PCDIALER\DIALERAGENT\DIALER_TUNNEL.CPP|D:\24PCDIALER WORKS\NEW VERSION\INTELVOIZ\24PCDIALER\DIALERAGENT\NETWORK_POLLER.CPP
D:\24PCDIALER WORKS\NEW VERSION\INTELVOIZ\24PCDIALER\DIALERAGENT\RELEASE\NETWORK_POLLER.OBJ
D:\24PCDIALER WORKS\NEW VERSION\INTELVOIZ\24PCDIALER\DIALERAGENT\RELEASE\DIALER_TUNNEL.OBJ
D:\24PCDIALER WORKS\NEW VERSION\INTELVOIZ\24PCDIALER\DIALERAGENT\RELEASE\DIALER_AGENT_UTIL.OBJ
D:\24PCDIALER WORKS\NEW VERSION\INTELVOIZ\24PCDIALER\DIALERAGENT\RELEASE\DIALER_AGENT.OBJ
D:\24PCDIALER WORKS\NEW VERSION\INTELVOIZ\24PCDIALER\DIALERAGENT\RELEASE\ASSEMBLYINFO.OBJ
^D:\24PCDIALER WORKS\NEW VERSION\INTELVOIZ\24PCDIALER\DIALERAGENT\ASSEMBLYINFO.CPP
D:\24PCDIALER WORKS\NEW VERSION\INTELVOIZ\24PCDIALER\DIALERAGENT\RELEASE\VC110.PDB
^D:\24PCDIALER WORKS\NEW VERSION\INTELVOIZ\24PCDIALER\DIALERAGENT\DIALER_AGENT.CPP
D:\24PCDIALER WORKS\NEW VERSION\INTELVOIZ\24PCDIALER\DIALERAGENT\RELEASE\VC110.PDB
^D:\24PCDIALER WORKS\NEW VERSION\INTELVOIZ\24PCDIALER\DIALERAGENT\DIALER_AGENT_UTIL.CPP
D:\24PCDIALER WORKS\NEW VERSION\INTELVOIZ\24PCDIALER\DIALERAGENT\RELEASE\VC110.PDB
^D:\24PCDIALER WORKS\NEW VERSION\INTELVOIZ\24PCDIALER\DIALERAGENT\DIALER_TUNNEL.CPP
D:\24PCDIALER WORKS\NEW VERSION\INTELVOIZ\24PCDIALER\DIALERAGENT\RELEASE\VC110.PDB
^D:\24PCDIALER WORKS\NEW VERSION\INTELVOIZ\24PCDIALER\DIALERAGENT\NETWORK_POLLER.CPP
D:\24PCDIALER WORKS\NEW VERSION\INTELVOIZ\24PCDIALER\DIALERAGENT\RELEASE\VC110.PDB
