﻿  SmsSendDlg.cpp
  _WIN32_WINNT not defined. Defaulting to _WIN32_WINNT_MAXVER (see WinSDKVer.h)
d:\24dialer\backup\24pcdialer_v5.0.1.0_final_02.10.2013\bkup\new folder\24pcdialer\wstring.h(187): warning C4996: 'sprintf': This function or variable may be unsafe. Consider using sprintf_s instead. To disable deprecation, use _CRT_SECURE_NO_WARNINGS. See online help for details.
          c:\program files (x86)\microsoft visual studio 11.0\vc\include\stdio.h(357) : see declaration of 'sprintf'
d:\24dialer\backup\24pcdialer_v5.0.1.0_final_02.10.2013\bkup\new folder\24pcdialer\wstring.h(243): warning C4996: 'vsprintf': This function or variable may be unsafe. Consider using vsprintf_s instead. To disable deprecation, use _CRT_SECURE_NO_WARNINGS. See online help for details.
          c:\program files (x86)\microsoft visual studio 11.0\vc\include\stdio.h(357) : see declaration of 'vsprintf'
d:\24dialer\backup\24pcdialer_v5.0.1.0_final_02.10.2013\bkup\new folder\24pcdialer\dialerstate.h(157): warning C4244: 'return' : conversion from '__int64' to 'TInt', possible loss of data
d:\24dialer\backup\24pcdialer_v5.0.1.0_final_02.10.2013\bkup\new folder\24pcdialer\dialerstate.h(402): warning C4018: '>=' : signed/unsigned mismatch
d:\24dialer\backup\24pcdialer_v5.0.1.0_final_02.10.2013\bkup\new folder\24pcdialer\dialerstate.h(411): warning C4018: '<' : signed/unsigned mismatch
d:\24dialer\backup\24pcdialer_v5.0.1.0_final_02.10.2013\bkup\new folder\24pcdialer\dialerstate.h(412): warning C4018: '<=' : signed/unsigned mismatch
d:\24dialer\backup\24pcdialer_v5.0.1.0_final_02.10.2013\bkup\new folder\24pcdialer\wpoller.h(142): warning C4018: '>' : signed/unsigned mismatch
d:\24dialer\backup\24pcdialer_v5.0.1.0_final_02.10.2013\bkup\new folder\24pcdialer\wpoller.h(145): warning C4018: '>' : signed/unsigned mismatch
d:\24dialer\backup\24pcdialer_v5.0.1.0_final_02.10.2013\bkup\new folder\24pcdialer\wpoller.h(147): warning C4018: '<' : signed/unsigned mismatch
d:\24dialer\backup\24pcdialer_v5.0.1.0_final_02.10.2013\bkup\new folder\24pcdialer\wpoller.h(155): warning C4018: '>' : signed/unsigned mismatch
d:\24dialer\backup\24pcdialer_v5.0.1.0_final_02.10.2013\bkup\new folder\24pcdialer\wpoller.h(158): warning C4018: '>' : signed/unsigned mismatch
d:\24dialer\backup\24pcdialer_v5.0.1.0_final_02.10.2013\bkup\new folder\24pcdialer\wpoller.h(174): warning C4018: '>=' : signed/unsigned mismatch
d:\24dialer\backup\24pcdialer_v5.0.1.0_final_02.10.2013\bkup\new folder\24pcdialer\wpoller.h(177): warning C4018: '>' : signed/unsigned mismatch
d:\24dialer\backup\24pcdialer_v5.0.1.0_final_02.10.2013\bkup\new folder\24pcdialer\wpoller.h(397): warning C4996: 'sprintf': This function or variable may be unsafe. Consider using sprintf_s instead. To disable deprecation, use _CRT_SECURE_NO_WARNINGS. See online help for details.
          c:\program files (x86)\microsoft visual studio 11.0\vc\include\stdio.h(357) : see declaration of 'sprintf'
d:\24dialer\backup\24pcdialer_v5.0.1.0_final_02.10.2013\bkup\new folder\24pcdialer\wpoller.h(606): warning C4996: 'strcpy': This function or variable may be unsafe. Consider using strcpy_s instead. To disable deprecation, use _CRT_SECURE_NO_WARNINGS. See online help for details.
          c:\program files (x86)\microsoft visual studio 11.0\vc\include\string.h(110) : see declaration of 'strcpy'
d:\24dialer\backup\24pcdialer_v5.0.1.0_final_02.10.2013\bkup\new folder\24pcdialer\wpoller.h(607): warning C4996: 'strcpy': This function or variable may be unsafe. Consider using strcpy_s instead. To disable deprecation, use _CRT_SECURE_NO_WARNINGS. See online help for details.
          c:\program files (x86)\microsoft visual studio 11.0\vc\include\string.h(110) : see declaration of 'strcpy'
d:\24dialer\backup\24pcdialer_v5.0.1.0_final_02.10.2013\bkup\new folder\24pcdialer\wpoller.h(608): warning C4996: 'strcpy': This function or variable may be unsafe. Consider using strcpy_s instead. To disable deprecation, use _CRT_SECURE_NO_WARNINGS. See online help for details.
          c:\program files (x86)\microsoft visual studio 11.0\vc\include\string.h(110) : see declaration of 'strcpy'
d:\24dialer\backup\24pcdialer_v5.0.1.0_final_02.10.2013\bkup\new folder\24pcdialer\wpoller.h(609): warning C4996: 'strcpy': This function or variable may be unsafe. Consider using strcpy_s instead. To disable deprecation, use _CRT_SECURE_NO_WARNINGS. See online help for details.
          c:\program files (x86)\microsoft visual studio 11.0\vc\include\string.h(110) : see declaration of 'strcpy'
d:\24dialer\backup\24pcdialer_v5.0.1.0_final_02.10.2013\bkup\new folder\24pcdialer\wpoller.h(610): warning C4996: 'strcpy': This function or variable may be unsafe. Consider using strcpy_s instead. To disable deprecation, use _CRT_SECURE_NO_WARNINGS. See online help for details.
          c:\program files (x86)\microsoft visual studio 11.0\vc\include\string.h(110) : see declaration of 'strcpy'
d:\24dialer\backup\24pcdialer_v5.0.1.0_final_02.10.2013\bkup\new folder\24pcdialer\wpoller.h(611): warning C4996: 'strcpy': This function or variable may be unsafe. Consider using strcpy_s instead. To disable deprecation, use _CRT_SECURE_NO_WARNINGS. See online help for details.
          c:\program files (x86)\microsoft visual studio 11.0\vc\include\string.h(110) : see declaration of 'strcpy'
d:\24dialer\backup\24pcdialer_v5.0.1.0_final_02.10.2013\bkup\new folder\24pcdialer\wpoller.h(612): warning C4996: 'strcpy': This function or variable may be unsafe. Consider using strcpy_s instead. To disable deprecation, use _CRT_SECURE_NO_WARNINGS. See online help for details.
          c:\program files (x86)\microsoft visual studio 11.0\vc\include\string.h(110) : see declaration of 'strcpy'
d:\24dialer\backup\24pcdialer_v5.0.1.0_final_02.10.2013\bkup\new folder\24pcdialer\wpoller.h(613): warning C4996: 'strcpy': This function or variable may be unsafe. Consider using strcpy_s instead. To disable deprecation, use _CRT_SECURE_NO_WARNINGS. See online help for details.
          c:\program files (x86)\microsoft visual studio 11.0\vc\include\string.h(110) : see declaration of 'strcpy'
d:\24dialer\backup\24pcdialer_v5.0.1.0_final_02.10.2013\bkup\new folder\24pcdialer\wpoller.h(614): warning C4996: 'strcpy': This function or variable may be unsafe. Consider using strcpy_s instead. To disable deprecation, use _CRT_SECURE_NO_WARNINGS. See online help for details.
          c:\program files (x86)\microsoft visual studio 11.0\vc\include\string.h(110) : see declaration of 'strcpy'
d:\24dialer\backup\24pcdialer_v5.0.1.0_final_02.10.2013\bkup\new folder\24pcdialer\wpoller.h(615): warning C4996: 'strcpy': This function or variable may be unsafe. Consider using strcpy_s instead. To disable deprecation, use _CRT_SECURE_NO_WARNINGS. See online help for details.
          c:\program files (x86)\microsoft visual studio 11.0\vc\include\string.h(110) : see declaration of 'strcpy'
d:\24dialer\backup\24pcdialer_v5.0.1.0_final_02.10.2013\bkup\new folder\24pcdialer\wpoller.h(616): warning C4996: 'strcpy': This function or variable may be unsafe. Consider using strcpy_s instead. To disable deprecation, use _CRT_SECURE_NO_WARNINGS. See online help for details.
          c:\program files (x86)\microsoft visual studio 11.0\vc\include\string.h(110) : see declaration of 'strcpy'
d:\24dialer\backup\24pcdialer_v5.0.1.0_final_02.10.2013\bkup\new folder\24pcdialer\wpoller.h(617): warning C4996: 'strcpy': This function or variable may be unsafe. Consider using strcpy_s instead. To disable deprecation, use _CRT_SECURE_NO_WARNINGS. See online help for details.
          c:\program files (x86)\microsoft visual studio 11.0\vc\include\string.h(110) : see declaration of 'strcpy'
d:\24dialer\backup\24pcdialer_v5.0.1.0_final_02.10.2013\bkup\new folder\24pcdialer\wpoller.h(618): warning C4996: 'strcpy': This function or variable may be unsafe. Consider using strcpy_s instead. To disable deprecation, use _CRT_SECURE_NO_WARNINGS. See online help for details.
          c:\program files (x86)\microsoft visual studio 11.0\vc\include\string.h(110) : see declaration of 'strcpy'
d:\24dialer\backup\24pcdialer_v5.0.1.0_final_02.10.2013\bkup\new folder\24pcdialer\wpoller.h(619): warning C4996: 'strcpy': This function or variable may be unsafe. Consider using strcpy_s instead. To disable deprecation, use _CRT_SECURE_NO_WARNINGS. See online help for details.
          c:\program files (x86)\microsoft visual studio 11.0\vc\include\string.h(110) : see declaration of 'strcpy'
d:\24dialer\backup\24pcdialer_v5.0.1.0_final_02.10.2013\bkup\new folder\24pcdialer\wpoller.h(620): warning C4996: 'strcpy': This function or variable may be unsafe. Consider using strcpy_s instead. To disable deprecation, use _CRT_SECURE_NO_WARNINGS. See online help for details.
          c:\program files (x86)\microsoft visual studio 11.0\vc\include\string.h(110) : see declaration of 'strcpy'
d:\24dialer\backup\24pcdialer_v5.0.1.0_final_02.10.2013\bkup\new folder\24pcdialer\wpoller.h(621): warning C4996: 'strcpy': This function or variable may be unsafe. Consider using strcpy_s instead. To disable deprecation, use _CRT_SECURE_NO_WARNINGS. See online help for details.
          c:\program files (x86)\microsoft visual studio 11.0\vc\include\string.h(110) : see declaration of 'strcpy'
d:\24dialer\backup\24pcdialer_v5.0.1.0_final_02.10.2013\bkup\new folder\24pcdialer\wpoller.h(622): warning C4996: 'strcpy': This function or variable may be unsafe. Consider using strcpy_s instead. To disable deprecation, use _CRT_SECURE_NO_WARNINGS. See online help for details.
          c:\program files (x86)\microsoft visual studio 11.0\vc\include\string.h(110) : see declaration of 'strcpy'
d:\24dialer\backup\24pcdialer_v5.0.1.0_final_02.10.2013\bkup\new folder\24pcdialer\wpoller.h(632): warning C4018: '<' : signed/unsigned mismatch
d:\24dialer\backup\24pcdialer_v5.0.1.0_final_02.10.2013\bkup\new folder\24pcdialer\wpoller.h(634): warning C4018: '<' : signed/unsigned mismatch
d:\24dialer\backup\24pcdialer_v5.0.1.0_final_02.10.2013\bkup\new folder\24pcdialer\wpoller.h(731): warning C4996: 'strnicmp': The POSIX name for this item is deprecated. Instead, use the ISO C++ conformant name: _strnicmp. See online help for details.
          c:\program files (x86)\microsoft visual studio 11.0\vc\include\string.h(251) : see declaration of 'strnicmp'
d:\24dialer\backup\24pcdialer_v5.0.1.0_final_02.10.2013\bkup\new folder\24pcdialer\smssenddlg.cpp(63): warning C4244: 'initializing' : conversion from 'time_t' to 'double', possible loss of data
d:\24dialer\backup\24pcdialer_v5.0.1.0_final_02.10.2013\bkup\new folder\24pcdialer\smssenddlg.cpp(144): warning C4244: 'initializing' : conversion from 'time_t' to 'double', possible loss of data
d:\24dialer\backup\24pcdialer_v5.0.1.0_final_02.10.2013\bkup\new folder\24pcdialer\smssenddlg.cpp(166): warning C4996: 'sprintf': This function or variable may be unsafe. Consider using sprintf_s instead. To disable deprecation, use _CRT_SECURE_NO_WARNINGS. See online help for details.
          c:\program files (x86)\microsoft visual studio 11.0\vc\include\stdio.h(357) : see declaration of 'sprintf'
  SmoothDialer.vcxproj -> D:\24Dialer\Backup\24PCDialer_v5.0.1.0_Final_02.10.2013\bkup\New folder\24PCDialer\.\Release\24PCDialer.exe
