^D:\24DIALER\RUNNING\24PCDIALER\RELEASE\AUDIOENGINESYMBIAN.SBR|D:\24DIALER\RUNNING\24PCDIALER\RELEASE\AUDIOTHREAD.SBR|D:\24DIALER\RUNNING\24PCDIALER\RELEASE\BLOCK_ALLOCATOR.SBR|D:\24DIALER\RUNNING\24PCDIALER\RELEASE\CONTACTSDLG.SBR|D:\24DIALER\RUNNING\24PCDIALER\RELEASE\DIALERAGENT.SBR|D:\24DIALER\RUNNING\24PCDIALER\RELEASE\DIALERAGENTEXTENSION.SBR|D:\24DIALER\RUNNING\24PCDIALER\RELEASE\FLEXIACCOUNT.SBR|D:\24DIALER\RUNNING\24PCDIALER\RELEASE\FLEXITLISTDLG.SBR|D:\24DIALER\RUNNING\24PCDIALER\RELEASE\GLOBALS.SBR|D:\24DIALER\RUNNING\24PCDIALER\RELEASE\JSON.SBR|D:\24DIALER\RUNNING\24PCDIALER\RELEASE\LISTDLG.SBR|D:\24DIALER\RUNNING\24PCDIALER\RELEASE\LOGINDLG.SBR|D:\24DIALER\RUNNING\24PCDIALER\RELEASE\RECHAGEDLG.SBR|D:\24DIALER\RUNNING\24PCDIALER\RELEASE\SMOOTHDIALER.SBR|D:\24DIALER\RUNNING\24PCDIALER\RELEASE\SMOOTHDIALERDLG.SBR|D:\24DIALER\RUNNING\24PCDIALER\RELEASE\SMSSENDDLG.SBR|D:\24DIALER\RUNNING\24PCDIALER\RELEASE\STDAFX.SBR
/nologo /o".\RELEASE\SMOOTHDIALER.BSC" .\RELEASE\AUDIOENGINESYMBIAN.SBR .\RELEASE\AUDIOTHREAD.SBR .\RELEASE\BLOCK_ALLOCATOR.SBR .\RELEASE\CONTACTSDLG.SBR .\RELEASE\DIALERAGENT.SBR .\RELEASE\DIALERAGENTEXTENSION.SBR .\RELEASE\FLEXIACCOUNT.SBR .\RELEASE\FLEXITLISTDLG.SBR .\RELEASE\GLOBALS.SBR .\RELEASE\JSON.SBR .\RELEASE\LISTDLG.SBR .\RELEASE\LOGINDLG.SBR .\RELEASE\RECHAGEDLG.SBR .\RELEASE\SMOOTHDIALER.SBR .\RELEASE\SMOOTHDIALERDLG.SBR .\RELEASE\SMSSENDDLG.SBR .\RELEASE\STDAFX.SBR
^C:\USERS\WASIF ISLAM\DESKTOP\24PCDIALER_FLEXI_SMS_FINAL_04.11.2013\24PCDIALER\RELEASE\AUDIOENGINESYMBIAN.SBR|C:\USERS\WASIF ISLAM\DESKTOP\24PCDIALER_FLEXI_SMS_FINAL_04.11.2013\24PCDIALER\RELEASE\AUDIOTHREAD.SBR|C:\USERS\WASIF ISLAM\DESKTOP\24PCDIALER_FLEXI_SMS_FINAL_04.11.2013\24PCDIALER\RELEASE\BLOCK_ALLOCATOR.SBR|C:\USERS\WASIF ISLAM\DESKTOP\24PCDIALER_FLEXI_SMS_FINAL_04.11.2013\24PCDIALER\RELEASE\CONTACTSDLG.SBR|C:\USERS\WASIF ISLAM\DESKTOP\24PCDIALER_FLEXI_SMS_FINAL_04.11.2013\24PCDIALER\RELEASE\DIALERAGENT.SBR|C:\USERS\WASIF ISLAM\DESKTOP\24PCDIALER_FLEXI_SMS_FINAL_04.11.2013\24PCDIALER\RELEASE\DIALERAGENTEXTENSION.SBR|C:\USERS\WASIF ISLAM\DESKTOP\24PCDIALER_FLEXI_SMS_FINAL_04.11.2013\24PCDIALER\RELEASE\FLEXIACCOUNT.SBR|C:\USERS\WASIF ISLAM\DESKTOP\24PCDIALER_FLEXI_SMS_FINAL_04.11.2013\24PCDIALER\RELEASE\FLEXITLISTDLG.SBR|C:\USERS\WASIF ISLAM\DESKTOP\24PCDIALER_FLEXI_SMS_FINAL_04.11.2013\24PCDIALER\RELEASE\GLOBALS.SBR|C:\USERS\WASIF ISLAM\DESKTOP\24PCDIALER_FLEXI_SMS_FINAL_04.11.2013\24PCDIALER\RELEASE\JSON.SBR|C:\USERS\WASIF ISLAM\DESKTOP\24PCDIALER_FLEXI_SMS_FINAL_04.11.2013\24PCDIALER\RELEASE\LISTDLG.SBR|C:\USERS\WASIF ISLAM\DESKTOP\24PCDIALER_FLEXI_SMS_FINAL_04.11.2013\24PCDIALER\RELEASE\LOGINDLG.SBR|C:\USERS\WASIF ISLAM\DESKTOP\24PCDIALER_FLEXI_SMS_FINAL_04.11.2013\24PCDIALER\RELEASE\RECHAGEDLG.SBR|C:\USERS\WASIF ISLAM\DESKTOP\24PCDIALER_FLEXI_SMS_FINAL_04.11.2013\24PCDIALER\RELEASE\SMOOTHDIALER.SBR|C:\USERS\WASIF ISLAM\DESKTOP\24PCDIALER_FLEXI_SMS_FINAL_04.11.2013\24PCDIALER\RELEASE\SMOOTHDIALERDLG.SBR|C:\USERS\WASIF ISLAM\DESKTOP\24PCDIALER_FLEXI_SMS_FINAL_04.11.2013\24PCDIALER\RELEASE\SMSSENDDLG.SBR|C:\USERS\WASIF ISLAM\DESKTOP\24PCDIALER_FLEXI_SMS_FINAL_04.11.2013\24PCDIALER\RELEASE\STDAFX.SBR
/nologo /o".\RELEASE\SMOOTHDIALER.BSC" .\RELEASE\AUDIOENGINESYMBIAN.SBR .\RELEASE\AUDIOTHREAD.SBR .\RELEASE\BLOCK_ALLOCATOR.SBR .\RELEASE\CONTACTSDLG.SBR .\RELEASE\DIALERAGENT.SBR .\RELEASE\DIALERAGENTEXTENSION.SBR .\RELEASE\FLEXIACCOUNT.SBR .\RELEASE\FLEXITLISTDLG.SBR .\RELEASE\GLOBALS.SBR .\RELEASE\JSON.SBR .\RELEASE\LISTDLG.SBR .\RELEASE\LOGINDLG.SBR .\RELEASE\RECHAGEDLG.SBR .\RELEASE\SMOOTHDIALER.SBR .\RELEASE\SMOOTHDIALERDLG.SBR .\RELEASE\SMSSENDDLG.SBR .\RELEASE\STDAFX.SBR
^D:\24PCDIALER WORKS\RUNNING\24PCDIALER\RELEASE\AUDIOENGINESYMBIAN.SBR|D:\24PCDIALER WORKS\RUNNING\24PCDIALER\RELEASE\AUDIOTHREAD.SBR|D:\24PCDIALER WORKS\RUNNING\24PCDIALER\RELEASE\BLOCK_ALLOCATOR.SBR|D:\24PCDIALER WORKS\RUNNING\24PCDIALER\RELEASE\CONTACTSDLG.SBR|D:\24PCDIALER WORKS\RUNNING\24PCDIALER\RELEASE\DIALERAGENT.SBR|D:\24PCDIALER WORKS\RUNNING\24PCDIALER\RELEASE\DIALERAGENTEXTENSION.SBR|D:\24PCDIALER WORKS\RUNNING\24PCDIALER\RELEASE\FLEXIACCOUNT.SBR|D:\24PCDIALER WORKS\RUNNING\24PCDIALER\RELEASE\FLEXITLISTDLG.SBR|D:\24PCDIALER WORKS\RUNNING\24PCDIALER\RELEASE\GLOBALS.SBR|D:\24PCDIALER WORKS\RUNNING\24PCDIALER\RELEASE\JSON.SBR|D:\24PCDIALER WORKS\RUNNING\24PCDIALER\RELEASE\LISTDLG.SBR|D:\24PCDIALER WORKS\RUNNING\24PCDIALER\RELEASE\LOGINDLG.SBR|D:\24PCDIALER WORKS\RUNNING\24PCDIALER\RELEASE\RECHAGEDLG.SBR|D:\24PCDIALER WORKS\RUNNING\24PCDIALER\RELEASE\SMOOTHDIALER.SBR|D:\24PCDIALER WORKS\RUNNING\24PCDIALER\RELEASE\SMOOTHDIALERDLG.SBR|D:\24PCDIALER WORKS\RUNNING\24PCDIALER\RELEASE\SMSSENDDLG.SBR|D:\24PCDIALER WORKS\RUNNING\24PCDIALER\RELEASE\STDAFX.SBR
/nologo /o".\RELEASE\SMOOTHDIALER.BSC" .\RELEASE\AUDIOENGINESYMBIAN.SBR .\RELEASE\AUDIOTHREAD.SBR .\RELEASE\BLOCK_ALLOCATOR.SBR .\RELEASE\CONTACTSDLG.SBR .\RELEASE\DIALERAGENT.SBR .\RELEASE\DIALERAGENTEXTENSION.SBR .\RELEASE\FLEXIACCOUNT.SBR .\RELEASE\FLEXITLISTDLG.SBR .\RELEASE\GLOBALS.SBR .\RELEASE\JSON.SBR .\RELEASE\LISTDLG.SBR .\RELEASE\LOGINDLG.SBR .\RELEASE\RECHAGEDLG.SBR .\RELEASE\SMOOTHDIALER.SBR .\RELEASE\SMOOTHDIALERDLG.SBR .\RELEASE\SMSSENDDLG.SBR .\RELEASE\STDAFX.SBR
