^D:\24PCDIALER WORKS\NEW VERSION\WITH SMS,FLEXI\24PCDIALER\SMOOTHDIALER\STDAFX.CPP
/c /Zi /nologo /W3 /WX- /O2 /Oi /Oy- /GL /D WIN32 /D _WINDOWS /D NDEBUG /D _USING_V110_SDK71_ /D _UNICODE /D UNICODE /Gm- /EHsc /MTd /GS /Gy /fp:precise /Zc:wchar_t /Zc:forScope /Yc"stdafx.h" /Fp"RELEASE\24PCDIALER.PCH" /Fo"RELEASE\\" /Fd"RELEASE\VC110.PDB" /Gd /TP /analyze- D:\24PCDIALER WORKS\NEW VERSION\WITH SMS,FLEXI\24PCDIALER\SMOOTHDIALER\STDAFX.CPP
^D:\24PCDIALER WORKS\NEW VERSION\WITH SMS,FLEXI\24PCDIALER\SMOOTHDIALER\ACCOUNTDIALOG.CPP
/c /Zi /nologo /W3 /WX- /O2 /Oi /Oy- /GL /D WIN32 /D _WINDOWS /D NDEBUG /D _USING_V110_SDK71_ /D _UNICODE /D UNICODE /Gm- /EHsc /MTd /GS /Gy /fp:precise /Zc:wchar_t /Zc:forScope /Yu"stdafx.h" /Fp"RELEASE\24PCDIALER.PCH" /Fo"RELEASE\\" /Fd"RELEASE\VC110.PDB" /Gd /TP /analyze- D:\24PCDIALER WORKS\NEW VERSION\WITH SMS,FLEXI\24PCDIALER\SMOOTHDIALER\ACCOUNTDIALOG.CPP
^D:\24PCDIALER WORKS\NEW VERSION\WITH SMS,FLEXI\24PCDIALER\SMOOTHDIALER\ADDCONTACT.CPP
/c /Zi /nologo /W3 /WX- /O2 /Oi /Oy- /GL /D WIN32 /D _WINDOWS /D NDEBUG /D _USING_V110_SDK71_ /D _UNICODE /D UNICODE /Gm- /EHsc /MTd /GS /Gy /fp:precise /Zc:wchar_t /Zc:forScope /Yu"stdafx.h" /Fp"RELEASE\24PCDIALER.PCH" /Fo"RELEASE\\" /Fd"RELEASE\VC110.PDB" /Gd /TP /analyze- D:\24PCDIALER WORKS\NEW VERSION\WITH SMS,FLEXI\24PCDIALER\SMOOTHDIALER\ADDCONTACT.CPP
^D:\24PCDIALER WORKS\NEW VERSION\WITH SMS,FLEXI\24PCDIALER\SMOOTHDIALER\AUDIO_PLAYER.CPP
/c /Zi /nologo /W3 /WX- /O2 /Oi /Oy- /GL /D WIN32 /D _WINDOWS /D NDEBUG /D _USING_V110_SDK71_ /D _UNICODE /D UNICODE /Gm- /EHsc /MTd /GS /Gy /fp:precise /Zc:wchar_t /Zc:forScope /Yu"stdafx.h" /Fp"RELEASE\24PCDIALER.PCH" /Fo"RELEASE\\" /Fd"RELEASE\VC110.PDB" /Gd /TP /analyze- D:\24PCDIALER WORKS\NEW VERSION\WITH SMS,FLEXI\24PCDIALER\SMOOTHDIALER\AUDIO_PLAYER.CPP
^D:\24PCDIALER WORKS\NEW VERSION\WITH SMS,FLEXI\24PCDIALER\SMOOTHDIALER\AUDIO_RECORDER.CPP
/c /Zi /nologo /W3 /WX- /O2 /Oi /Oy- /GL /D WIN32 /D _WINDOWS /D NDEBUG /D _USING_V110_SDK71_ /D _UNICODE /D UNICODE /Gm- /EHsc /MTd /GS /Gy /fp:precise /Zc:wchar_t /Zc:forScope /Yu"stdafx.h" /Fp"RELEASE\24PCDIALER.PCH" /Fo"RELEASE\\" /Fd"RELEASE\VC110.PDB" /Gd /TP /analyze- D:\24PCDIALER WORKS\NEW VERSION\WITH SMS,FLEXI\24PCDIALER\SMOOTHDIALER\AUDIO_RECORDER.CPP
^D:\24PCDIALER WORKS\NEW VERSION\WITH SMS,FLEXI\24PCDIALER\SMOOTHDIALER\CALLLOG.CPP
/c /Zi /nologo /W3 /WX- /O2 /Oi /Oy- /GL /D WIN32 /D _WINDOWS /D NDEBUG /D _USING_V110_SDK71_ /D _UNICODE /D UNICODE /Gm- /EHsc /MTd /GS /Gy /fp:precise /Zc:wchar_t /Zc:forScope /Yu"stdafx.h" /Fp"RELEASE\24PCDIALER.PCH" /Fo"RELEASE\\" /Fd"RELEASE\VC110.PDB" /Gd /TP /analyze- D:\24PCDIALER WORKS\NEW VERSION\WITH SMS,FLEXI\24PCDIALER\SMOOTHDIALER\CALLLOG.CPP
^D:\24PCDIALER WORKS\NEW VERSION\WITH SMS,FLEXI\24PCDIALER\SMOOTHDIALER\CONTACTVIEW.CPP
/c /Zi /nologo /W3 /WX- /O2 /Oi /Oy- /GL /D WIN32 /D _WINDOWS /D NDEBUG /D _USING_V110_SDK71_ /D _UNICODE /D UNICODE /Gm- /EHsc /MTd /GS /Gy /fp:precise /Zc:wchar_t /Zc:forScope /Yu"stdafx.h" /Fp"RELEASE\24PCDIALER.PCH" /Fo"RELEASE\\" /Fd"RELEASE\VC110.PDB" /Gd /TP /analyze- D:\24PCDIALER WORKS\NEW VERSION\WITH SMS,FLEXI\24PCDIALER\SMOOTHDIALER\CONTACTVIEW.CPP
^D:\24PCDIALER WORKS\NEW VERSION\WITH SMS,FLEXI\24PCDIALER\SMOOTHDIALER\FLEXIHISTORYDLG.CPP
/c /Zi /nologo /W3 /WX- /O2 /Oi /Oy- /GL /D WIN32 /D _WINDOWS /D NDEBUG /D _USING_V110_SDK71_ /D _UNICODE /D UNICODE /Gm- /EHsc /MTd /GS /Gy /fp:precise /Zc:wchar_t /Zc:forScope /Yu"stdafx.h" /Fp"RELEASE\24PCDIALER.PCH" /Fo"RELEASE\\" /Fd"RELEASE\VC110.PDB" /Gd /TP /analyze- D:\24PCDIALER WORKS\NEW VERSION\WITH SMS,FLEXI\24PCDIALER\SMOOTHDIALER\FLEXIHISTORYDLG.CPP
^D:\24PCDIALER WORKS\NEW VERSION\WITH SMS,FLEXI\24PCDIALER\SMOOTHDIALER\FLEXIRECHARGEDLG.CPP
/c /Zi /nologo /W3 /WX- /O2 /Oi /Oy- /GL /D WIN32 /D _WINDOWS /D NDEBUG /D _USING_V110_SDK71_ /D _UNICODE /D UNICODE /Gm- /EHsc /MTd /GS /Gy /fp:precise /Zc:wchar_t /Zc:forScope /Yu"stdafx.h" /Fp"RELEASE\24PCDIALER.PCH" /Fo"RELEASE\\" /Fd"RELEASE\VC110.PDB" /Gd /TP /analyze- D:\24PCDIALER WORKS\NEW VERSION\WITH SMS,FLEXI\24PCDIALER\SMOOTHDIALER\FLEXIRECHARGEDLG.CPP
^D:\24PCDIALER WORKS\NEW VERSION\WITH SMS,FLEXI\24PCDIALER\SMOOTHDIALER\FLEXISMSSETTINGSDLG.CPP
/c /Zi /nologo /W3 /WX- /O2 /Oi /Oy- /GL /D WIN32 /D _WINDOWS /D NDEBUG /D _USING_V110_SDK71_ /D _UNICODE /D UNICODE /Gm- /EHsc /MTd /GS /Gy /fp:precise /Zc:wchar_t /Zc:forScope /Yu"stdafx.h" /Fp"RELEASE\24PCDIALER.PCH" /Fo"RELEASE\\" /Fd"RELEASE\VC110.PDB" /Gd /TP /analyze- D:\24PCDIALER WORKS\NEW VERSION\WITH SMS,FLEXI\24PCDIALER\SMOOTHDIALER\FLEXISMSSETTINGSDLG.CPP
^D:\24PCDIALER WORKS\NEW VERSION\WITH SMS,FLEXI\24PCDIALER\SMOOTHDIALER\MYUTIL.CPP
/c /Zi /nologo /W3 /WX- /O2 /Oi /Oy- /GL /D WIN32 /D _WINDOWS /D NDEBUG /D _USING_V110_SDK71_ /D _UNICODE /D UNICODE /Gm- /EHsc /MTd /GS /Gy /fp:precise /Zc:wchar_t /Zc:forScope /Yu"stdafx.h" /Fp"RELEASE\24PCDIALER.PCH" /Fo"RELEASE\\" /Fd"RELEASE\VC110.PDB" /Gd /TP /analyze- D:\24PCDIALER WORKS\NEW VERSION\WITH SMS,FLEXI\24PCDIALER\SMOOTHDIALER\MYUTIL.CPP
^D:\24PCDIALER WORKS\NEW VERSION\WITH SMS,FLEXI\24PCDIALER\SMOOTHDIALER\REQUEST.CPP
/c /Zi /nologo /W3 /WX- /O2 /Oi /Oy- /GL /D WIN32 /D _WINDOWS /D NDEBUG /D _USING_V110_SDK71_ /D _UNICODE /D UNICODE /Gm- /EHsc /MTd /GS /Gy /fp:precise /Zc:wchar_t /Zc:forScope /Yu"stdafx.h" /Fp"RELEASE\24PCDIALER.PCH" /Fo"RELEASE\\" /Fd"RELEASE\VC110.PDB" /Gd /TP /analyze- D:\24PCDIALER WORKS\NEW VERSION\WITH SMS,FLEXI\24PCDIALER\SMOOTHDIALER\REQUEST.CPP
^D:\24PCDIALER WORKS\NEW VERSION\WITH SMS,FLEXI\24PCDIALER\SMOOTHDIALER\SMOOTHDIALER.CPP
/c /Zi /nologo /W3 /WX- /O2 /Oi /Oy- /GL /D WIN32 /D _WINDOWS /D NDEBUG /D _USING_V110_SDK71_ /D _UNICODE /D UNICODE /Gm- /EHsc /MTd /GS /Gy /fp:precise /Zc:wchar_t /Zc:forScope /Yu"stdafx.h" /Fp"RELEASE\24PCDIALER.PCH" /Fo"RELEASE\\" /Fd"RELEASE\VC110.PDB" /Gd /TP /analyze- D:\24PCDIALER WORKS\NEW VERSION\WITH SMS,FLEXI\24PCDIALER\SMOOTHDIALER\SMOOTHDIALER.CPP
^D:\24PCDIALER WORKS\NEW VERSION\WITH SMS,FLEXI\24PCDIALER\SMOOTHDIALER\SMOOTHDIALERDLG.CPP
/c /Zi /nologo /W3 /WX- /O2 /Oi /Oy- /GL /D WIN32 /D _WINDOWS /D NDEBUG /D _USING_V110_SDK71_ /D _UNICODE /D UNICODE /Gm- /EHsc /MTd /GS /Gy /fp:precise /Zc:wchar_t /Zc:forScope /Yu"stdafx.h" /Fp"RELEASE\24PCDIALER.PCH" /Fo"RELEASE\\" /Fd"RELEASE\VC110.PDB" /Gd /TP /analyze- D:\24PCDIALER WORKS\NEW VERSION\WITH SMS,FLEXI\24PCDIALER\SMOOTHDIALER\SMOOTHDIALERDLG.CPP
^D:\24PCDIALER WORKS\NEW VERSION\WITH SMS,FLEXI\24PCDIALER\SMOOTHDIALER\SMSHISTORYDLG.CPP
/c /Zi /nologo /W3 /WX- /O2 /Oi /Oy- /GL /D WIN32 /D _WINDOWS /D NDEBUG /D _USING_V110_SDK71_ /D _UNICODE /D UNICODE /Gm- /EHsc /MTd /GS /Gy /fp:precise /Zc:wchar_t /Zc:forScope /Yu"stdafx.h" /Fp"RELEASE\24PCDIALER.PCH" /Fo"RELEASE\\" /Fd"RELEASE\VC110.PDB" /Gd /TP /analyze- D:\24PCDIALER WORKS\NEW VERSION\WITH SMS,FLEXI\24PCDIALER\SMOOTHDIALER\SMSHISTORYDLG.CPP
^D:\24PCDIALER WORKS\NEW VERSION\WITH SMS,FLEXI\24PCDIALER\SMOOTHDIALER\SMSSENDDLG.CPP
/c /Zi /nologo /W3 /WX- /O2 /Oi /Oy- /GL /D WIN32 /D _WINDOWS /D NDEBUG /D _USING_V110_SDK71_ /D _UNICODE /D UNICODE /Gm- /EHsc /MTd /GS /Gy /fp:precise /Zc:wchar_t /Zc:forScope /Yu"stdafx.h" /Fp"RELEASE\24PCDIALER.PCH" /Fo"RELEASE\\" /Fd"RELEASE\VC110.PDB" /Gd /TP /analyze- D:\24PCDIALER WORKS\NEW VERSION\WITH SMS,FLEXI\24PCDIALER\SMOOTHDIALER\SMSSENDDLG.CPP
^D:\24PCDIALER WORKS\NEW VERSION\WITH SMS,FLEXI\24PCDIALER\SMOOTHDIALER\BLOCK_ALLOCATOR.CPP
/c /Zi /nologo /W3 /WX- /O2 /Oi /Oy- /GL /D WIN32 /D _WINDOWS /D NDEBUG /D _USING_V110_SDK71_ /D _UNICODE /D UNICODE /Gm- /EHsc /MTd /GS /Gy /fp:precise /Zc:wchar_t /Zc:forScope /Fo"RELEASE\\" /Fd"RELEASE\VC110.PDB" /Gd /TP /analyze- D:\24PCDIALER WORKS\NEW VERSION\WITH SMS,FLEXI\24PCDIALER\SMOOTHDIALER\BLOCK_ALLOCATOR.CPP
^D:\24PCDIALER WORKS\NEW VERSION\WITH SMS,FLEXI\24PCDIALER\SMOOTHDIALER\JSON.CPP
/c /Zi /nologo /W3 /WX- /O2 /Oi /Oy- /GL /D WIN32 /D _WINDOWS /D NDEBUG /D _USING_V110_SDK71_ /D _UNICODE /D UNICODE /Gm- /EHsc /MTd /GS /Gy /fp:precise /Zc:wchar_t /Zc:forScope /Fo"RELEASE\\" /Fd"RELEASE\VC110.PDB" /Gd /TP /analyze- D:\24PCDIALER WORKS\NEW VERSION\WITH SMS,FLEXI\24PCDIALER\SMOOTHDIALER\JSON.CPP
