D:\24DIALER\NEW FOLDER\SMOOTHDIALER-PC\SMOOTHDIALER\DEBUG\SMOOTHDIALER.PCH
D:\24DIALER\NEW FOLDER\SMOOTHDIALER-PC\SMOOTHDIALER\DEBUG\STDAFX.OBJ
D:\24DIALER\NEW FOLDER\SMOOTHDIALER-PC\SMOOTHDIALER\DEBUG\VC110.PDB
D:\24DIALER\NEW FOLDER\SMOOTHDIALER-PC\SMOOTHDIALER\DEBUG\ACCOUNTDIALOG.OBJ
D:\24DIALER\NEW FOLDER\SMOOTHDIALER-PC\SMOOTHDIALER\DEBUG\ADDCONTACT.OBJ
D:\24DIALER\NEW FOLDER\SMOOTHDIALER-PC\SMOOTHDIALER\DEBUG\AUDIO_PLAYER.OBJ
D:\24DIALER\NEW FOLDER\SMOOTHDIALER-PC\SMOOTHDIALER\DEBUG\AUDIO_RECORDER.OBJ
D:\24DIALER\NEW FOLDER\SMOOTHDIALER-PC\SMOOTHDIALER\DEBUG\CALLLOG.OBJ
D:\24DIALER\NEW FOLDER\SMOOTHDIALER-PC\SMOOTHDIALER\DEBUG\CONTACTVIEW.OBJ
D:\24DIALER\NEW FOLDER\SMOOTHDIALER-PC\SMOOTHDIALER\DEBUG\MYUTIL.OBJ
D:\24DIALER\NEW FOLDER\SMOOTHDIALER-PC\SMOOTHDIALER\DEBUG\SMOOTHDIALER.OBJ
D:\24DIALER\NEW FOLDER\SMOOTHDIALER-PC\SMOOTHDIALER\DEBUG\SMOOTHDIALERDLG.OBJ
D:\24DIALER\NEW FOLDER\SMOOTHDIALER-PC\DEBUG\SMOOTHDIALER.ILK
D:\24DIALER\NEW FOLDER\SMOOTHDIALER-PC\DEBUG\SMOOTHDIALER.EXE
D:\24DIALER\NEW FOLDER\SMOOTHDIALER-PC\DEBUG\SMOOTHDIALER.PDB
D:\24DIALER\NEW FOLDER\SMOOTHDIALER-PC\SMOOTHDIALER\DEBUG\SMOOTHDIALER.RES
D:\24Dialer\New folder\SmoothDialer-pc\SmoothDialer\Debug\AccountDialog.obj
D:\24Dialer\New folder\SmoothDialer-pc\SmoothDialer\Debug\AddContact.obj
D:\24Dialer\New folder\SmoothDialer-pc\SmoothDialer\Debug\audio_player.obj
D:\24Dialer\New folder\SmoothDialer-pc\SmoothDialer\Debug\audio_recorder.obj
D:\24Dialer\New folder\SmoothDialer-pc\SmoothDialer\Debug\CallLog.obj
D:\24Dialer\New folder\SmoothDialer-pc\SmoothDialer\Debug\ContactView.obj
D:\24Dialer\New folder\SmoothDialer-pc\SmoothDialer\Debug\MyUtil.obj
D:\24Dialer\New folder\SmoothDialer-pc\SmoothDialer\Debug\SmoothDialer.obj
D:\24Dialer\New folder\SmoothDialer-pc\SmoothDialer\Debug\SmoothDialerDlg.obj
D:\24Dialer\New folder\SmoothDialer-pc\SmoothDialer\Debug\stdafx.obj
D:\24Dialer\New folder\SmoothDialer-pc\SmoothDialer\Debug\cl.command.1.tlog
D:\24Dialer\New folder\SmoothDialer-pc\SmoothDialer\Debug\CL.read.1.tlog
D:\24Dialer\New folder\SmoothDialer-pc\SmoothDialer\Debug\CL.write.1.tlog
D:\24Dialer\New folder\SmoothDialer-pc\SmoothDialer\Debug\link-cvtres.read.1.tlog
D:\24Dialer\New folder\SmoothDialer-pc\SmoothDialer\Debug\link-cvtres.write.1.tlog
D:\24Dialer\New folder\SmoothDialer-pc\SmoothDialer\Debug\link-mt.read.1.tlog
D:\24Dialer\New folder\SmoothDialer-pc\SmoothDialer\Debug\link-mt.write.1.tlog
D:\24Dialer\New folder\SmoothDialer-pc\SmoothDialer\Debug\link-rc.read.1.tlog
D:\24Dialer\New folder\SmoothDialer-pc\SmoothDialer\Debug\link-rc.write.1.tlog
D:\24Dialer\New folder\SmoothDialer-pc\SmoothDialer\Debug\link.command.1.tlog
D:\24Dialer\New folder\SmoothDialer-pc\SmoothDialer\Debug\link.read.1.tlog
D:\24Dialer\New folder\SmoothDialer-pc\SmoothDialer\Debug\link.write.1.tlog
D:\24Dialer\New folder\SmoothDialer-pc\SmoothDialer\Debug\rc.command.1.tlog
D:\24Dialer\New folder\SmoothDialer-pc\SmoothDialer\Debug\rc.read.1.tlog
D:\24Dialer\New folder\SmoothDialer-pc\SmoothDialer\Debug\rc.write.1.tlog
D:\24Dialer\New folder\SmoothDialer-pc\SmoothDialer\Debug\SmoothDialer.res
D:\24Dialer\New folder\SmoothDialer-pc\SmoothDialer\Debug\SmoothDialer.pch
D:\24Dialer\New folder\SmoothDialer-pc\SmoothDialer\Debug\vc110.idb
D:\24Dialer\New folder\SmoothDialer-pc\SmoothDialer\Debug\vc110.pdb
D:\24Dialer\New folder\SmoothDialer-pc\Debug\SmoothDialer.pdb
D:\24Dialer\New folder\SmoothDialer-pc\Debug\SmoothDialer.exe
D:\24Dialer\New folder\SmoothDialer-pc\Debug\SmoothDialer.ilk
