^D:\24DIALER\NEW VERSION\24PCDIALER\WITHOUT BRUSH\24PCDIALER\DIALERAGENT\DEBUG\APP.RES|D:\24DIALER\NEW VERSION\24PCDIALER\WITHOUT BRUSH\24PCDIALER\DIALERAGENT\DEBUG\ASSEMBLYINFO.OBJ|D:\24DIALER\NEW VERSION\24PCDIALER\WITHOUT BRUSH\24PCDIALER\DIALERAGENT\DEBUG\DIALER_AGENT.OBJ|D:\24DIALER\NEW VERSION\24PCDIALER\WITHOUT BRUSH\24PCDIALER\DIALERAGENT\DEBUG\DIALER_AGENT_UTIL.OBJ|D:\24DIALER\NEW VERSION\24PCDIALER\WITHOUT BRUSH\24PCDIALER\DIALERAGENT\DEBUG\DIALER_TUNNEL.OBJ|D:\24DIALER\NEW VERSION\24PCDIALER\WITHOUT BRUSH\24PCDIALER\DIALERAGENT\DEBUG\NETWORK_POLLER.OBJ
D:\24DIALER\NEW VERSION\24PCDIALER\WITHOUT BRUSH\24PCDIALER\DIALERAGENT\DEBUG\APP.RES
C:\WINDOWS\GLOBALIZATION\SORTING\SORTDEFAULT.NLS
C:\WINDOWS\SYSTEM32\TZRES.DLL
D:\24DIALER\NEW VERSION\24PCDIALER\WITHOUT BRUSH\24PCDIALER\DEBUG\G729.LIB
D:\24DIALER\NEW VERSION\24PCDIALER\WITHOUT BRUSH\24PCDIALER\DIALERAGENT\DEBUG\ASSEMBLYINFO.OBJ
D:\24DIALER\NEW VERSION\24PCDIALER\WITHOUT BRUSH\24PCDIALER\DIALERAGENT\DEBUG\DIALER_AGENT.OBJ
D:\24DIALER\NEW VERSION\24PCDIALER\WITHOUT BRUSH\24PCDIALER\DIALERAGENT\DEBUG\DIALER_AGENT_UTIL.OBJ
D:\24DIALER\NEW VERSION\24PCDIALER\WITHOUT BRUSH\24PCDIALER\DIALERAGENT\DEBUG\DIALER_TUNNEL.OBJ
D:\24DIALER\NEW VERSION\24PCDIALER\WITHOUT BRUSH\24PCDIALER\DIALERAGENT\DEBUG\NETWORK_POLLER.OBJ
C:\PROGRAM FILES (X86)\MICROSOFT VISUAL STUDIO 11.0\VC\BIN\1033\LINKUI.DLL
^D:\24DIALER\NEW VERSION\HELLOVOIP\H\24PCDIALER\DIALERAGENT\DEBUG\APP.RES|D:\24DIALER\NEW VERSION\HELLOVOIP\H\24PCDIALER\DIALERAGENT\DEBUG\ASSEMBLYINFO.OBJ|D:\24DIALER\NEW VERSION\HELLOVOIP\H\24PCDIALER\DIALERAGENT\DEBUG\DIALER_AGENT.OBJ|D:\24DIALER\NEW VERSION\HELLOVOIP\H\24PCDIALER\DIALERAGENT\DEBUG\DIALER_AGENT_UTIL.OBJ|D:\24DIALER\NEW VERSION\HELLOVOIP\H\24PCDIALER\DIALERAGENT\DEBUG\DIALER_TUNNEL.OBJ|D:\24DIALER\NEW VERSION\HELLOVOIP\H\24PCDIALER\DIALERAGENT\DEBUG\NETWORK_POLLER.OBJ
D:\24DIALER\NEW VERSION\HELLOVOIP\H\24PCDIALER\DIALERAGENT\DEBUG\APP.RES
C:\WINDOWS\GLOBALIZATION\SORTING\SORTDEFAULT.NLS
C:\WINDOWS\SYSTEM32\TZRES.DLL
D:\24DIALER\NEW VERSION\HELLOVOIP\H\24PCDIALER\DEBUG\G729.LIB
D:\24DIALER\NEW VERSION\HELLOVOIP\H\24PCDIALER\DIALERAGENT\DEBUG\ASSEMBLYINFO.OBJ
D:\24DIALER\NEW VERSION\HELLOVOIP\H\24PCDIALER\DIALERAGENT\DEBUG\DIALER_AGENT.OBJ
D:\24DIALER\NEW VERSION\HELLOVOIP\H\24PCDIALER\DIALERAGENT\DEBUG\DIALER_AGENT_UTIL.OBJ
D:\24DIALER\NEW VERSION\HELLOVOIP\H\24PCDIALER\DIALERAGENT\DEBUG\DIALER_TUNNEL.OBJ
D:\24DIALER\NEW VERSION\HELLOVOIP\H\24PCDIALER\DIALERAGENT\DEBUG\NETWORK_POLLER.OBJ
C:\PROGRAM FILES (X86)\MICROSOFT VISUAL STUDIO 11.0\VC\BIN\1033\LINKUI.DLL
