^D:\24DIALER\NEW VERSION\24PCDIALER\WITHOUT BRUSH\24PCDIALER\DIALERAGENT\DEBUG\APP.RES|D:\24DIALER\NEW VERSION\24PCDIALER\WITHOUT BRUSH\24PCDIALER\DIALERAGENT\DEBUG\ASSEMBLYINFO.OBJ|D:\24DIALER\NEW VERSION\24PCDIALER\WITHOUT BRUSH\24PCDIALER\DIALERAGENT\DEBUG\DIALER_AGENT.OBJ|D:\24DIALER\NEW VERSION\24PCDIALER\WITHOUT BRUSH\24PCDIALER\DIALERAGENT\DEBUG\DIALER_AGENT_UTIL.OBJ|D:\24DIALER\NEW VERSION\24PCDIALER\WITHOUT BRUSH\24PCDIALER\DIALERAGENT\DEBUG\DIALER_TUNNEL.OBJ|D:\24DIALER\NEW VERSION\24PCDIALER\WITHOUT BRUSH\24PCDIALER\DIALERAGENT\DEBUG\NETWORK_POLLER.OBJ
/OUT:"D:\24DIALER\NEW VERSION\24PCDIALER\WITHOUT BRUSH\24PCDIALER\DEBUG\DIALER_AGENT.LIB" ../Debug/G729.lib /NOLOGO DEBUG\APP.RESDEBUG\ASSEMBLYINFO.OBJDEBUG\DIALER_AGENT.OBJDEBUG\DIALER_AGENT_UTIL.OBJDEBUG\DIALER_TUNNEL.OBJDEBUG\NETWORK_POLLER.OBJ
^D:\24DIALER\NEW VERSION\HELLOVOIP\H\24PCDIALER\DIALERAGENT\DEBUG\APP.RES|D:\24DIALER\NEW VERSION\HELLOVOIP\H\24PCDIALER\DIALERAGENT\DEBUG\ASSEMBLYINFO.OBJ|D:\24DIALER\NEW VERSION\HELLOVOIP\H\24PCDIALER\DIALERAGENT\DEBUG\DIALER_AGENT.OBJ|D:\24DIALER\NEW VERSION\HELLOVOIP\H\24PCDIALER\DIALERAGENT\DEBUG\DIALER_AGENT_UTIL.OBJ|D:\24DIALER\NEW VERSION\HELLOVOIP\H\24PCDIALER\DIALERAGENT\DEBUG\DIALER_TUNNEL.OBJ|D:\24DIALER\NEW VERSION\HELLOVOIP\H\24PCDIALER\DIALERAGENT\DEBUG\NETWORK_POLLER.OBJ
/OUT:"D:\24DIALER\NEW VERSION\HELLOVOIP\H\24PCDIALER\DEBUG\DIALER_AGENT.LIB" ../Debug/G729.lib /NOLOGO DEBUG\APP.RESDEBUG\ASSEMBLYINFO.OBJDEBUG\DIALER_AGENT.OBJDEBUG\DIALER_AGENT_UTIL.OBJDEBUG\DIALER_TUNNEL.OBJDEBUG\NETWORK_POLLER.OBJ
