^D:\24PCDIALER WORKS\NEW VERSION\WITH SMS,FLEXI\24PCDIALER\G729\APP.RC
D:\24PCDIALER WORKS\NEW VERSION\WITH SMS,FLEXI\24PCDIALER\G729\RESOURCE.H
D:\24PCDIALER WORKS\NEW VERSION\WITH SMS,FLEXI\24PCDIALER\G729\APP.ICO
