^D:\24DIALER\BACKUP\10.7.2013\SMOOTHDIALER-PC-VS2008\DEBUG\AUDIOENGINESYMBIAN.SBR|D:\24DIALER\BACKUP\10.7.2013\SMOOTHDIALER-PC-VS2008\DEBUG\AUDIOTHREAD.SBR|D:\24DIALER\BACKUP\10.7.2013\SMOOTHDIALER-PC-VS2008\DEBUG\DIALERAGENT.SBR|D:\24DIALER\BACKUP\10.7.2013\SMOOTHDIALER-PC-VS2008\DEBUG\DIALERAGENTEXTENSION.SBR|D:\24DIALER\BACKUP\10.7.2013\SMOOTHDIALER-PC-VS2008\DEBUG\GLOBALS.SBR|D:\24DIALER\BACKUP\10.7.2013\SMOOTHDIALER-PC-VS2008\DEBUG\LOGINDLG.SBR|D:\24DIALER\BACKUP\10.7.2013\SMOOTHDIALER-PC-VS2008\DEBUG\SMOOTHDIALER.SBR|D:\24DIALER\BACKUP\10.7.2013\SMOOTHDIALER-PC-VS2008\DEBUG\SMOOTHDIALERDLG.SBR|D:\24DIALER\BACKUP\10.7.2013\SMOOTHDIALER-PC-VS2008\DEBUG\STDAFX.SBR
/nologo /o".\DEBUG\SMOOTHDIALER.BSC" .\DEBUG\AUDIOENGINESYMBIAN.SBR .\DEBUG\AUDIOTHREAD.SBR .\DEBUG\DIALERAGENT.SBR .\DEBUG\DIALERAGENTEXTENSION.SBR .\DEBUG\GLOBALS.SBR .\DEBUG\LOGINDLG.SBR .\DEBUG\SMOOTHDIALER.SBR .\DEBUG\SMOOTHDIALERDLG.SBR .\DEBUG\STDAFX.SBR
^D:\24DIALER\RUNNING\SMOOTHDIALER-PC-VS2008\DEBUG\AUDIOENGINESYMBIAN.SBR|D:\24DIALER\RUNNING\SMOOTHDIALER-PC-VS2008\DEBUG\AUDIOTHREAD.SBR|D:\24DIALER\RUNNING\SMOOTHDIALER-PC-VS2008\DEBUG\DIALERAGENT.SBR|D:\24DIALER\RUNNING\SMOOTHDIALER-PC-VS2008\DEBUG\DIALERAGENTEXTENSION.SBR|D:\24DIALER\RUNNING\SMOOTHDIALER-PC-VS2008\DEBUG\GLOBALS.SBR|D:\24DIALER\RUNNING\SMOOTHDIALER-PC-VS2008\DEBUG\LOGINDLG.SBR|D:\24DIALER\RUNNING\SMOOTHDIALER-PC-VS2008\DEBUG\SMOOTHDIALER.SBR|D:\24DIALER\RUNNING\SMOOTHDIALER-PC-VS2008\DEBUG\SMOOTHDIALERDLG.SBR|D:\24DIALER\RUNNING\SMOOTHDIALER-PC-VS2008\DEBUG\STDAFX.SBR
/nologo /o".\DEBUG\SMOOTHDIALER.BSC" .\DEBUG\AUDIOENGINESYMBIAN.SBR .\DEBUG\AUDIOTHREAD.SBR .\DEBUG\DIALERAGENT.SBR .\DEBUG\DIALERAGENTEXTENSION.SBR .\DEBUG\GLOBALS.SBR .\DEBUG\LOGINDLG.SBR .\DEBUG\SMOOTHDIALER.SBR .\DEBUG\SMOOTHDIALERDLG.SBR .\DEBUG\STDAFX.SBR
