^D:\24DIALER\BACKUP\10.7.2013\SMOOTHDIALER-PC-VS2008\DEBUG\AUDIOENGINESYMBIAN.OBJ|D:\24DIALER\BACKUP\10.7.2013\SMOOTHDIALER-PC-VS2008\DEBUG\AUDIOTHREAD.OBJ|D:\24DIALER\BACKUP\10.7.2013\SMOOTHDIALER-PC-VS2008\DEBUG\DIALERAGENT.OBJ|D:\24DIALER\BACKUP\10.7.2013\SMOOTHDIALER-PC-VS2008\DEBUG\DIALERAGENTEXTENSION.OBJ|D:\24DIALER\BACKUP\10.7.2013\SMOOTHDIALER-PC-VS2008\DEBUG\GLOBALS.OBJ|D:\24DIALER\BACKUP\10.7.2013\SMOOTHDIALER-PC-VS2008\DEBUG\LOGINDLG.OBJ|D:\24DIALER\BACKUP\10.7.2013\SMOOTHDIALER-PC-VS2008\DEBUG\SMOOTHDIALER.OBJ|D:\24DIALER\BACKUP\10.7.2013\SMOOTHDIALER-PC-VS2008\DEBUG\SMOOTHDIALER.RES|D:\24DIALER\BACKUP\10.7.2013\SMOOTHDIALER-PC-VS2008\DEBUG\SMOOTHDIALERDLG.OBJ|D:\24DIALER\BACKUP\10.7.2013\SMOOTHDIALER-PC-VS2008\DEBUG\STDAFX.OBJ
D:\24DIALER\BACKUP\10.7.2013\SMOOTHDIALER-PC-VS2008\DEBUG\SMOOTHDIALER.ILK
D:\24DIALER\BACKUP\10.7.2013\SMOOTHDIALER-PC-VS2008\DEBUG\SMOOTHDIALER.EXE
D:\24DIALER\BACKUP\10.7.2013\SMOOTHDIALER-PC-VS2008\DEBUG\SMOOTHDIALER.PDB
^D:\24DIALER\RUNNING\SMOOTHDIALER-PC-VS2008\DEBUG\AUDIOENGINESYMBIAN.OBJ|D:\24DIALER\RUNNING\SMOOTHDIALER-PC-VS2008\DEBUG\AUDIOTHREAD.OBJ|D:\24DIALER\RUNNING\SMOOTHDIALER-PC-VS2008\DEBUG\DIALERAGENT.OBJ|D:\24DIALER\RUNNING\SMOOTHDIALER-PC-VS2008\DEBUG\DIALERAGENTEXTENSION.OBJ|D:\24DIALER\RUNNING\SMOOTHDIALER-PC-VS2008\DEBUG\GLOBALS.OBJ|D:\24DIALER\RUNNING\SMOOTHDIALER-PC-VS2008\DEBUG\LOGINDLG.OBJ|D:\24DIALER\RUNNING\SMOOTHDIALER-PC-VS2008\DEBUG\SMOOTHDIALER.OBJ|D:\24DIALER\RUNNING\SMOOTHDIALER-PC-VS2008\DEBUG\SMOOTHDIALER.RES|D:\24DIALER\RUNNING\SMOOTHDIALER-PC-VS2008\DEBUG\SMOOTHDIALERDLG.OBJ|D:\24DIALER\RUNNING\SMOOTHDIALER-PC-VS2008\DEBUG\STDAFX.OBJ
D:\24DIALER\RUNNING\SMOOTHDIALER-PC-VS2008\DEBUG\SMOOTHDIALER.ILK
D:\24DIALER\RUNNING\SMOOTHDIALER-PC-VS2008\DEBUG\SMOOTHDIALER.EXE
D:\24DIALER\RUNNING\SMOOTHDIALER-PC-VS2008\DEBUG\SMOOTHDIALER.PDB
