^D:\24DIALER\BACKUP\10.7.2013\SMOOTHDIALER-PC-VS2008\SMOOTHDIALER.RC
D:\24DIALER\BACKUP\10.7.2013\SMOOTHDIALER-PC-VS2008\DEBUG\SMOOTHDIALER.RES
^D:\24DIALER\RUNNING\SMOOTHDIALER-PC-VS2008\SMOOTHDIALER.RC
D:\24DIALER\RUNNING\SMOOTHDIALER-PC-VS2008\DEBUG\SMOOTHDIALER.RES
