^D:\24PCDIALER WORKS\NEW VERSION\HELLOVOIP\24PCDIALER\SMOOTHDIALER\STDAFX.CPP
D:\24PCDIALER WORKS\NEW VERSION\HELLOVOIP\24PCDIALER\SMOOTHDIALER\RELEASE\HELLOVOIP.PCH
D:\24PCDIALER WORKS\NEW VERSION\HELLOVOIP\24PCDIALER\SMOOTHDIALER\RELEASE\STDAFX.OBJ
D:\24PCDIALER WORKS\NEW VERSION\HELLOVOIP\24PCDIALER\SMOOTHDIALER\RELEASE\VC110.PDB
^D:\24PCDIALER WORKS\NEW VERSION\HELLOVOIP\24PCDIALER\SMOOTHDIALER\ACCOUNTDIALOG.CPP|D:\24PCDIALER WORKS\NEW VERSION\HELLOVOIP\24PCDIALER\SMOOTHDIALER\ADDCONTACT.CPP|D:\24PCDIALER WORKS\NEW VERSION\HELLOVOIP\24PCDIALER\SMOOTHDIALER\AUDIO_PLAYER.CPP|D:\24PCDIALER WORKS\NEW VERSION\HELLOVOIP\24PCDIALER\SMOOTHDIALER\AUDIO_RECORDER.CPP|D:\24PCDIALER WORKS\NEW VERSION\HELLOVOIP\24PCDIALER\SMOOTHDIALER\CALLLOG.CPP|D:\24PCDIALER WORKS\NEW VERSION\HELLOVOIP\24PCDIALER\SMOOTHDIALER\CONTACTVIEW.CPP|D:\24PCDIALER WORKS\NEW VERSION\HELLOVOIP\24PCDIALER\SMOOTHDIALER\MYUTIL.CPP|D:\24PCDIALER WORKS\NEW VERSION\HELLOVOIP\24PCDIALER\SMOOTHDIALER\SMOOTHDIALER.CPP|D:\24PCDIALER WORKS\NEW VERSION\HELLOVOIP\24PCDIALER\SMOOTHDIALER\SMOOTHDIALERDLG.CPP
D:\24PCDIALER WORKS\NEW VERSION\HELLOVOIP\24PCDIALER\SMOOTHDIALER\RELEASE\SMOOTHDIALERDLG.OBJ
D:\24PCDIALER WORKS\NEW VERSION\HELLOVOIP\24PCDIALER\SMOOTHDIALER\RELEASE\SMOOTHDIALER.OBJ
D:\24PCDIALER WORKS\NEW VERSION\HELLOVOIP\24PCDIALER\SMOOTHDIALER\RELEASE\MYUTIL.OBJ
D:\24PCDIALER WORKS\NEW VERSION\HELLOVOIP\24PCDIALER\SMOOTHDIALER\RELEASE\CONTACTVIEW.OBJ
D:\24PCDIALER WORKS\NEW VERSION\HELLOVOIP\24PCDIALER\SMOOTHDIALER\RELEASE\CALLLOG.OBJ
D:\24PCDIALER WORKS\NEW VERSION\HELLOVOIP\24PCDIALER\SMOOTHDIALER\RELEASE\AUDIO_RECORDER.OBJ
D:\24PCDIALER WORKS\NEW VERSION\HELLOVOIP\24PCDIALER\SMOOTHDIALER\RELEASE\AUDIO_PLAYER.OBJ
D:\24PCDIALER WORKS\NEW VERSION\HELLOVOIP\24PCDIALER\SMOOTHDIALER\RELEASE\ADDCONTACT.OBJ
D:\24PCDIALER WORKS\NEW VERSION\HELLOVOIP\24PCDIALER\SMOOTHDIALER\RELEASE\ACCOUNTDIALOG.OBJ
^D:\24PCDIALER WORKS\NEW VERSION\HELLOVOIP\24PCDIALER\SMOOTHDIALER\ACCOUNTDIALOG.CPP
D:\24PCDIALER WORKS\NEW VERSION\HELLOVOIP\24PCDIALER\SMOOTHDIALER\RELEASE\VC110.PDB
^D:\24PCDIALER WORKS\NEW VERSION\HELLOVOIP\24PCDIALER\SMOOTHDIALER\ADDCONTACT.CPP
D:\24PCDIALER WORKS\NEW VERSION\HELLOVOIP\24PCDIALER\SMOOTHDIALER\RELEASE\VC110.PDB
^D:\24PCDIALER WORKS\NEW VERSION\HELLOVOIP\24PCDIALER\SMOOTHDIALER\AUDIO_PLAYER.CPP
D:\24PCDIALER WORKS\NEW VERSION\HELLOVOIP\24PCDIALER\SMOOTHDIALER\RELEASE\VC110.PDB
^D:\24PCDIALER WORKS\NEW VERSION\HELLOVOIP\24PCDIALER\SMOOTHDIALER\AUDIO_RECORDER.CPP
D:\24PCDIALER WORKS\NEW VERSION\HELLOVOIP\24PCDIALER\SMOOTHDIALER\RELEASE\VC110.PDB
^D:\24PCDIALER WORKS\NEW VERSION\HELLOVOIP\24PCDIALER\SMOOTHDIALER\CALLLOG.CPP
D:\24PCDIALER WORKS\NEW VERSION\HELLOVOIP\24PCDIALER\SMOOTHDIALER\RELEASE\VC110.PDB
^D:\24PCDIALER WORKS\NEW VERSION\HELLOVOIP\24PCDIALER\SMOOTHDIALER\CONTACTVIEW.CPP
D:\24PCDIALER WORKS\NEW VERSION\HELLOVOIP\24PCDIALER\SMOOTHDIALER\RELEASE\VC110.PDB
^D:\24PCDIALER WORKS\NEW VERSION\HELLOVOIP\24PCDIALER\SMOOTHDIALER\MYUTIL.CPP
D:\24PCDIALER WORKS\NEW VERSION\HELLOVOIP\24PCDIALER\SMOOTHDIALER\RELEASE\VC110.PDB
^D:\24PCDIALER WORKS\NEW VERSION\HELLOVOIP\24PCDIALER\SMOOTHDIALER\SMOOTHDIALER.CPP
D:\24PCDIALER WORKS\NEW VERSION\HELLOVOIP\24PCDIALER\SMOOTHDIALER\RELEASE\VC110.PDB
^D:\24PCDIALER WORKS\NEW VERSION\HELLOVOIP\24PCDIALER\SMOOTHDIALER\SMOOTHDIALERDLG.CPP
D:\24PCDIALER WORKS\NEW VERSION\HELLOVOIP\24PCDIALER\SMOOTHDIALER\RELEASE\VC110.PDB
