^D:\24PCDIALER WORKS\NEW VERSION\DEVELOPING\FINAL\24PCDIALER\G729\STDAFX.CPP
D:\24PCDIALER WORKS\NEW VERSION\DEVELOPING\FINAL\24PCDIALER\G729\RELEASE\G729.PCH
D:\24PCDIALER WORKS\NEW VERSION\DEVELOPING\FINAL\24PCDIALER\G729\RELEASE\STDAFX.OBJ
D:\24PCDIALER WORKS\NEW VERSION\DEVELOPING\FINAL\24PCDIALER\G729\RELEASE\VC110.PDB
^D:\24PCDIALER WORKS\NEW VERSION\DEVELOPING\FINAL\24PCDIALER\G729\ASSEMBLYINFO.CPP
D:\24PCDIALER WORKS\NEW VERSION\DEVELOPING\FINAL\24PCDIALER\G729\RELEASE\ASSEMBLYINFO.OBJ
D:\24PCDIALER WORKS\NEW VERSION\DEVELOPING\FINAL\24PCDIALER\G729\RELEASE\VC110.PDB
^D:\24PCDIALER WORKS\NEW VERSION\DEVELOPING\FINAL\24PCDIALER\G729\SOURCE\ACELP_CA.C|D:\24PCDIALER WORKS\NEW VERSION\DEVELOPING\FINAL\24PCDIALER\G729\SOURCE\BASIC_OP.C|D:\24PCDIALER WORKS\NEW VERSION\DEVELOPING\FINAL\24PCDIALER\G729\SOURCE\BITS.C|D:\24PCDIALER WORKS\NEW VERSION\DEVELOPING\FINAL\24PCDIALER\G729\SOURCE\COD_LD8A.C|D:\24PCDIALER WORKS\NEW VERSION\DEVELOPING\FINAL\24PCDIALER\G729\SOURCE\COR_FUNC.C|D:\24PCDIALER WORKS\NEW VERSION\DEVELOPING\FINAL\24PCDIALER\G729\SOURCE\DEC_GAIN.C|D:\24PCDIALER WORKS\NEW VERSION\DEVELOPING\FINAL\24PCDIALER\G729\SOURCE\DEC_LAG3.C|D:\24PCDIALER WORKS\NEW VERSION\DEVELOPING\FINAL\24PCDIALER\G729\SOURCE\DEC_LD8A.C|D:\24PCDIALER WORKS\NEW VERSION\DEVELOPING\FINAL\24PCDIALER\G729\SOURCE\DE_ACELP.C|D:\24PCDIALER WORKS\NEW VERSION\DEVELOPING\FINAL\24PCDIALER\G729\SOURCE\DSPFUNC.C|D:\24PCDIALER WORKS\NEW VERSION\DEVELOPING\FINAL\24PCDIALER\G729\SOURCE\FILTER.C|D:\24PCDIALER WORKS\NEW VERSION\DEVELOPING\FINAL\24PCDIALER\G729\SOURCE\G729A_DECODER.C|D:\24PCDIALER WORKS\NEW VERSION\DEVELOPING\FINAL\24PCDIALER\G729\SOURCE\G729A_ENCODER.C|D:\24PCDIALER WORKS\NEW VERSION\DEVELOPING\FINAL\24PCDIALER\G729\SOURCE\GAINPRED.C|D:\24PCDIALER WORKS\NEW VERSION\DEVELOPING\FINAL\24PCDIALER\G729\SOURCE\LPC.C|D:\24PCDIALER WORKS\NEW VERSION\DEVELOPING\FINAL\24PCDIALER\G729\SOURCE\LPCFUNC.C|D:\24PCDIALER WORKS\NEW VERSION\DEVELOPING\FINAL\24PCDIALER\G729\SOURCE\LSPDEC.C|D:\24PCDIALER WORKS\NEW VERSION\DEVELOPING\FINAL\24PCDIALER\G729\SOURCE\LSPGETQ.C|D:\24PCDIALER WORKS\NEW VERSION\DEVELOPING\FINAL\24PCDIALER\G729\SOURCE\MAIN.C|D:\24PCDIALER WORKS\NEW VERSION\DEVELOPING\FINAL\24PCDIALER\G729\SOURCE\OPER_32B.C|D:\24PCDIALER WORKS\NEW VERSION\DEVELOPING\FINAL\24PCDIALER\G729\SOURCE\PITCH_A.C|D:\24PCDIALER WORKS\NEW VERSION\DEVELOPING\FINAL\24PCDIALER\G729\SOURCE\POSTFILT.C|D:\24PCDIALER WORKS\NEW VERSION\DEVELOPING\FINAL\24PCDIALER\G729\SOURCE\POST_PRO.C|D:\24PCDIALER WORKS\NEW VERSION\DEVELOPING\FINAL\24PCDIALER\G729\SOURCE\PRED_LT3.C|D:\24PCDIALER WORKS\NEW VERSION\DEVELOPING\FINAL\24PCDIALER\G729\SOURCE\PRE_PROC.C|D:\24PCDIALER WORKS\NEW VERSION\DEVELOPING\FINAL\24PCDIALER\G729\SOURCE\P_PARITY.C|D:\24PCDIALER WORKS\NEW VERSION\DEVELOPING\FINAL\24PCDIALER\G729\SOURCE\QUA_GAIN.C|D:\24PCDIALER WORKS\NEW VERSION\DEVELOPING\FINAL\24PCDIALER\G729\SOURCE\QUA_LSP.C|D:\24PCDIALER WORKS\NEW VERSION\DEVELOPING\FINAL\24PCDIALER\G729\SOURCE\ROUND.C|D:\24PCDIALER WORKS\NEW VERSION\DEVELOPING\FINAL\24PCDIALER\G729\SOURCE\TAB_LD8A.C|D:\24PCDIALER WORKS\NEW VERSION\DEVELOPING\FINAL\24PCDIALER\G729\SOURCE\TAMING.C|D:\24PCDIALER WORKS\NEW VERSION\DEVELOPING\FINAL\24PCDIALER\G729\SOURCE\UTIL.C
D:\24PCDIALER WORKS\NEW VERSION\DEVELOPING\FINAL\24PCDIALER\G729\RELEASE\OPER_32B.OBJ
D:\24PCDIALER WORKS\NEW VERSION\DEVELOPING\FINAL\24PCDIALER\G729\RELEASE\MAIN.OBJ
D:\24PCDIALER WORKS\NEW VERSION\DEVELOPING\FINAL\24PCDIALER\G729\RELEASE\LSPGETQ.OBJ
D:\24PCDIALER WORKS\NEW VERSION\DEVELOPING\FINAL\24PCDIALER\G729\RELEASE\LSPDEC.OBJ
D:\24PCDIALER WORKS\NEW VERSION\DEVELOPING\FINAL\24PCDIALER\G729\RELEASE\LPCFUNC.OBJ
D:\24PCDIALER WORKS\NEW VERSION\DEVELOPING\FINAL\24PCDIALER\G729\RELEASE\LPC.OBJ
D:\24PCDIALER WORKS\NEW VERSION\DEVELOPING\FINAL\24PCDIALER\G729\RELEASE\GAINPRED.OBJ
D:\24PCDIALER WORKS\NEW VERSION\DEVELOPING\FINAL\24PCDIALER\G729\RELEASE\G729A_ENCODER.OBJ
D:\24PCDIALER WORKS\NEW VERSION\DEVELOPING\FINAL\24PCDIALER\G729\RELEASE\G729A_DECODER.OBJ
D:\24PCDIALER WORKS\NEW VERSION\DEVELOPING\FINAL\24PCDIALER\G729\RELEASE\FILTER.OBJ
D:\24PCDIALER WORKS\NEW VERSION\DEVELOPING\FINAL\24PCDIALER\G729\RELEASE\DSPFUNC.OBJ
D:\24PCDIALER WORKS\NEW VERSION\DEVELOPING\FINAL\24PCDIALER\G729\RELEASE\DEC_LD8A.OBJ
D:\24PCDIALER WORKS\NEW VERSION\DEVELOPING\FINAL\24PCDIALER\G729\RELEASE\DEC_LAG3.OBJ
D:\24PCDIALER WORKS\NEW VERSION\DEVELOPING\FINAL\24PCDIALER\G729\RELEASE\DEC_GAIN.OBJ
D:\24PCDIALER WORKS\NEW VERSION\DEVELOPING\FINAL\24PCDIALER\G729\RELEASE\DE_ACELP.OBJ
D:\24PCDIALER WORKS\NEW VERSION\DEVELOPING\FINAL\24PCDIALER\G729\RELEASE\COR_FUNC.OBJ
D:\24PCDIALER WORKS\NEW VERSION\DEVELOPING\FINAL\24PCDIALER\G729\RELEASE\COD_LD8A.OBJ
D:\24PCDIALER WORKS\NEW VERSION\DEVELOPING\FINAL\24PCDIALER\G729\RELEASE\BITS.OBJ
D:\24PCDIALER WORKS\NEW VERSION\DEVELOPING\FINAL\24PCDIALER\G729\RELEASE\BASIC_OP.OBJ
D:\24PCDIALER WORKS\NEW VERSION\DEVELOPING\FINAL\24PCDIALER\G729\RELEASE\ACELP_CA.OBJ
D:\24PCDIALER WORKS\NEW VERSION\DEVELOPING\FINAL\24PCDIALER\G729\RELEASE\UTIL.OBJ
D:\24PCDIALER WORKS\NEW VERSION\DEVELOPING\FINAL\24PCDIALER\G729\RELEASE\TAMING.OBJ
D:\24PCDIALER WORKS\NEW VERSION\DEVELOPING\FINAL\24PCDIALER\G729\RELEASE\TAB_LD8A.OBJ
D:\24PCDIALER WORKS\NEW VERSION\DEVELOPING\FINAL\24PCDIALER\G729\RELEASE\ROUND.OBJ
D:\24PCDIALER WORKS\NEW VERSION\DEVELOPING\FINAL\24PCDIALER\G729\RELEASE\QUA_LSP.OBJ
D:\24PCDIALER WORKS\NEW VERSION\DEVELOPING\FINAL\24PCDIALER\G729\RELEASE\QUA_GAIN.OBJ
D:\24PCDIALER WORKS\NEW VERSION\DEVELOPING\FINAL\24PCDIALER\G729\RELEASE\PRED_LT3.OBJ
D:\24PCDIALER WORKS\NEW VERSION\DEVELOPING\FINAL\24PCDIALER\G729\RELEASE\PRE_PROC.OBJ
D:\24PCDIALER WORKS\NEW VERSION\DEVELOPING\FINAL\24PCDIALER\G729\RELEASE\POSTFILT.OBJ
D:\24PCDIALER WORKS\NEW VERSION\DEVELOPING\FINAL\24PCDIALER\G729\RELEASE\POST_PRO.OBJ
D:\24PCDIALER WORKS\NEW VERSION\DEVELOPING\FINAL\24PCDIALER\G729\RELEASE\PITCH_A.OBJ
D:\24PCDIALER WORKS\NEW VERSION\DEVELOPING\FINAL\24PCDIALER\G729\RELEASE\P_PARITY.OBJ
^D:\24PCDIALER WORKS\NEW VERSION\DEVELOPING\FINAL\24PCDIALER\G729\SOURCE\ACELP_CA.C
D:\24PCDIALER WORKS\NEW VERSION\DEVELOPING\FINAL\24PCDIALER\G729\RELEASE\VC110.PDB
^D:\24PCDIALER WORKS\NEW VERSION\DEVELOPING\FINAL\24PCDIALER\G729\SOURCE\BASIC_OP.C
D:\24PCDIALER WORKS\NEW VERSION\DEVELOPING\FINAL\24PCDIALER\G729\RELEASE\VC110.PDB
^D:\24PCDIALER WORKS\NEW VERSION\DEVELOPING\FINAL\24PCDIALER\G729\SOURCE\BITS.C
D:\24PCDIALER WORKS\NEW VERSION\DEVELOPING\FINAL\24PCDIALER\G729\RELEASE\VC110.PDB
^D:\24PCDIALER WORKS\NEW VERSION\DEVELOPING\FINAL\24PCDIALER\G729\SOURCE\COD_LD8A.C
D:\24PCDIALER WORKS\NEW VERSION\DEVELOPING\FINAL\24PCDIALER\G729\RELEASE\VC110.PDB
^D:\24PCDIALER WORKS\NEW VERSION\DEVELOPING\FINAL\24PCDIALER\G729\SOURCE\COR_FUNC.C
D:\24PCDIALER WORKS\NEW VERSION\DEVELOPING\FINAL\24PCDIALER\G729\RELEASE\VC110.PDB
^D:\24PCDIALER WORKS\NEW VERSION\DEVELOPING\FINAL\24PCDIALER\G729\SOURCE\DE_ACELP.C
D:\24PCDIALER WORKS\NEW VERSION\DEVELOPING\FINAL\24PCDIALER\G729\RELEASE\VC110.PDB
^D:\24PCDIALER WORKS\NEW VERSION\DEVELOPING\FINAL\24PCDIALER\G729\SOURCE\DEC_GAIN.C
D:\24PCDIALER WORKS\NEW VERSION\DEVELOPING\FINAL\24PCDIALER\G729\RELEASE\VC110.PDB
^D:\24PCDIALER WORKS\NEW VERSION\DEVELOPING\FINAL\24PCDIALER\G729\SOURCE\DEC_LAG3.C
D:\24PCDIALER WORKS\NEW VERSION\DEVELOPING\FINAL\24PCDIALER\G729\RELEASE\VC110.PDB
^D:\24PCDIALER WORKS\NEW VERSION\DEVELOPING\FINAL\24PCDIALER\G729\SOURCE\DEC_LD8A.C
D:\24PCDIALER WORKS\NEW VERSION\DEVELOPING\FINAL\24PCDIALER\G729\RELEASE\VC110.PDB
^D:\24PCDIALER WORKS\NEW VERSION\DEVELOPING\FINAL\24PCDIALER\G729\SOURCE\DSPFUNC.C
D:\24PCDIALER WORKS\NEW VERSION\DEVELOPING\FINAL\24PCDIALER\G729\RELEASE\VC110.PDB
^D:\24PCDIALER WORKS\NEW VERSION\DEVELOPING\FINAL\24PCDIALER\G729\SOURCE\FILTER.C
D:\24PCDIALER WORKS\NEW VERSION\DEVELOPING\FINAL\24PCDIALER\G729\RELEASE\VC110.PDB
^D:\24PCDIALER WORKS\NEW VERSION\DEVELOPING\FINAL\24PCDIALER\G729\SOURCE\G729A_DECODER.C
D:\24PCDIALER WORKS\NEW VERSION\DEVELOPING\FINAL\24PCDIALER\G729\RELEASE\VC110.PDB
^D:\24PCDIALER WORKS\NEW VERSION\DEVELOPING\FINAL\24PCDIALER\G729\SOURCE\G729A_ENCODER.C
D:\24PCDIALER WORKS\NEW VERSION\DEVELOPING\FINAL\24PCDIALER\G729\RELEASE\VC110.PDB
^D:\24PCDIALER WORKS\NEW VERSION\DEVELOPING\FINAL\24PCDIALER\G729\SOURCE\GAINPRED.C
D:\24PCDIALER WORKS\NEW VERSION\DEVELOPING\FINAL\24PCDIALER\G729\RELEASE\VC110.PDB
^D:\24PCDIALER WORKS\NEW VERSION\DEVELOPING\FINAL\24PCDIALER\G729\SOURCE\LPC.C
D:\24PCDIALER WORKS\NEW VERSION\DEVELOPING\FINAL\24PCDIALER\G729\RELEASE\VC110.PDB
^D:\24PCDIALER WORKS\NEW VERSION\DEVELOPING\FINAL\24PCDIALER\G729\SOURCE\LPCFUNC.C
D:\24PCDIALER WORKS\NEW VERSION\DEVELOPING\FINAL\24PCDIALER\G729\RELEASE\VC110.PDB
^D:\24PCDIALER WORKS\NEW VERSION\DEVELOPING\FINAL\24PCDIALER\G729\SOURCE\LSPDEC.C
D:\24PCDIALER WORKS\NEW VERSION\DEVELOPING\FINAL\24PCDIALER\G729\RELEASE\VC110.PDB
^D:\24PCDIALER WORKS\NEW VERSION\DEVELOPING\FINAL\24PCDIALER\G729\SOURCE\LSPGETQ.C
D:\24PCDIALER WORKS\NEW VERSION\DEVELOPING\FINAL\24PCDIALER\G729\RELEASE\VC110.PDB
^D:\24PCDIALER WORKS\NEW VERSION\DEVELOPING\FINAL\24PCDIALER\G729\SOURCE\MAIN.C
D:\24PCDIALER WORKS\NEW VERSION\DEVELOPING\FINAL\24PCDIALER\G729\RELEASE\VC110.PDB
^D:\24PCDIALER WORKS\NEW VERSION\DEVELOPING\FINAL\24PCDIALER\G729\SOURCE\OPER_32B.C
D:\24PCDIALER WORKS\NEW VERSION\DEVELOPING\FINAL\24PCDIALER\G729\RELEASE\VC110.PDB
^D:\24PCDIALER WORKS\NEW VERSION\DEVELOPING\FINAL\24PCDIALER\G729\SOURCE\P_PARITY.C
D:\24PCDIALER WORKS\NEW VERSION\DEVELOPING\FINAL\24PCDIALER\G729\RELEASE\VC110.PDB
^D:\24PCDIALER WORKS\NEW VERSION\DEVELOPING\FINAL\24PCDIALER\G729\SOURCE\PITCH_A.C
D:\24PCDIALER WORKS\NEW VERSION\DEVELOPING\FINAL\24PCDIALER\G729\RELEASE\VC110.PDB
^D:\24PCDIALER WORKS\NEW VERSION\DEVELOPING\FINAL\24PCDIALER\G729\SOURCE\POST_PRO.C
D:\24PCDIALER WORKS\NEW VERSION\DEVELOPING\FINAL\24PCDIALER\G729\RELEASE\VC110.PDB
^D:\24PCDIALER WORKS\NEW VERSION\DEVELOPING\FINAL\24PCDIALER\G729\SOURCE\POSTFILT.C
D:\24PCDIALER WORKS\NEW VERSION\DEVELOPING\FINAL\24PCDIALER\G729\RELEASE\VC110.PDB
^D:\24PCDIALER WORKS\NEW VERSION\DEVELOPING\FINAL\24PCDIALER\G729\SOURCE\PRE_PROC.C
D:\24PCDIALER WORKS\NEW VERSION\DEVELOPING\FINAL\24PCDIALER\G729\RELEASE\VC110.PDB
^D:\24PCDIALER WORKS\NEW VERSION\DEVELOPING\FINAL\24PCDIALER\G729\SOURCE\PRED_LT3.C
D:\24PCDIALER WORKS\NEW VERSION\DEVELOPING\FINAL\24PCDIALER\G729\RELEASE\VC110.PDB
^D:\24PCDIALER WORKS\NEW VERSION\DEVELOPING\FINAL\24PCDIALER\G729\SOURCE\QUA_GAIN.C
D:\24PCDIALER WORKS\NEW VERSION\DEVELOPING\FINAL\24PCDIALER\G729\RELEASE\VC110.PDB
^D:\24PCDIALER WORKS\NEW VERSION\DEVELOPING\FINAL\24PCDIALER\G729\SOURCE\QUA_LSP.C
D:\24PCDIALER WORKS\NEW VERSION\DEVELOPING\FINAL\24PCDIALER\G729\RELEASE\VC110.PDB
^D:\24PCDIALER WORKS\NEW VERSION\DEVELOPING\FINAL\24PCDIALER\G729\SOURCE\ROUND.C
D:\24PCDIALER WORKS\NEW VERSION\DEVELOPING\FINAL\24PCDIALER\G729\RELEASE\VC110.PDB
^D:\24PCDIALER WORKS\NEW VERSION\DEVELOPING\FINAL\24PCDIALER\G729\SOURCE\TAB_LD8A.C
D:\24PCDIALER WORKS\NEW VERSION\DEVELOPING\FINAL\24PCDIALER\G729\RELEASE\VC110.PDB
^D:\24PCDIALER WORKS\NEW VERSION\DEVELOPING\FINAL\24PCDIALER\G729\SOURCE\TAMING.C
D:\24PCDIALER WORKS\NEW VERSION\DEVELOPING\FINAL\24PCDIALER\G729\RELEASE\VC110.PDB
^D:\24PCDIALER WORKS\NEW VERSION\DEVELOPING\FINAL\24PCDIALER\G729\SOURCE\UTIL.C
D:\24PCDIALER WORKS\NEW VERSION\DEVELOPING\FINAL\24PCDIALER\G729\RELEASE\VC110.PDB
