^D:\24DIALER\BACKUP\15.7.2013\SMOOTHDIALER-PC-VS2008\DEBUG\AUDIOENGINESYMBIAN.SBR|D:\24DIALER\BACKUP\15.7.2013\SMOOTHDIALER-PC-VS2008\DEBUG\AUDIOTHREAD.SBR|D:\24DIALER\BACKUP\15.7.2013\SMOOTHDIALER-PC-VS2008\DEBUG\DIALERAGENT.SBR|D:\24DIALER\BACKUP\15.7.2013\SMOOTHDIALER-PC-VS2008\DEBUG\DIALERAGENTEXTENSION.SBR|D:\24DIALER\BACKUP\15.7.2013\SMOOTHDIALER-PC-VS2008\DEBUG\GLOBALS.SBR|D:\24DIALER\BACKUP\15.7.2013\SMOOTHDIALER-PC-VS2008\DEBUG\LOGINDLG.SBR|D:\24DIALER\BACKUP\15.7.2013\SMOOTHDIALER-PC-VS2008\DEBUG\SMOOTHDIALER.SBR|D:\24DIALER\BACKUP\15.7.2013\SMOOTHDIALER-PC-VS2008\DEBUG\SMOOTHDIALERDLG.SBR|D:\24DIALER\BACKUP\15.7.2013\SMOOTHDIALER-PC-VS2008\DEBUG\STDAFX.SBR
C:\WINDOWS\SYSTEM32\TZRES.DLL
D:\24DIALER\BACKUP\15.7.2013\SMOOTHDIALER-PC-VS2008\DEBUG\AUDIOENGINESYMBIAN.SBR
D:\24DIALER\BACKUP\15.7.2013\SMOOTHDIALER-PC-VS2008\DEBUG\AUDIOTHREAD.SBR
D:\24DIALER\BACKUP\15.7.2013\SMOOTHDIALER-PC-VS2008\DEBUG\DIALERAGENT.SBR
D:\24DIALER\BACKUP\15.7.2013\SMOOTHDIALER-PC-VS2008\DEBUG\DIALERAGENTEXTENSION.SBR
D:\24DIALER\BACKUP\15.7.2013\SMOOTHDIALER-PC-VS2008\DEBUG\GLOBALS.SBR
D:\24DIALER\BACKUP\15.7.2013\SMOOTHDIALER-PC-VS2008\DEBUG\LOGINDLG.SBR
D:\24DIALER\BACKUP\15.7.2013\SMOOTHDIALER-PC-VS2008\DEBUG\SMOOTHDIALER.SBR
D:\24DIALER\BACKUP\15.7.2013\SMOOTHDIALER-PC-VS2008\DEBUG\SMOOTHDIALERDLG.SBR
D:\24DIALER\BACKUP\15.7.2013\SMOOTHDIALER-PC-VS2008\DEBUG\STDAFX.SBR
^D:\24DIALER\RUNNING\SMOOTHDIALER-PC-VS2008\DEBUG\AUDIOENGINESYMBIAN.SBR|D:\24DIALER\RUNNING\SMOOTHDIALER-PC-VS2008\DEBUG\AUDIOTHREAD.SBR|D:\24DIALER\RUNNING\SMOOTHDIALER-PC-VS2008\DEBUG\DIALERAGENT.SBR|D:\24DIALER\RUNNING\SMOOTHDIALER-PC-VS2008\DEBUG\DIALERAGENTEXTENSION.SBR|D:\24DIALER\RUNNING\SMOOTHDIALER-PC-VS2008\DEBUG\GLOBALS.SBR|D:\24DIALER\RUNNING\SMOOTHDIALER-PC-VS2008\DEBUG\LOGINDLG.SBR|D:\24DIALER\RUNNING\SMOOTHDIALER-PC-VS2008\DEBUG\SMOOTHDIALER.SBR|D:\24DIALER\RUNNING\SMOOTHDIALER-PC-VS2008\DEBUG\SMOOTHDIALERDLG.SBR|D:\24DIALER\RUNNING\SMOOTHDIALER-PC-VS2008\DEBUG\STDAFX.SBR
C:\WINDOWS\SYSTEM32\TZRES.DLL
