^D:\24DIALER\NEW FOLDER\SMOOTHDIALER-PC\G729\RELEASE\ACELP_CA.OBJ|D:\24DIALER\NEW FOLDER\SMOOTHDIALER-PC\G729\RELEASE\APP.RES|D:\24DIALER\NEW FOLDER\SMOOTHDIALER-PC\G729\RELEASE\ASSEMBLYINFO.OBJ|D:\24DIALER\NEW FOLDER\SMOOTHDIALER-PC\G729\RELEASE\BASIC_OP.OBJ|D:\24DIALER\NEW FOLDER\SMOOTHDIALER-PC\G729\RELEASE\BITS.OBJ|D:\24DIALER\NEW FOLDER\SMOOTHDIALER-PC\G729\RELEASE\COD_LD8A.OBJ|D:\24DIALER\NEW FOLDER\SMOOTHDIALER-PC\G729\RELEASE\COR_FUNC.OBJ|D:\24DIALER\NEW FOLDER\SMOOTHDIALER-PC\G729\RELEASE\DEC_GAIN.OBJ|D:\24DIALER\NEW FOLDER\SMOOTHDIALER-PC\G729\RELEASE\DEC_LAG3.OBJ|D:\24DIALER\NEW FOLDER\SMOOTHDIALER-PC\G729\RELEASE\DEC_LD8A.OBJ|D:\24DIALER\NEW FOLDER\SMOOTHDIALER-PC\G729\RELEASE\DE_ACELP.OBJ|D:\24DIALER\NEW FOLDER\SMOOTHDIALER-PC\G729\RELEASE\DSPFUNC.OBJ|D:\24DIALER\NEW FOLDER\SMOOTHDIALER-PC\G729\RELEASE\FILTER.OBJ|D:\24DIALER\NEW FOLDER\SMOOTHDIALER-PC\G729\RELEASE\G729A_DECODER.OBJ|D:\24DIALER\NEW FOLDER\SMOOTHDIALER-PC\G729\RELEASE\G729A_ENCODER.OBJ|D:\24DIALER\NEW FOLDER\SMOOTHDIALER-PC\G729\RELEASE\GAINPRED.OBJ|D:\24DIALER\NEW FOLDER\SMOOTHDIALER-PC\G729\RELEASE\LPC.OBJ|D:\24DIALER\NEW FOLDER\SMOOTHDIALER-PC\G729\RELEASE\LPCFUNC.OBJ|D:\24DIALER\NEW FOLDER\SMOOTHDIALER-PC\G729\RELEASE\LSPDEC.OBJ|D:\24DIALER\NEW FOLDER\SMOOTHDIALER-PC\G729\RELEASE\LSPGETQ.OBJ|D:\24DIALER\NEW FOLDER\SMOOTHDIALER-PC\G729\RELEASE\MAIN.OBJ|D:\24DIALER\NEW FOLDER\SMOOTHDIALER-PC\G729\RELEASE\OPER_32B.OBJ|D:\24DIALER\NEW FOLDER\SMOOTHDIALER-PC\G729\RELEASE\PITCH_A.OBJ|D:\24DIALER\NEW FOLDER\SMOOTHDIALER-PC\G729\RELEASE\POSTFILT.OBJ|D:\24DIALER\NEW FOLDER\SMOOTHDIALER-PC\G729\RELEASE\POST_PRO.OBJ|D:\24DIALER\NEW FOLDER\SMOOTHDIALER-PC\G729\RELEASE\PRED_LT3.OBJ|D:\24DIALER\NEW FOLDER\SMOOTHDIALER-PC\G729\RELEASE\PRE_PROC.OBJ|D:\24DIALER\NEW FOLDER\SMOOTHDIALER-PC\G729\RELEASE\P_PARITY.OBJ|D:\24DIALER\NEW FOLDER\SMOOTHDIALER-PC\G729\RELEASE\QUA_GAIN.OBJ|D:\24DIALER\NEW FOLDER\SMOOTHDIALER-PC\G729\RELEASE\QUA_LSP.OBJ|D:\24DIALER\NEW FOLDER\SMOOTHDIALER-PC\G729\RELEASE\ROUND.OBJ|D:\24DIALER\NEW FOLDER\SMOOTHDIALER-PC\G729\RELEASE\STDAFX.OBJ|D:\24DIALER\NEW FOLDER\SMOOTHDIALER-PC\G729\RELEASE\TAB_LD8A.OBJ|D:\24DIALER\NEW FOLDER\SMOOTHDIALER-PC\G729\RELEASE\TAMING.OBJ|D:\24DIALER\NEW FOLDER\SMOOTHDIALER-PC\G729\RELEASE\UTIL.OBJ
D:\24DIALER\NEW FOLDER\SMOOTHDIALER-PC\G729\RELEASE\APP.RES
C:\WINDOWS\GLOBALIZATION\SORTING\SORTDEFAULT.NLS
C:\WINDOWS\SYSTEM32\TZRES.DLL
D:\24DIALER\NEW FOLDER\SMOOTHDIALER-PC\G729\RELEASE\ASSEMBLYINFO.OBJ
D:\24DIALER\NEW FOLDER\SMOOTHDIALER-PC\G729\RELEASE\STDAFX.OBJ
D:\24DIALER\NEW FOLDER\SMOOTHDIALER-PC\G729\RELEASE\ACELP_CA.OBJ
D:\24DIALER\NEW FOLDER\SMOOTHDIALER-PC\G729\RELEASE\BASIC_OP.OBJ
D:\24DIALER\NEW FOLDER\SMOOTHDIALER-PC\G729\RELEASE\BITS.OBJ
D:\24DIALER\NEW FOLDER\SMOOTHDIALER-PC\G729\RELEASE\COD_LD8A.OBJ
D:\24DIALER\NEW FOLDER\SMOOTHDIALER-PC\G729\RELEASE\COR_FUNC.OBJ
D:\24DIALER\NEW FOLDER\SMOOTHDIALER-PC\G729\RELEASE\DE_ACELP.OBJ
D:\24DIALER\NEW FOLDER\SMOOTHDIALER-PC\G729\RELEASE\DEC_GAIN.OBJ
D:\24DIALER\NEW FOLDER\SMOOTHDIALER-PC\G729\RELEASE\DEC_LAG3.OBJ
D:\24DIALER\NEW FOLDER\SMOOTHDIALER-PC\G729\RELEASE\DEC_LD8A.OBJ
D:\24DIALER\NEW FOLDER\SMOOTHDIALER-PC\G729\RELEASE\DSPFUNC.OBJ
D:\24DIALER\NEW FOLDER\SMOOTHDIALER-PC\G729\RELEASE\FILTER.OBJ
D:\24DIALER\NEW FOLDER\SMOOTHDIALER-PC\G729\RELEASE\G729A_DECODER.OBJ
D:\24DIALER\NEW FOLDER\SMOOTHDIALER-PC\G729\RELEASE\G729A_ENCODER.OBJ
D:\24DIALER\NEW FOLDER\SMOOTHDIALER-PC\G729\RELEASE\GAINPRED.OBJ
D:\24DIALER\NEW FOLDER\SMOOTHDIALER-PC\G729\RELEASE\LPC.OBJ
D:\24DIALER\NEW FOLDER\SMOOTHDIALER-PC\G729\RELEASE\LPCFUNC.OBJ
D:\24DIALER\NEW FOLDER\SMOOTHDIALER-PC\G729\RELEASE\LSPDEC.OBJ
D:\24DIALER\NEW FOLDER\SMOOTHDIALER-PC\G729\RELEASE\LSPGETQ.OBJ
D:\24DIALER\NEW FOLDER\SMOOTHDIALER-PC\G729\RELEASE\MAIN.OBJ
D:\24DIALER\NEW FOLDER\SMOOTHDIALER-PC\G729\RELEASE\OPER_32B.OBJ
D:\24DIALER\NEW FOLDER\SMOOTHDIALER-PC\G729\RELEASE\P_PARITY.OBJ
D:\24DIALER\NEW FOLDER\SMOOTHDIALER-PC\G729\RELEASE\PITCH_A.OBJ
D:\24DIALER\NEW FOLDER\SMOOTHDIALER-PC\G729\RELEASE\POST_PRO.OBJ
D:\24DIALER\NEW FOLDER\SMOOTHDIALER-PC\G729\RELEASE\POSTFILT.OBJ
D:\24DIALER\NEW FOLDER\SMOOTHDIALER-PC\G729\RELEASE\PRE_PROC.OBJ
D:\24DIALER\NEW FOLDER\SMOOTHDIALER-PC\G729\RELEASE\PRED_LT3.OBJ
D:\24DIALER\NEW FOLDER\SMOOTHDIALER-PC\G729\RELEASE\QUA_GAIN.OBJ
D:\24DIALER\NEW FOLDER\SMOOTHDIALER-PC\G729\RELEASE\QUA_LSP.OBJ
D:\24DIALER\NEW FOLDER\SMOOTHDIALER-PC\G729\RELEASE\ROUND.OBJ
D:\24DIALER\NEW FOLDER\SMOOTHDIALER-PC\G729\RELEASE\TAB_LD8A.OBJ
D:\24DIALER\NEW FOLDER\SMOOTHDIALER-PC\G729\RELEASE\TAMING.OBJ
D:\24DIALER\NEW FOLDER\SMOOTHDIALER-PC\G729\RELEASE\UTIL.OBJ
C:\PROGRAM FILES (X86)\MICROSOFT VISUAL STUDIO 11.0\VC\BIN\1033\LINKUI.DLL
