^D:\24DIALER\NEW VERSION\SMOOTHDIALER-PC\SMOOTHDIALER\SMOOTHDIALER.RC
D:\24DIALER\NEW VERSION\SMOOTHDIALER-PC\SMOOTHDIALER\DEBUG\SMOOTHDIALER.RES
^D:\24DIALER\NEW VERSION\24PCDIALER\WITHOUT BRUSH\24PCDIALER\SMOOTHDIALER\SMOOTHDIALER.RC
D:\24DIALER\NEW VERSION\24PCDIALER\WITHOUT BRUSH\24PCDIALER\SMOOTHDIALER\DEBUG\SMOOTHDIALER.RES
