^D:\24DIALER\NEW VERSION\SMOOTHDIALER-PC\DIALERAGENT\ASSEMBLYINFO.CPP|D:\24DIALER\NEW VERSION\SMOOTHDIALER-PC\DIALERAGENT\DIALER_AGENT.CPP|D:\24DIALER\NEW VERSION\SMOOTHDIALER-PC\DIALERAGENT\DIALER_AGENT_UTIL.CPP|D:\24DIALER\NEW VERSION\SMOOTHDIALER-PC\DIALERAGENT\DIALER_TUNNEL.CPP|D:\24DIALER\NEW VERSION\SMOOTHDIALER-PC\DIALERAGENT\NETWORK_POLLER.CPP
D:\24DIALER\NEW VERSION\SMOOTHDIALER-PC\DIALERAGENT\RELEASE\NETWORK_POLLER.OBJ
D:\24DIALER\NEW VERSION\SMOOTHDIALER-PC\DIALERAGENT\RELEASE\DIALER_TUNNEL.OBJ
D:\24DIALER\NEW VERSION\SMOOTHDIALER-PC\DIALERAGENT\RELEASE\DIALER_AGENT_UTIL.OBJ
D:\24DIALER\NEW VERSION\SMOOTHDIALER-PC\DIALERAGENT\RELEASE\DIALER_AGENT.OBJ
D:\24DIALER\NEW VERSION\SMOOTHDIALER-PC\DIALERAGENT\RELEASE\ASSEMBLYINFO.OBJ
^D:\24DIALER\NEW VERSION\SMOOTHDIALER-PC\DIALERAGENT\ASSEMBLYINFO.CPP
D:\24DIALER\NEW VERSION\SMOOTHDIALER-PC\DIALERAGENT\RELEASE\VC110.PDB
^D:\24DIALER\NEW VERSION\SMOOTHDIALER-PC\DIALERAGENT\DIALER_AGENT.CPP
D:\24DIALER\NEW VERSION\SMOOTHDIALER-PC\DIALERAGENT\RELEASE\VC110.PDB
^D:\24DIALER\NEW VERSION\SMOOTHDIALER-PC\DIALERAGENT\DIALER_AGENT_UTIL.CPP
D:\24DIALER\NEW VERSION\SMOOTHDIALER-PC\DIALERAGENT\RELEASE\VC110.PDB
^D:\24DIALER\NEW VERSION\SMOOTHDIALER-PC\DIALERAGENT\DIALER_TUNNEL.CPP
D:\24DIALER\NEW VERSION\SMOOTHDIALER-PC\DIALERAGENT\RELEASE\VC110.PDB
^D:\24DIALER\NEW VERSION\SMOOTHDIALER-PC\DIALERAGENT\NETWORK_POLLER.CPP
D:\24DIALER\NEW VERSION\SMOOTHDIALER-PC\DIALERAGENT\RELEASE\VC110.PDB
