^D:\24PCDIALER WORKS\NEW VERSION\INTELVOIZ\24PCDIALER\RELEASE\DIALER_AGENT.LIB|D:\24PCDIALER WORKS\NEW VERSION\INTELVOIZ\24PCDIALER\SMOOTHDIALER\RELEASE\ACCOUNTDIALOG.OBJ|D:\24PCDIALER WORKS\NEW VERSION\INTELVOIZ\24PCDIALER\SMOOTHDIALER\RELEASE\ADDCONTACT.OBJ|D:\24PCDIALER WORKS\NEW VERSION\INTELVOIZ\24PCDIALER\SMOOTHDIALER\RELEASE\AUDIO_PLAYER.OBJ|D:\24PCDIALER WORKS\NEW VERSION\INTELVOIZ\24PCDIALER\SMOOTHDIALER\RELEASE\AUDIO_RECORDER.OBJ|D:\24PCDIALER WORKS\NEW VERSION\INTELVOIZ\24PCDIALER\SMOOTHDIALER\RELEASE\BLOCK_ALLOCATOR.OBJ|D:\24PCDIALER WORKS\NEW VERSION\INTELVOIZ\24PCDIALER\SMOOTHDIALER\RELEASE\CALLLOG.OBJ|D:\24PCDIALER WORKS\NEW VERSION\INTELVOIZ\24PCDIALER\SMOOTHDIALER\RELEASE\CONTACTVIEW.OBJ|D:\24PCDIALER WORKS\NEW VERSION\INTELVOIZ\24PCDIALER\SMOOTHDIALER\RELEASE\FLEXIHISTORYDLG.OBJ|D:\24PCDIALER WORKS\NEW VERSION\INTELVOIZ\24PCDIALER\SMOOTHDIALER\RELEASE\FLEXIRECHARGEDLG.OBJ|D:\24PCDIALER WORKS\NEW VERSION\INTELVOIZ\24PCDIALER\SMOOTHDIALER\RELEASE\FLEXISMSSETTINGSDLG.OBJ|D:\24PCDIALER WORKS\NEW VERSION\INTELVOIZ\24PCDIALER\SMOOTHDIALER\RELEASE\JSON.OBJ|D:\24PCDIALER WORKS\NEW VERSION\INTELVOIZ\24PCDIALER\SMOOTHDIALER\RELEASE\MYUTIL.OBJ|D:\24PCDIALER WORKS\NEW VERSION\INTELVOIZ\24PCDIALER\SMOOTHDIALER\RELEASE\REQUEST.OBJ|D:\24PCDIALER WORKS\NEW VERSION\INTELVOIZ\24PCDIALER\SMOOTHDIALER\RELEASE\SMOOTHDIALER.OBJ|D:\24PCDIALER WORKS\NEW VERSION\INTELVOIZ\24PCDIALER\SMOOTHDIALER\RELEASE\SMOOTHDIALER.RES|D:\24PCDIALER WORKS\NEW VERSION\INTELVOIZ\24PCDIALER\SMOOTHDIALER\RELEASE\SMOOTHDIALERDLG.OBJ|D:\24PCDIALER WORKS\NEW VERSION\INTELVOIZ\24PCDIALER\SMOOTHDIALER\RELEASE\SMSHISTORYDLG.OBJ|D:\24PCDIALER WORKS\NEW VERSION\INTELVOIZ\24PCDIALER\SMOOTHDIALER\RELEASE\SMSSENDDLG.OBJ|D:\24PCDIALER WORKS\NEW VERSION\INTELVOIZ\24PCDIALER\SMOOTHDIALER\RELEASE\STDAFX.OBJ
D:\24PCDIALER WORKS\NEW VERSION\INTELVOIZ\24PCDIALER\RELEASE\INTELVOIZ.EXE
D:\24PCDIALER WORKS\NEW VERSION\INTELVOIZ\24PCDIALER\RELEASE\INTELVOIZ.PDB
