^D:\24PCDIALER WORKS\NEW VERSION\INTELVOIZ\24PCDIALER\RELEASE\DIALER_AGENT.LIB|D:\24PCDIALER WORKS\NEW VERSION\INTELVOIZ\24PCDIALER\SMOOTHDIALER\RELEASE\ACCOUNTDIALOG.OBJ|D:\24PCDIALER WORKS\NEW VERSION\INTELVOIZ\24PCDIALER\SMOOTHDIALER\RELEASE\ADDCONTACT.OBJ|D:\24PCDIALER WORKS\NEW VERSION\INTELVOIZ\24PCDIALER\SMOOTHDIALER\RELEASE\AUDIO_PLAYER.OBJ|D:\24PCDIALER WORKS\NEW VERSION\INTELVOIZ\24PCDIALER\SMOOTHDIALER\RELEASE\AUDIO_RECORDER.OBJ|D:\24PCDIALER WORKS\NEW VERSION\INTELVOIZ\24PCDIALER\SMOOTHDIALER\RELEASE\BLOCK_ALLOCATOR.OBJ|D:\24PCDIALER WORKS\NEW VERSION\INTELVOIZ\24PCDIALER\SMOOTHDIALER\RELEASE\CALLLOG.OBJ|D:\24PCDIALER WORKS\NEW VERSION\INTELVOIZ\24PCDIALER\SMOOTHDIALER\RELEASE\CONTACTVIEW.OBJ|D:\24PCDIALER WORKS\NEW VERSION\INTELVOIZ\24PCDIALER\SMOOTHDIALER\RELEASE\FLEXIHISTORYDLG.OBJ|D:\24PCDIALER WORKS\NEW VERSION\INTELVOIZ\24PCDIALER\SMOOTHDIALER\RELEASE\FLEXIRECHARGEDLG.OBJ|D:\24PCDIALER WORKS\NEW VERSION\INTELVOIZ\24PCDIALER\SMOOTHDIALER\RELEASE\FLEXISMSSETTINGSDLG.OBJ|D:\24PCDIALER WORKS\NEW VERSION\INTELVOIZ\24PCDIALER\SMOOTHDIALER\RELEASE\JSON.OBJ|D:\24PCDIALER WORKS\NEW VERSION\INTELVOIZ\24PCDIALER\SMOOTHDIALER\RELEASE\MYUTIL.OBJ|D:\24PCDIALER WORKS\NEW VERSION\INTELVOIZ\24PCDIALER\SMOOTHDIALER\RELEASE\REQUEST.OBJ|D:\24PCDIALER WORKS\NEW VERSION\INTELVOIZ\24PCDIALER\SMOOTHDIALER\RELEASE\SMOOTHDIALER.OBJ|D:\24PCDIALER WORKS\NEW VERSION\INTELVOIZ\24PCDIALER\SMOOTHDIALER\RELEASE\SMOOTHDIALER.RES|D:\24PCDIALER WORKS\NEW VERSION\INTELVOIZ\24PCDIALER\SMOOTHDIALER\RELEASE\SMOOTHDIALERDLG.OBJ|D:\24PCDIALER WORKS\NEW VERSION\INTELVOIZ\24PCDIALER\SMOOTHDIALER\RELEASE\SMSHISTORYDLG.OBJ|D:\24PCDIALER WORKS\NEW VERSION\INTELVOIZ\24PCDIALER\SMOOTHDIALER\RELEASE\SMSSENDDLG.OBJ|D:\24PCDIALER WORKS\NEW VERSION\INTELVOIZ\24PCDIALER\SMOOTHDIALER\RELEASE\STDAFX.OBJ
D:\24PCDIALER WORKS\NEW VERSION\INTELVOIZ\24PCDIALER\RELEASE\DIALER_AGENT.LIB
D:\24PCDIALER WORKS\NEW VERSION\INTELVOIZ\24PCDIALER\RELEASE\G729.LIB
C:\PROGRAM FILES (X86)\MICROSOFT SDKS\WINDOWS\V7.1A\LIB\WINMM.LIB
D:\24PCDIALER WORKS\NEW VERSION\INTELVOIZ\24PCDIALER\SMOOTHDIALER\RELEASE\SMOOTHDIALER.RES
D:\24PCDIALER WORKS\NEW VERSION\INTELVOIZ\24PCDIALER\SMOOTHDIALER\RELEASE\ACCOUNTDIALOG.OBJ
D:\24PCDIALER WORKS\NEW VERSION\INTELVOIZ\24PCDIALER\SMOOTHDIALER\RELEASE\ADDCONTACT.OBJ
D:\24PCDIALER WORKS\NEW VERSION\INTELVOIZ\24PCDIALER\SMOOTHDIALER\RELEASE\AUDIO_PLAYER.OBJ
D:\24PCDIALER WORKS\NEW VERSION\INTELVOIZ\24PCDIALER\SMOOTHDIALER\RELEASE\AUDIO_RECORDER.OBJ
D:\24PCDIALER WORKS\NEW VERSION\INTELVOIZ\24PCDIALER\SMOOTHDIALER\RELEASE\BLOCK_ALLOCATOR.OBJ
D:\24PCDIALER WORKS\NEW VERSION\INTELVOIZ\24PCDIALER\SMOOTHDIALER\RELEASE\CALLLOG.OBJ
D:\24PCDIALER WORKS\NEW VERSION\INTELVOIZ\24PCDIALER\SMOOTHDIALER\RELEASE\CONTACTVIEW.OBJ
D:\24PCDIALER WORKS\NEW VERSION\INTELVOIZ\24PCDIALER\SMOOTHDIALER\RELEASE\FLEXIHISTORYDLG.OBJ
D:\24PCDIALER WORKS\NEW VERSION\INTELVOIZ\24PCDIALER\SMOOTHDIALER\RELEASE\FLEXIRECHARGEDLG.OBJ
D:\24PCDIALER WORKS\NEW VERSION\INTELVOIZ\24PCDIALER\SMOOTHDIALER\RELEASE\FLEXISMSSETTINGSDLG.OBJ
D:\24PCDIALER WORKS\NEW VERSION\INTELVOIZ\24PCDIALER\SMOOTHDIALER\RELEASE\JSON.OBJ
D:\24PCDIALER WORKS\NEW VERSION\INTELVOIZ\24PCDIALER\SMOOTHDIALER\RELEASE\MYUTIL.OBJ
D:\24PCDIALER WORKS\NEW VERSION\INTELVOIZ\24PCDIALER\SMOOTHDIALER\RELEASE\REQUEST.OBJ
D:\24PCDIALER WORKS\NEW VERSION\INTELVOIZ\24PCDIALER\SMOOTHDIALER\RELEASE\SMOOTHDIALER.OBJ
D:\24PCDIALER WORKS\NEW VERSION\INTELVOIZ\24PCDIALER\SMOOTHDIALER\RELEASE\SMOOTHDIALERDLG.OBJ
D:\24PCDIALER WORKS\NEW VERSION\INTELVOIZ\24PCDIALER\SMOOTHDIALER\RELEASE\SMSHISTORYDLG.OBJ
D:\24PCDIALER WORKS\NEW VERSION\INTELVOIZ\24PCDIALER\SMOOTHDIALER\RELEASE\SMSSENDDLG.OBJ
D:\24PCDIALER WORKS\NEW VERSION\INTELVOIZ\24PCDIALER\SMOOTHDIALER\RELEASE\STDAFX.OBJ
C:\WINDOWS\GLOBALIZATION\SORTING\SORTDEFAULT.NLS
C:\PROGRAM FILES (X86)\MICROSOFT VISUAL STUDIO 11.0\VC\BIN\C2.DLL
C:\PROGRAM FILES (X86)\MICROSOFT VISUAL STUDIO 11.0\VC\ATLMFC\LIB\UAFXCWD.LIB
C:\PROGRAM FILES (X86)\MICROSOFT VISUAL STUDIO 11.0\VC\LIB\LIBCMTD.LIB
C:\PROGRAM FILES (X86)\MICROSOFT SDKS\WINDOWS\V7.1A\LIB\KERNEL32.LIB
C:\PROGRAM FILES (X86)\MICROSOFT SDKS\WINDOWS\V7.1A\LIB\USER32.LIB
C:\PROGRAM FILES (X86)\MICROSOFT SDKS\WINDOWS\V7.1A\LIB\GDI32.LIB
C:\PROGRAM FILES (X86)\MICROSOFT SDKS\WINDOWS\V7.1A\LIB\MSIMG32.LIB
C:\PROGRAM FILES (X86)\MICROSOFT SDKS\WINDOWS\V7.1A\LIB\COMDLG32.LIB
C:\PROGRAM FILES (X86)\MICROSOFT SDKS\WINDOWS\V7.1A\LIB\WINSPOOL.LIB
C:\PROGRAM FILES (X86)\MICROSOFT SDKS\WINDOWS\V7.1A\LIB\ADVAPI32.LIB
C:\PROGRAM FILES (X86)\MICROSOFT SDKS\WINDOWS\V7.1A\LIB\SHELL32.LIB
C:\PROGRAM FILES (X86)\MICROSOFT SDKS\WINDOWS\V7.1A\LIB\COMCTL32.LIB
C:\PROGRAM FILES (X86)\MICROSOFT SDKS\WINDOWS\V7.1A\LIB\SHLWAPI.LIB
C:\PROGRAM FILES (X86)\MICROSOFT SDKS\WINDOWS\V7.1A\LIB\UXTHEME.LIB
C:\PROGRAM FILES (X86)\MICROSOFT SDKS\WINDOWS\V7.1A\LIB\WINDOWSCODECS.LIB
C:\PROGRAM FILES (X86)\MICROSOFT SDKS\WINDOWS\V7.1A\LIB\UUID.LIB
C:\PROGRAM FILES (X86)\MICROSOFT VISUAL STUDIO 11.0\VC\ATLMFC\LIB\ATLSD.LIB
C:\PROGRAM FILES (X86)\MICROSOFT SDKS\WINDOWS\V7.1A\LIB\OLE32.LIB
C:\PROGRAM FILES (X86)\MICROSOFT SDKS\WINDOWS\V7.1A\LIB\OLEAUT32.LIB
C:\PROGRAM FILES (X86)\MICROSOFT SDKS\WINDOWS\V7.1A\LIB\OLEDLG.LIB
C:\PROGRAM FILES (X86)\MICROSOFT SDKS\WINDOWS\V7.1A\LIB\URLMON.LIB
C:\PROGRAM FILES (X86)\MICROSOFT SDKS\WINDOWS\V7.1A\LIB\GDIPLUS.LIB
C:\PROGRAM FILES (X86)\MICROSOFT VISUAL STUDIO 11.0\VC\LIB\COMSUPPWD.LIB
C:\PROGRAM FILES (X86)\MICROSOFT VISUAL STUDIO 11.0\VC\LIB\OLDNAMES.LIB
C:\PROGRAM FILES (X86)\MICROSOFT VISUAL STUDIO 11.0\VC\LIB\LIBCPMTD.LIB
C:\PROGRAM FILES (X86)\MICROSOFT SDKS\WINDOWS\V7.1A\LIB\WS2_32.LIB
C:\PROGRAM FILES (X86)\MICROSOFT SDKS\WINDOWS\V7.1A\LIB\MSWSOCK.LIB
C:\PROGRAM FILES (X86)\MICROSOFT SDKS\WINDOWS\V7.1A\LIB\OLEACC.LIB
C:\PROGRAM FILES (X86)\MICROSOFT SDKS\WINDOWS\V7.1A\LIB\PROPSYS.LIB
C:\PROGRAM FILES (X86)\MICROSOFT SDKS\WINDOWS\V7.1A\LIB\IMM32.LIB
C:\PROGRAM FILES (X86)\MICROSOFT SDKS\WINDOWS\V7.1A\LIB\MSXML6.LIB
C:\PROGRAM FILES (X86)\MICROSOFT VISUAL STUDIO 11.0\VC\BIN\1033\LINKUI.DLL
C:\PROGRAM FILES (X86)\MICROSOFT SDKS\WINDOWS\V7.1A\BIN\MT.EXE
C:\PROGRAM FILES (X86)\MICROSOFT SDKS\WINDOWS\V7.1A\BIN\RC.EXE
C:\PROGRAM FILES (X86)\MICROSOFT VISUAL STUDIO 11.0\VC\BIN\CVTRES.EXE
C:\WINDOWS\SYSTEM32\TZRES.DLL
C:\PROGRAM FILES (X86)\MICROSOFT VISUAL STUDIO 11.0\VC\BIN\1033\CLUI.DLL
C:\PROGRAM FILES (X86)\MICROSOFT VISUAL STUDIO 11.0\VC\INCLUDE\MANIFEST\DPIAWARE.MANIFEST
