^D:\24DIALER\RUNNING\24PCDIALER\AUDIOENGINESYMBIAN.CPP
/c /ZI /nologo /W3 /WX- /Od /Oy- /D WIN32 /D NDEBUG /D _WINDOWS /D _VC80_UPGRADE=0x0600 /D _MBCS /Gm- /EHsc /MT /GS /Gy- /fp:precise /Zc:wchar_t /Zc:forScope /Fo".\RELEASE\\" /Fd".\RELEASE\VC110.PDB" /FR".\Release\\" /Gd /TP /analyze- D:\24DIALER\RUNNING\24PCDIALER\AUDIOENGINESYMBIAN.CPP
^D:\24DIALER\RUNNING\24PCDIALER\AUDIOTHREAD.CPP
/c /ZI /nologo /W3 /WX- /Od /Oy- /D WIN32 /D NDEBUG /D _WINDOWS /D _VC80_UPGRADE=0x0600 /D _MBCS /Gm- /EHsc /MT /GS /Gy- /fp:precise /Zc:wchar_t /Zc:forScope /Fo".\RELEASE\\" /Fd".\RELEASE\VC110.PDB" /FR".\Release\\" /Gd /TP /analyze- D:\24DIALER\RUNNING\24PCDIALER\AUDIOTHREAD.CPP
^D:\24DIALER\RUNNING\24PCDIALER\CONTACTSDLG.CPP
/c /ZI /nologo /W3 /WX- /Od /Oy- /D WIN32 /D NDEBUG /D _WINDOWS /D _VC80_UPGRADE=0x0600 /D _MBCS /Gm- /EHsc /MT /GS /Gy- /fp:precise /Zc:wchar_t /Zc:forScope /Fo".\RELEASE\\" /Fd".\RELEASE\VC110.PDB" /FR".\Release\\" /Gd /TP /analyze- D:\24DIALER\RUNNING\24PCDIALER\CONTACTSDLG.CPP
^D:\24DIALER\RUNNING\24PCDIALER\DIALERAGENTEXTENSION.CPP
/c /ZI /nologo /W3 /WX- /Od /Oy- /D WIN32 /D NDEBUG /D _WINDOWS /D _VC80_UPGRADE=0x0600 /D _MBCS /Gm- /EHsc /MT /GS /Gy- /fp:precise /Zc:wchar_t /Zc:forScope /Fo".\RELEASE\\" /Fd".\RELEASE\VC110.PDB" /FR".\Release\\" /Gd /TP /analyze- D:\24DIALER\RUNNING\24PCDIALER\DIALERAGENTEXTENSION.CPP
^D:\24DIALER\RUNNING\24PCDIALER\FLEXIACCOUNT.CPP
/c /ZI /nologo /W3 /WX- /Od /Oy- /D WIN32 /D NDEBUG /D _WINDOWS /D _VC80_UPGRADE=0x0600 /D _MBCS /Gm- /EHsc /MT /GS /Gy- /fp:precise /Zc:wchar_t /Zc:forScope /Fo".\RELEASE\\" /Fd".\RELEASE\VC110.PDB" /FR".\Release\\" /Gd /TP /analyze- D:\24DIALER\RUNNING\24PCDIALER\FLEXIACCOUNT.CPP
^D:\24DIALER\RUNNING\24PCDIALER\GLOBALS.CPP
/c /ZI /nologo /W3 /WX- /Od /Oy- /D WIN32 /D NDEBUG /D _WINDOWS /D _VC80_UPGRADE=0x0600 /D _MBCS /Gm- /EHsc /MT /GS /Gy- /fp:precise /Zc:wchar_t /Zc:forScope /Fo".\RELEASE\\" /Fd".\RELEASE\VC110.PDB" /FR".\Release\\" /Gd /TP /analyze- D:\24DIALER\RUNNING\24PCDIALER\GLOBALS.CPP
^D:\24DIALER\RUNNING\24PCDIALER\LOGINDLG.CPP
/c /ZI /nologo /W3 /WX- /Od /Oy- /D WIN32 /D NDEBUG /D _WINDOWS /D _VC80_UPGRADE=0x0600 /D _MBCS /Gm- /EHsc /MT /GS /Gy- /fp:precise /Zc:wchar_t /Zc:forScope /Fo".\RELEASE\\" /Fd".\RELEASE\VC110.PDB" /FR".\Release\\" /Gd /TP /analyze- D:\24DIALER\RUNNING\24PCDIALER\LOGINDLG.CPP
^D:\24DIALER\RUNNING\24PCDIALER\RECHAGEDLG.CPP
/c /ZI /nologo /W3 /WX- /Od /Oy- /D WIN32 /D NDEBUG /D _WINDOWS /D _VC80_UPGRADE=0x0600 /D _MBCS /Gm- /EHsc /MT /GS /Gy- /fp:precise /Zc:wchar_t /Zc:forScope /Fo".\RELEASE\\" /Fd".\RELEASE\VC110.PDB" /FR".\Release\\" /Gd /TP /analyze- D:\24DIALER\RUNNING\24PCDIALER\RECHAGEDLG.CPP
^D:\24DIALER\RUNNING\24PCDIALER\SMOOTHDIALER.CPP
/c /ZI /nologo /W3 /WX- /Od /Oy- /D WIN32 /D NDEBUG /D _WINDOWS /D _VC80_UPGRADE=0x0600 /D _MBCS /Gm- /EHsc /MT /GS /Gy- /fp:precise /Zc:wchar_t /Zc:forScope /Fo".\RELEASE\\" /Fd".\RELEASE\VC110.PDB" /FR".\Release\\" /Gd /TP /analyze- D:\24DIALER\RUNNING\24PCDIALER\SMOOTHDIALER.CPP
^D:\24DIALER\RUNNING\24PCDIALER\SMOOTHDIALERDLG.CPP
/c /ZI /nologo /W3 /WX- /Od /Oy- /D WIN32 /D NDEBUG /D _WINDOWS /D _VC80_UPGRADE=0x0600 /D _MBCS /Gm- /EHsc /MT /GS /Gy- /fp:precise /Zc:wchar_t /Zc:forScope /Fo".\RELEASE\\" /Fd".\RELEASE\VC110.PDB" /FR".\Release\\" /Gd /TP /analyze- D:\24DIALER\RUNNING\24PCDIALER\SMOOTHDIALERDLG.CPP
^D:\24DIALER\RUNNING\24PCDIALER\STDAFX.CPP
/c /ZI /nologo /W3 /WX- /Od /Oy- /D WIN32 /D NDEBUG /D _WINDOWS /D _VC80_UPGRADE=0x0600 /D _MBCS /Gm- /EHsc /MT /GS /Gy- /fp:precise /Zc:wchar_t /Zc:forScope /Fo".\RELEASE\\" /Fd".\RELEASE\VC110.PDB" /FR".\Release\\" /Gd /TP /analyze- D:\24DIALER\RUNNING\24PCDIALER\STDAFX.CPP
^D:\24DIALER\RUNNING\24PCDIALER\DIALERAGENT.CPP
/c /ZI /nologo /W3 /WX- /Od /Oy- /D WIN32 /D NDEBUG /D _WINDOWS /D _VC80_UPGRADE=0x0600 /D _MBCS /Gm- /EHsc /MT /GS /Gy- /fp:precise /Zc:wchar_t /Zc:forScope /Fo".\RELEASE\\" /Fd".\RELEASE\VC110.PDB" /FR".\Release\\" /Gd /TP /analyze- D:\24DIALER\RUNNING\24PCDIALER\DIALERAGENT.CPP
