^D:\24PCDIALER WORKS\NEW VERSION\DEVELOPING\24PCDIALER\DEBUG\DIALER_AGENT.LIB|D:\24PCDIALER WORKS\NEW VERSION\DEVELOPING\24PCDIALER\SMOOTHDIALER\DEBUG\ACCOUNTDIALOG.OBJ|D:\24PCDIALER WORKS\NEW VERSION\DEVELOPING\24PCDIALER\SMOOTHDIALER\DEBUG\ADDCONTACT.OBJ|D:\24PCDIALER WORKS\NEW VERSION\DEVELOPING\24PCDIALER\SMOOTHDIALER\DEBUG\AUDIO_PLAYER.OBJ|D:\24PCDIALER WORKS\NEW VERSION\DEVELOPING\24PCDIALER\SMOOTHDIALER\DEBUG\AUDIO_RECORDER.OBJ|D:\24PCDIALER WORKS\NEW VERSION\DEVELOPING\24PCDIALER\SMOOTHDIALER\DEBUG\CALLLOG.OBJ|D:\24PCDIALER WORKS\NEW VERSION\DEVELOPING\24PCDIALER\SMOOTHDIALER\DEBUG\CONTACTVIEW.OBJ|D:\24PCDIALER WORKS\NEW VERSION\DEVELOPING\24PCDIALER\SMOOTHDIALER\DEBUG\MYUTIL.OBJ|D:\24PCDIALER WORKS\NEW VERSION\DEVELOPING\24PCDIALER\SMOOTHDIALER\DEBUG\SMOOTHDIALER.OBJ|D:\24PCDIALER WORKS\NEW VERSION\DEVELOPING\24PCDIALER\SMOOTHDIALER\DEBUG\SMOOTHDIALER.RES|D:\24PCDIALER WORKS\NEW VERSION\DEVELOPING\24PCDIALER\SMOOTHDIALER\DEBUG\SMOOTHDIALERDLG.OBJ|D:\24PCDIALER WORKS\NEW VERSION\DEVELOPING\24PCDIALER\SMOOTHDIALER\DEBUG\STDAFX.OBJ
D:\24PCDIALER WORKS\NEW VERSION\DEVELOPING\24PCDIALER\DEBUG\24PCDIALER.ILK
D:\24PCDIALER WORKS\NEW VERSION\DEVELOPING\24PCDIALER\DEBUG\24PCDIALER.EXE
D:\24PCDIALER WORKS\NEW VERSION\DEVELOPING\24PCDIALER\DEBUG\24PCDIALER.PDB
