^D:\24DIALER\NEW VERSION\SMOOTHDIALER-PC\DIALERAGENT\ASSEMBLYINFO.CPP
/c /I..\G729\Include /Zi /nologo /W3 /WX- /O2 /Oy- /GL /D WIN32 /D NDEBUG /D _UNICODE /D UNICODE /Gm- /EHsc /MTd /GS /fp:precise /Zc:wchar_t /Zc:forScope /Fo"RELEASE\\" /Fd"RELEASE\VC110.PDB" /Gd /TP /analyze- D:\24DIALER\NEW VERSION\SMOOTHDIALER-PC\DIALERAGENT\ASSEMBLYINFO.CPP
^D:\24DIALER\NEW VERSION\SMOOTHDIALER-PC\DIALERAGENT\DIALER_AGENT.CPP
/c /I..\G729\Include /Zi /nologo /W3 /WX- /O2 /Oy- /GL /D WIN32 /D NDEBUG /D _UNICODE /D UNICODE /Gm- /EHsc /MTd /GS /fp:precise /Zc:wchar_t /Zc:forScope /Fo"RELEASE\\" /Fd"RELEASE\VC110.PDB" /Gd /TP /analyze- D:\24DIALER\NEW VERSION\SMOOTHDIALER-PC\DIALERAGENT\DIALER_AGENT.CPP
^D:\24DIALER\NEW VERSION\SMOOTHDIALER-PC\DIALERAGENT\DIALER_AGENT_UTIL.CPP
/c /I..\G729\Include /Zi /nologo /W3 /WX- /O2 /Oy- /GL /D WIN32 /D NDEBUG /D _UNICODE /D UNICODE /Gm- /EHsc /MTd /GS /fp:precise /Zc:wchar_t /Zc:forScope /Fo"RELEASE\\" /Fd"RELEASE\VC110.PDB" /Gd /TP /analyze- D:\24DIALER\NEW VERSION\SMOOTHDIALER-PC\DIALERAGENT\DIALER_AGENT_UTIL.CPP
^D:\24DIALER\NEW VERSION\SMOOTHDIALER-PC\DIALERAGENT\DIALER_TUNNEL.CPP
/c /I..\G729\Include /Zi /nologo /W3 /WX- /O2 /Oy- /GL /D WIN32 /D NDEBUG /D _UNICODE /D UNICODE /Gm- /EHsc /MTd /GS /fp:precise /Zc:wchar_t /Zc:forScope /Fo"RELEASE\\" /Fd"RELEASE\VC110.PDB" /Gd /TP /analyze- D:\24DIALER\NEW VERSION\SMOOTHDIALER-PC\DIALERAGENT\DIALER_TUNNEL.CPP
^D:\24DIALER\NEW VERSION\SMOOTHDIALER-PC\DIALERAGENT\NETWORK_POLLER.CPP
/c /I..\G729\Include /Zi /nologo /W3 /WX- /O2 /Oy- /GL /D WIN32 /D NDEBUG /D _UNICODE /D UNICODE /Gm- /EHsc /MTd /GS /fp:precise /Zc:wchar_t /Zc:forScope /Fo"RELEASE\\" /Fd"RELEASE\VC110.PDB" /Gd /TP /analyze- D:\24DIALER\NEW VERSION\SMOOTHDIALER-PC\DIALERAGENT\NETWORK_POLLER.CPP
