^D:\24DIALER\NEW VERSION\SMOOTHDIALER-PC\DIALERAGENT\RELEASE\APP.RES|D:\24DIALER\NEW VERSION\SMOOTHDIALER-PC\DIALERAGENT\RELEASE\ASSEMBLYINFO.OBJ|D:\24DIALER\NEW VERSION\SMOOTHDIALER-PC\DIALERAGENT\RELEASE\DIALER_AGENT.OBJ|D:\24DIALER\NEW VERSION\SMOOTHDIALER-PC\DIALERAGENT\RELEASE\DIALER_AGENT_UTIL.OBJ|D:\24DIALER\NEW VERSION\SMOOTHDIALER-PC\DIALERAGENT\RELEASE\DIALER_TUNNEL.OBJ|D:\24DIALER\NEW VERSION\SMOOTHDIALER-PC\DIALERAGENT\RELEASE\NETWORK_POLLER.OBJ
D:\24DIALER\NEW VERSION\SMOOTHDIALER-PC\DIALERAGENT\RELEASE\APP.RES
C:\WINDOWS\GLOBALIZATION\SORTING\SORTDEFAULT.NLS
C:\WINDOWS\SYSTEM32\TZRES.DLL
D:\24DIALER\NEW VERSION\SMOOTHDIALER-PC\DIALERAGENT\RELEASE\ASSEMBLYINFO.OBJ
D:\24DIALER\NEW VERSION\SMOOTHDIALER-PC\DIALERAGENT\RELEASE\DIALER_AGENT.OBJ
D:\24DIALER\NEW VERSION\SMOOTHDIALER-PC\DIALERAGENT\RELEASE\DIALER_AGENT_UTIL.OBJ
D:\24DIALER\NEW VERSION\SMOOTHDIALER-PC\DIALERAGENT\RELEASE\DIALER_TUNNEL.OBJ
D:\24DIALER\NEW VERSION\SMOOTHDIALER-PC\DIALERAGENT\RELEASE\NETWORK_POLLER.OBJ
C:\PROGRAM FILES (X86)\MICROSOFT VISUAL STUDIO 11.0\VC\BIN\1033\LINKUI.DLL
