^D:\24RUNNINGAPPS\WALIPCDIALER\24DIALER\AUDIOENGINESYMBIAN.CPP|D:\24RUNNINGAPPS\WALIPCDIALER\24DIALER\AUDIOTHREAD.CPP|D:\24RUNNINGAPPS\WALIPCDIALER\24DIALER\DIALERAGENT.CPP|D:\24RUNNINGAPPS\WALIPCDIALER\24DIALER\DIALERAGENTEXTENSION.CPP|D:\24RUNNINGAPPS\WALIPCDIALER\24DIALER\GLOBALS.CPP|D:\24RUNNINGAPPS\WALIPCDIALER\24DIALER\LOGGER.CPP|D:\24RUNNINGAPPS\WALIPCDIALER\24DIALER\LOGINDLG.CPP|D:\24RUNNINGAPPS\WALIPCDIALER\24DIALER\SMOOTHDIALER.CPP|D:\24RUNNINGAPPS\WALIPCDIALER\24DIALER\SMOOTHDIALERDLG.CPP|D:\24RUNNINGAPPS\WALIPCDIALER\24DIALER\STDAFX.CPP
D:\24RUNNINGAPPS\WALIPCDIALER\24DIALER\DEBUG\STDAFX.SBR
D:\24RUNNINGAPPS\WALIPCDIALER\24DIALER\DEBUG\SMOOTHDIALERDLG.SBR
D:\24RUNNINGAPPS\WALIPCDIALER\24DIALER\DEBUG\SMOOTHDIALER.SBR
D:\24RUNNINGAPPS\WALIPCDIALER\24DIALER\DEBUG\LOGINDLG.SBR
D:\24RUNNINGAPPS\WALIPCDIALER\24DIALER\DEBUG\LOGGER.SBR
D:\24RUNNINGAPPS\WALIPCDIALER\24DIALER\DEBUG\GLOBALS.SBR
D:\24RUNNINGAPPS\WALIPCDIALER\24DIALER\DEBUG\DIALERAGENTEXTENSION.SBR
D:\24RUNNINGAPPS\WALIPCDIALER\24DIALER\DEBUG\DIALERAGENT.SBR
D:\24RUNNINGAPPS\WALIPCDIALER\24DIALER\DEBUG\AUDIOTHREAD.SBR
D:\24RUNNINGAPPS\WALIPCDIALER\24DIALER\DEBUG\AUDIOENGINESYMBIAN.SBR
D:\24RUNNINGAPPS\WALIPCDIALER\24DIALER\DEBUG\AUDIOENGINESYMBIAN.OBJ
D:\24RUNNINGAPPS\WALIPCDIALER\24DIALER\DEBUG\AUDIOTHREAD.OBJ
D:\24RUNNINGAPPS\WALIPCDIALER\24DIALER\DEBUG\DIALERAGENT.OBJ
D:\24RUNNINGAPPS\WALIPCDIALER\24DIALER\DEBUG\DIALERAGENTEXTENSION.OBJ
D:\24RUNNINGAPPS\WALIPCDIALER\24DIALER\DEBUG\GLOBALS.OBJ
D:\24RUNNINGAPPS\WALIPCDIALER\24DIALER\DEBUG\LOGGER.OBJ
D:\24RUNNINGAPPS\WALIPCDIALER\24DIALER\DEBUG\LOGINDLG.OBJ
D:\24RUNNINGAPPS\WALIPCDIALER\24DIALER\DEBUG\SMOOTHDIALER.OBJ
D:\24RUNNINGAPPS\WALIPCDIALER\24DIALER\DEBUG\SMOOTHDIALERDLG.OBJ
D:\24RUNNINGAPPS\WALIPCDIALER\24DIALER\DEBUG\STDAFX.OBJ
^D:\24RUNNINGAPPS\WALIPCDIALER\24DIALER\AUDIOENGINESYMBIAN.CPP
D:\24RUNNINGAPPS\WALIPCDIALER\24DIALER\DEBUG\VC110.PDB
^D:\24RUNNINGAPPS\WALIPCDIALER\24DIALER\AUDIOTHREAD.CPP
D:\24RUNNINGAPPS\WALIPCDIALER\24DIALER\DEBUG\VC110.PDB
^D:\24RUNNINGAPPS\WALIPCDIALER\24DIALER\DIALERAGENT.CPP
D:\24RUNNINGAPPS\WALIPCDIALER\24DIALER\DEBUG\VC110.PDB
D:\24RUNNINGAPPS\WALIPCDIALER\24DIALER\DEBUG\DIALERAGENT.SBR
D:\24RUNNINGAPPS\WALIPCDIALER\24DIALER\DEBUG\DIALERAGENT.OBJ
^D:\24RUNNINGAPPS\WALIPCDIALER\24DIALER\DIALERAGENTEXTENSION.CPP
D:\24RUNNINGAPPS\WALIPCDIALER\24DIALER\DEBUG\VC110.PDB
^D:\24RUNNINGAPPS\WALIPCDIALER\24DIALER\GLOBALS.CPP
D:\24RUNNINGAPPS\WALIPCDIALER\24DIALER\DEBUG\VC110.PDB
^D:\24RUNNINGAPPS\WALIPCDIALER\24DIALER\LOGGER.CPP
D:\24RUNNINGAPPS\WALIPCDIALER\24DIALER\DEBUG\VC110.PDB
^D:\24RUNNINGAPPS\WALIPCDIALER\24DIALER\LOGINDLG.CPP
D:\24RUNNINGAPPS\WALIPCDIALER\24DIALER\DEBUG\VC110.PDB
^D:\24RUNNINGAPPS\WALIPCDIALER\24DIALER\SMOOTHDIALER.CPP
D:\24RUNNINGAPPS\WALIPCDIALER\24DIALER\DEBUG\VC110.PDB
^D:\24RUNNINGAPPS\WALIPCDIALER\24DIALER\SMOOTHDIALERDLG.CPP
D:\24RUNNINGAPPS\WALIPCDIALER\24DIALER\DEBUG\VC110.PDB
^D:\24RUNNINGAPPS\WALIPCDIALER\24DIALER\STDAFX.CPP
D:\24RUNNINGAPPS\WALIPCDIALER\24DIALER\DEBUG\VC110.PDB
^D:\24RUNNINGAPPS\WALIPCDIALER\24DIALER\AUDIOENGINESYMBIAN.CPP|D:\24RUNNINGAPPS\WALIPCDIALER\24DIALER\DIALERAGENT.CPP|D:\24RUNNINGAPPS\WALIPCDIALER\24DIALER\DIALERAGENTEXTENSION.CPP|D:\24RUNNINGAPPS\WALIPCDIALER\24DIALER\GLOBALS.CPP|D:\24RUNNINGAPPS\WALIPCDIALER\24DIALER\LOGINDLG.CPP|D:\24RUNNINGAPPS\WALIPCDIALER\24DIALER\SMOOTHDIALER.CPP|D:\24RUNNINGAPPS\WALIPCDIALER\24DIALER\SMOOTHDIALERDLG.CPP
D:\24RUNNINGAPPS\WALIPCDIALER\24DIALER\DEBUG\AUDIOENGINESYMBIAN.SBR
D:\24RUNNINGAPPS\WALIPCDIALER\24DIALER\DEBUG\AUDIOENGINESYMBIAN.OBJ
D:\24RUNNINGAPPS\WALIPCDIALER\24DIALER\DEBUG\SMOOTHDIALERDLG.SBR
D:\24RUNNINGAPPS\WALIPCDIALER\24DIALER\DEBUG\SMOOTHDIALER.SBR
D:\24RUNNINGAPPS\WALIPCDIALER\24DIALER\DEBUG\LOGINDLG.SBR
D:\24RUNNINGAPPS\WALIPCDIALER\24DIALER\DEBUG\GLOBALS.SBR
D:\24RUNNINGAPPS\WALIPCDIALER\24DIALER\DEBUG\DIALERAGENTEXTENSION.SBR
D:\24RUNNINGAPPS\WALIPCDIALER\24DIALER\DEBUG\DIALERAGENT.SBR
D:\24RUNNINGAPPS\WALIPCDIALER\24DIALER\DEBUG\DIALERAGENT.OBJ
D:\24RUNNINGAPPS\WALIPCDIALER\24DIALER\DEBUG\DIALERAGENTEXTENSION.OBJ
D:\24RUNNINGAPPS\WALIPCDIALER\24DIALER\DEBUG\GLOBALS.OBJ
D:\24RUNNINGAPPS\WALIPCDIALER\24DIALER\DEBUG\LOGINDLG.OBJ
D:\24RUNNINGAPPS\WALIPCDIALER\24DIALER\DEBUG\SMOOTHDIALER.OBJ
D:\24RUNNINGAPPS\WALIPCDIALER\24DIALER\DEBUG\SMOOTHDIALERDLG.OBJ
