^D:\24RUNNINGAPPS\WALIPCDIALER\24DIALER\DEBUG\AUDIOENGINESYMBIAN.SBR|D:\24RUNNINGAPPS\WALIPCDIALER\24DIALER\DEBUG\AUDIOTHREAD.SBR|D:\24RUNNINGAPPS\WALIPCDIALER\24DIALER\DEBUG\DIALERAGENT.SBR|D:\24RUNNINGAPPS\WALIPCDIALER\24DIALER\DEBUG\DIALERAGENTEXTENSION.SBR|D:\24RUNNINGAPPS\WALIPCDIALER\24DIALER\DEBUG\GLOBALS.SBR|D:\24RUNNINGAPPS\WALIPCDIALER\24DIALER\DEBUG\LOGGER.SBR|D:\24RUNNINGAPPS\WALIPCDIALER\24DIALER\DEBUG\LOGINDLG.SBR|D:\24RUNNINGAPPS\WALIPCDIALER\24DIALER\DEBUG\SMOOTHDIALER.SBR|D:\24RUNNINGAPPS\WALIPCDIALER\24DIALER\DEBUG\SMOOTHDIALERDLG.SBR|D:\24RUNNINGAPPS\WALIPCDIALER\24DIALER\DEBUG\STDAFX.SBR
C:\WINDOWS\SYSTEM32\TZRES.DLL
D:\24RUNNINGAPPS\WALIPCDIALER\24DIALER\DEBUG\AUDIOENGINESYMBIAN.SBR
