^D:\24RUNNINGAPPS\WALIPCDIALER\24DIALER\DEBUG\AUDIOENGINESYMBIAN.OBJ|D:\24RUNNINGAPPS\WALIPCDIALER\24DIALER\DEBUG\AUDIOTHREAD.OBJ|D:\24RUNNINGAPPS\WALIPCDIALER\24DIALER\DEBUG\DIALERAGENT.OBJ|D:\24RUNNINGAPPS\WALIPCDIALER\24DIALER\DEBUG\DIALERAGENTEXTENSION.OBJ|D:\24RUNNINGAPPS\WALIPCDIALER\24DIALER\DEBUG\GLOBALS.OBJ|D:\24RUNNINGAPPS\WALIPCDIALER\24DIALER\DEBUG\LOGGER.OBJ|D:\24RUNNINGAPPS\WALIPCDIALER\24DIALER\DEBUG\LOGINDLG.OBJ|D:\24RUNNINGAPPS\WALIPCDIALER\24DIALER\DEBUG\SMOOTHDIALER.OBJ|D:\24RUNNINGAPPS\WALIPCDIALER\24DIALER\DEBUG\SMOOTHDIALER.RES|D:\24RUNNINGAPPS\WALIPCDIALER\24DIALER\DEBUG\SMOOTHDIALERDLG.OBJ|D:\24RUNNINGAPPS\WALIPCDIALER\24DIALER\DEBUG\STDAFX.OBJ
D:\24RUNNINGAPPS\WALIPCDIALER\24DIALER\DEBUG\24DIALER.ILK
D:\24RUNNINGAPPS\WALIPCDIALER\24DIALER\DEBUG\24DIALER.EXE
D:\24RUNNINGAPPS\WALIPCDIALER\24DIALER\DEBUG\24DIALER.PDB
