^D:\24DIALER\NEW VERSION\HELLOVOIP\24PCDIALER\G729\STDAFX.CPP
C:\PROGRAM FILES (X86)\MICROSOFT VISUAL STUDIO 11.0\VC\BIN\1033\CLUI.DLL
C:\WINDOWS\GLOBALIZATION\SORTING\SORTDEFAULT.NLS
C:\WINDOWS\SYSTEM32\TZRES.DLL
D:\24DIALER\NEW VERSION\HELLOVOIP\24PCDIALER\G729\STDAFX.H
^D:\24DIALER\NEW VERSION\HELLOVOIP\24PCDIALER\G729\ASSEMBLYINFO.CPP
C:\PROGRAM FILES (X86)\MICROSOFT VISUAL STUDIO 11.0\VC\BIN\1033\CLUI.DLL
C:\WINDOWS\GLOBALIZATION\SORTING\SORTDEFAULT.NLS
C:\WINDOWS\SYSTEM32\TZRES.DLL
D:\24DIALER\NEW VERSION\HELLOVOIP\24PCDIALER\G729\STDAFX.H
^D:\24DIALER\NEW VERSION\HELLOVOIP\24PCDIALER\G729\SOURCE\ACELP_CA.C
D:\24DIALER\NEW VERSION\HELLOVOIP\24PCDIALER\G729\INCLUDE\TYPEDEF.H
D:\24DIALER\NEW VERSION\HELLOVOIP\24PCDIALER\G729\INCLUDE\MSINTTYPES\INTTYPES.H
D:\24DIALER\NEW VERSION\HELLOVOIP\24PCDIALER\G729\INCLUDE\MSINTTYPES\STDINT.H
D:\24DIALER\NEW VERSION\HELLOVOIP\24PCDIALER\G729\INCLUDE\BASIC_OP.H
D:\24DIALER\NEW VERSION\HELLOVOIP\24PCDIALER\G729\INCLUDE\BASICOP_MALLOC.H
D:\24DIALER\NEW VERSION\HELLOVOIP\24PCDIALER\G729\INCLUDE\BASIC_OP_C_EQUIVALENT.H
D:\24DIALER\NEW VERSION\HELLOVOIP\24PCDIALER\G729\INCLUDE\ADD.H
D:\24DIALER\NEW VERSION\HELLOVOIP\24PCDIALER\G729\INCLUDE\DIV_S.H
D:\24DIALER\NEW VERSION\HELLOVOIP\24PCDIALER\G729\INCLUDE\L_SHR_R.H
D:\24DIALER\NEW VERSION\HELLOVOIP\24PCDIALER\G729\INCLUDE\MULT_R.H
D:\24DIALER\NEW VERSION\HELLOVOIP\24PCDIALER\G729\INCLUDE\NORM_L.H
D:\24DIALER\NEW VERSION\HELLOVOIP\24PCDIALER\G729\INCLUDE\NORM_S.H
D:\24DIALER\NEW VERSION\HELLOVOIP\24PCDIALER\G729\INCLUDE\ROUND.H
D:\24DIALER\NEW VERSION\HELLOVOIP\24PCDIALER\G729\INCLUDE\SHR_R.H
D:\24DIALER\NEW VERSION\HELLOVOIP\24PCDIALER\G729\INCLUDE\SUB.H
D:\24DIALER\NEW VERSION\HELLOVOIP\24PCDIALER\G729\INCLUDE\SHR.H
D:\24DIALER\NEW VERSION\HELLOVOIP\24PCDIALER\G729\INCLUDE\L_NEGATE.H
D:\24DIALER\NEW VERSION\HELLOVOIP\24PCDIALER\G729\INCLUDE\L_EXTRACT.H
D:\24DIALER\NEW VERSION\HELLOVOIP\24PCDIALER\G729\INCLUDE\LD8A.H
D:\24DIALER\NEW VERSION\HELLOVOIP\24PCDIALER\G729\INCLUDE\MSINTTYPES\STRINGS.H
^D:\24DIALER\NEW VERSION\HELLOVOIP\24PCDIALER\G729\SOURCE\BASIC_OP.C
C:\PROGRAM FILES (X86)\MICROSOFT VISUAL STUDIO 11.0\VC\INCLUDE\STDIO.H
C:\PROGRAM FILES (X86)\MICROSOFT VISUAL STUDIO 11.0\VC\INCLUDE\CRTDEFS.H
C:\PROGRAM FILES (X86)\MICROSOFT VISUAL STUDIO 11.0\VC\INCLUDE\SAL.H
C:\PROGRAM FILES (X86)\MICROSOFT VISUAL STUDIO 11.0\VC\INCLUDE\CONCURRENCYSAL.H
C:\PROGRAM FILES (X86)\MICROSOFT VISUAL STUDIO 11.0\VC\INCLUDE\VADEFS.H
C:\PROGRAM FILES (X86)\MICROSOFT VISUAL STUDIO 11.0\VC\INCLUDE\SWPRINTF.INL
C:\PROGRAM FILES (X86)\MICROSOFT VISUAL STUDIO 11.0\VC\INCLUDE\STDLIB.H
C:\PROGRAM FILES (X86)\MICROSOFT VISUAL STUDIO 11.0\VC\INCLUDE\LIMITS.H
D:\24DIALER\NEW VERSION\HELLOVOIP\24PCDIALER\G729\INCLUDE\TYPEDEF.H
D:\24DIALER\NEW VERSION\HELLOVOIP\24PCDIALER\G729\INCLUDE\MSINTTYPES\INTTYPES.H
D:\24DIALER\NEW VERSION\HELLOVOIP\24PCDIALER\G729\INCLUDE\MSINTTYPES\STDINT.H
D:\24DIALER\NEW VERSION\HELLOVOIP\24PCDIALER\G729\INCLUDE\BASIC_OP.H
D:\24DIALER\NEW VERSION\HELLOVOIP\24PCDIALER\G729\INCLUDE\BASICOP_MALLOC.H
D:\24DIALER\NEW VERSION\HELLOVOIP\24PCDIALER\G729\INCLUDE\BASIC_OP_C_EQUIVALENT.H
D:\24DIALER\NEW VERSION\HELLOVOIP\24PCDIALER\G729\INCLUDE\ADD.H
D:\24DIALER\NEW VERSION\HELLOVOIP\24PCDIALER\G729\INCLUDE\DIV_S.H
D:\24DIALER\NEW VERSION\HELLOVOIP\24PCDIALER\G729\INCLUDE\L_SHR_R.H
D:\24DIALER\NEW VERSION\HELLOVOIP\24PCDIALER\G729\INCLUDE\MULT_R.H
D:\24DIALER\NEW VERSION\HELLOVOIP\24PCDIALER\G729\INCLUDE\NORM_L.H
D:\24DIALER\NEW VERSION\HELLOVOIP\24PCDIALER\G729\INCLUDE\NORM_S.H
D:\24DIALER\NEW VERSION\HELLOVOIP\24PCDIALER\G729\INCLUDE\ROUND.H
D:\24DIALER\NEW VERSION\HELLOVOIP\24PCDIALER\G729\INCLUDE\SHR_R.H
D:\24DIALER\NEW VERSION\HELLOVOIP\24PCDIALER\G729\INCLUDE\SUB.H
D:\24DIALER\NEW VERSION\HELLOVOIP\24PCDIALER\G729\INCLUDE\SHR.H
D:\24DIALER\NEW VERSION\HELLOVOIP\24PCDIALER\G729\INCLUDE\L_NEGATE.H
D:\24DIALER\NEW VERSION\HELLOVOIP\24PCDIALER\G729\INCLUDE\L_EXTRACT.H
^D:\24DIALER\NEW VERSION\HELLOVOIP\24PCDIALER\G729\SOURCE\BITS.C
D:\24DIALER\NEW VERSION\HELLOVOIP\24PCDIALER\G729\INCLUDE\TYPEDEF.H
D:\24DIALER\NEW VERSION\HELLOVOIP\24PCDIALER\G729\INCLUDE\MSINTTYPES\INTTYPES.H
D:\24DIALER\NEW VERSION\HELLOVOIP\24PCDIALER\G729\INCLUDE\MSINTTYPES\STDINT.H
D:\24DIALER\NEW VERSION\HELLOVOIP\24PCDIALER\G729\INCLUDE\LD8A.H
D:\24DIALER\NEW VERSION\HELLOVOIP\24PCDIALER\G729\INCLUDE\MSINTTYPES\STRINGS.H
D:\24DIALER\NEW VERSION\HELLOVOIP\24PCDIALER\G729\INCLUDE\TAB_LD8A.H
D:\24DIALER\NEW VERSION\HELLOVOIP\24PCDIALER\G729\INCLUDE\LIBAVCODEC_GET_BITS.H
C:\PROGRAM FILES (X86)\MICROSOFT VISUAL STUDIO 11.0\VC\INCLUDE\STDLIB.H
C:\PROGRAM FILES (X86)\MICROSOFT VISUAL STUDIO 11.0\VC\INCLUDE\CRTDEFS.H
C:\PROGRAM FILES (X86)\MICROSOFT VISUAL STUDIO 11.0\VC\INCLUDE\SAL.H
C:\PROGRAM FILES (X86)\MICROSOFT VISUAL STUDIO 11.0\VC\INCLUDE\CONCURRENCYSAL.H
C:\PROGRAM FILES (X86)\MICROSOFT VISUAL STUDIO 11.0\VC\INCLUDE\VADEFS.H
C:\PROGRAM FILES (X86)\MICROSOFT VISUAL STUDIO 11.0\VC\INCLUDE\LIMITS.H
C:\PROGRAM FILES (X86)\MICROSOFT VISUAL STUDIO 11.0\VC\INCLUDE\ASSERT.H
D:\24DIALER\NEW VERSION\HELLOVOIP\24PCDIALER\G729\INCLUDE\LIBAVCODEC_PUT_BITS.H
^D:\24DIALER\NEW VERSION\HELLOVOIP\24PCDIALER\G729\SOURCE\COD_LD8A.C
C:\PROGRAM FILES (X86)\MICROSOFT VISUAL STUDIO 11.0\VC\INCLUDE\STDIO.H
C:\PROGRAM FILES (X86)\MICROSOFT VISUAL STUDIO 11.0\VC\INCLUDE\CRTDEFS.H
C:\PROGRAM FILES (X86)\MICROSOFT VISUAL STUDIO 11.0\VC\INCLUDE\SAL.H
C:\PROGRAM FILES (X86)\MICROSOFT VISUAL STUDIO 11.0\VC\INCLUDE\CONCURRENCYSAL.H
C:\PROGRAM FILES (X86)\MICROSOFT VISUAL STUDIO 11.0\VC\INCLUDE\VADEFS.H
C:\PROGRAM FILES (X86)\MICROSOFT VISUAL STUDIO 11.0\VC\INCLUDE\SWPRINTF.INL
C:\PROGRAM FILES (X86)\MICROSOFT VISUAL STUDIO 11.0\VC\INCLUDE\STDLIB.H
C:\PROGRAM FILES (X86)\MICROSOFT VISUAL STUDIO 11.0\VC\INCLUDE\LIMITS.H
D:\24DIALER\NEW VERSION\HELLOVOIP\24PCDIALER\G729\INCLUDE\TYPEDEF.H
D:\24DIALER\NEW VERSION\HELLOVOIP\24PCDIALER\G729\INCLUDE\MSINTTYPES\INTTYPES.H
D:\24DIALER\NEW VERSION\HELLOVOIP\24PCDIALER\G729\INCLUDE\MSINTTYPES\STDINT.H
D:\24DIALER\NEW VERSION\HELLOVOIP\24PCDIALER\G729\INCLUDE\BASIC_OP.H
D:\24DIALER\NEW VERSION\HELLOVOIP\24PCDIALER\G729\INCLUDE\BASICOP_MALLOC.H
D:\24DIALER\NEW VERSION\HELLOVOIP\24PCDIALER\G729\INCLUDE\BASIC_OP_C_EQUIVALENT.H
D:\24DIALER\NEW VERSION\HELLOVOIP\24PCDIALER\G729\INCLUDE\ADD.H
D:\24DIALER\NEW VERSION\HELLOVOIP\24PCDIALER\G729\INCLUDE\DIV_S.H
D:\24DIALER\NEW VERSION\HELLOVOIP\24PCDIALER\G729\INCLUDE\L_SHR_R.H
D:\24DIALER\NEW VERSION\HELLOVOIP\24PCDIALER\G729\INCLUDE\MULT_R.H
D:\24DIALER\NEW VERSION\HELLOVOIP\24PCDIALER\G729\INCLUDE\NORM_L.H
D:\24DIALER\NEW VERSION\HELLOVOIP\24PCDIALER\G729\INCLUDE\NORM_S.H
D:\24DIALER\NEW VERSION\HELLOVOIP\24PCDIALER\G729\INCLUDE\ROUND.H
D:\24DIALER\NEW VERSION\HELLOVOIP\24PCDIALER\G729\INCLUDE\SHR_R.H
D:\24DIALER\NEW VERSION\HELLOVOIP\24PCDIALER\G729\INCLUDE\SUB.H
D:\24DIALER\NEW VERSION\HELLOVOIP\24PCDIALER\G729\INCLUDE\SHR.H
D:\24DIALER\NEW VERSION\HELLOVOIP\24PCDIALER\G729\INCLUDE\L_NEGATE.H
D:\24DIALER\NEW VERSION\HELLOVOIP\24PCDIALER\G729\INCLUDE\L_EXTRACT.H
D:\24DIALER\NEW VERSION\HELLOVOIP\24PCDIALER\G729\INCLUDE\LD8A.H
D:\24DIALER\NEW VERSION\HELLOVOIP\24PCDIALER\G729\INCLUDE\MSINTTYPES\STRINGS.H
D:\24DIALER\NEW VERSION\HELLOVOIP\24PCDIALER\G729\INCLUDE\G729A_ENCODER.H
^D:\24DIALER\NEW VERSION\HELLOVOIP\24PCDIALER\G729\SOURCE\COR_FUNC.C
D:\24DIALER\NEW VERSION\HELLOVOIP\24PCDIALER\G729\INCLUDE\TYPEDEF.H
D:\24DIALER\NEW VERSION\HELLOVOIP\24PCDIALER\G729\INCLUDE\MSINTTYPES\INTTYPES.H
D:\24DIALER\NEW VERSION\HELLOVOIP\24PCDIALER\G729\INCLUDE\MSINTTYPES\STDINT.H
D:\24DIALER\NEW VERSION\HELLOVOIP\24PCDIALER\G729\INCLUDE\BASIC_OP.H
D:\24DIALER\NEW VERSION\HELLOVOIP\24PCDIALER\G729\INCLUDE\BASICOP_MALLOC.H
D:\24DIALER\NEW VERSION\HELLOVOIP\24PCDIALER\G729\INCLUDE\BASIC_OP_C_EQUIVALENT.H
D:\24DIALER\NEW VERSION\HELLOVOIP\24PCDIALER\G729\INCLUDE\ADD.H
D:\24DIALER\NEW VERSION\HELLOVOIP\24PCDIALER\G729\INCLUDE\DIV_S.H
D:\24DIALER\NEW VERSION\HELLOVOIP\24PCDIALER\G729\INCLUDE\L_SHR_R.H
D:\24DIALER\NEW VERSION\HELLOVOIP\24PCDIALER\G729\INCLUDE\MULT_R.H
D:\24DIALER\NEW VERSION\HELLOVOIP\24PCDIALER\G729\INCLUDE\NORM_L.H
D:\24DIALER\NEW VERSION\HELLOVOIP\24PCDIALER\G729\INCLUDE\NORM_S.H
D:\24DIALER\NEW VERSION\HELLOVOIP\24PCDIALER\G729\INCLUDE\ROUND.H
D:\24DIALER\NEW VERSION\HELLOVOIP\24PCDIALER\G729\INCLUDE\SHR_R.H
D:\24DIALER\NEW VERSION\HELLOVOIP\24PCDIALER\G729\INCLUDE\SUB.H
D:\24DIALER\NEW VERSION\HELLOVOIP\24PCDIALER\G729\INCLUDE\SHR.H
D:\24DIALER\NEW VERSION\HELLOVOIP\24PCDIALER\G729\INCLUDE\L_NEGATE.H
D:\24DIALER\NEW VERSION\HELLOVOIP\24PCDIALER\G729\INCLUDE\L_EXTRACT.H
D:\24DIALER\NEW VERSION\HELLOVOIP\24PCDIALER\G729\INCLUDE\LD8A.H
D:\24DIALER\NEW VERSION\HELLOVOIP\24PCDIALER\G729\INCLUDE\MSINTTYPES\STRINGS.H
^D:\24DIALER\NEW VERSION\HELLOVOIP\24PCDIALER\G729\SOURCE\DE_ACELP.C
D:\24DIALER\NEW VERSION\HELLOVOIP\24PCDIALER\G729\INCLUDE\TYPEDEF.H
D:\24DIALER\NEW VERSION\HELLOVOIP\24PCDIALER\G729\INCLUDE\MSINTTYPES\INTTYPES.H
D:\24DIALER\NEW VERSION\HELLOVOIP\24PCDIALER\G729\INCLUDE\MSINTTYPES\STDINT.H
D:\24DIALER\NEW VERSION\HELLOVOIP\24PCDIALER\G729\INCLUDE\BASIC_OP.H
D:\24DIALER\NEW VERSION\HELLOVOIP\24PCDIALER\G729\INCLUDE\BASICOP_MALLOC.H
D:\24DIALER\NEW VERSION\HELLOVOIP\24PCDIALER\G729\INCLUDE\BASIC_OP_C_EQUIVALENT.H
D:\24DIALER\NEW VERSION\HELLOVOIP\24PCDIALER\G729\INCLUDE\ADD.H
D:\24DIALER\NEW VERSION\HELLOVOIP\24PCDIALER\G729\INCLUDE\DIV_S.H
D:\24DIALER\NEW VERSION\HELLOVOIP\24PCDIALER\G729\INCLUDE\L_SHR_R.H
D:\24DIALER\NEW VERSION\HELLOVOIP\24PCDIALER\G729\INCLUDE\MULT_R.H
D:\24DIALER\NEW VERSION\HELLOVOIP\24PCDIALER\G729\INCLUDE\NORM_L.H
D:\24DIALER\NEW VERSION\HELLOVOIP\24PCDIALER\G729\INCLUDE\NORM_S.H
D:\24DIALER\NEW VERSION\HELLOVOIP\24PCDIALER\G729\INCLUDE\ROUND.H
D:\24DIALER\NEW VERSION\HELLOVOIP\24PCDIALER\G729\INCLUDE\SHR_R.H
D:\24DIALER\NEW VERSION\HELLOVOIP\24PCDIALER\G729\INCLUDE\SUB.H
D:\24DIALER\NEW VERSION\HELLOVOIP\24PCDIALER\G729\INCLUDE\SHR.H
D:\24DIALER\NEW VERSION\HELLOVOIP\24PCDIALER\G729\INCLUDE\L_NEGATE.H
D:\24DIALER\NEW VERSION\HELLOVOIP\24PCDIALER\G729\INCLUDE\L_EXTRACT.H
D:\24DIALER\NEW VERSION\HELLOVOIP\24PCDIALER\G729\INCLUDE\LD8A.H
D:\24DIALER\NEW VERSION\HELLOVOIP\24PCDIALER\G729\INCLUDE\MSINTTYPES\STRINGS.H
^D:\24DIALER\NEW VERSION\HELLOVOIP\24PCDIALER\G729\SOURCE\DEC_GAIN.C
D:\24DIALER\NEW VERSION\HELLOVOIP\24PCDIALER\G729\INCLUDE\TYPEDEF.H
D:\24DIALER\NEW VERSION\HELLOVOIP\24PCDIALER\G729\INCLUDE\MSINTTYPES\INTTYPES.H
D:\24DIALER\NEW VERSION\HELLOVOIP\24PCDIALER\G729\INCLUDE\MSINTTYPES\STDINT.H
D:\24DIALER\NEW VERSION\HELLOVOIP\24PCDIALER\G729\INCLUDE\BASIC_OP.H
D:\24DIALER\NEW VERSION\HELLOVOIP\24PCDIALER\G729\INCLUDE\BASICOP_MALLOC.H
D:\24DIALER\NEW VERSION\HELLOVOIP\24PCDIALER\G729\INCLUDE\BASIC_OP_C_EQUIVALENT.H
D:\24DIALER\NEW VERSION\HELLOVOIP\24PCDIALER\G729\INCLUDE\ADD.H
D:\24DIALER\NEW VERSION\HELLOVOIP\24PCDIALER\G729\INCLUDE\DIV_S.H
D:\24DIALER\NEW VERSION\HELLOVOIP\24PCDIALER\G729\INCLUDE\L_SHR_R.H
D:\24DIALER\NEW VERSION\HELLOVOIP\24PCDIALER\G729\INCLUDE\MULT_R.H
D:\24DIALER\NEW VERSION\HELLOVOIP\24PCDIALER\G729\INCLUDE\NORM_L.H
D:\24DIALER\NEW VERSION\HELLOVOIP\24PCDIALER\G729\INCLUDE\NORM_S.H
D:\24DIALER\NEW VERSION\HELLOVOIP\24PCDIALER\G729\INCLUDE\ROUND.H
D:\24DIALER\NEW VERSION\HELLOVOIP\24PCDIALER\G729\INCLUDE\SHR_R.H
D:\24DIALER\NEW VERSION\HELLOVOIP\24PCDIALER\G729\INCLUDE\SUB.H
D:\24DIALER\NEW VERSION\HELLOVOIP\24PCDIALER\G729\INCLUDE\SHR.H
D:\24DIALER\NEW VERSION\HELLOVOIP\24PCDIALER\G729\INCLUDE\L_NEGATE.H
D:\24DIALER\NEW VERSION\HELLOVOIP\24PCDIALER\G729\INCLUDE\L_EXTRACT.H
D:\24DIALER\NEW VERSION\HELLOVOIP\24PCDIALER\G729\INCLUDE\LD8A.H
D:\24DIALER\NEW VERSION\HELLOVOIP\24PCDIALER\G729\INCLUDE\MSINTTYPES\STRINGS.H
D:\24DIALER\NEW VERSION\HELLOVOIP\24PCDIALER\G729\INCLUDE\TAB_LD8A.H
^D:\24DIALER\NEW VERSION\HELLOVOIP\24PCDIALER\G729\SOURCE\DEC_LAG3.C
D:\24DIALER\NEW VERSION\HELLOVOIP\24PCDIALER\G729\INCLUDE\TYPEDEF.H
D:\24DIALER\NEW VERSION\HELLOVOIP\24PCDIALER\G729\INCLUDE\MSINTTYPES\INTTYPES.H
D:\24DIALER\NEW VERSION\HELLOVOIP\24PCDIALER\G729\INCLUDE\MSINTTYPES\STDINT.H
^D:\24DIALER\NEW VERSION\HELLOVOIP\24PCDIALER\G729\SOURCE\DEC_LD8A.C
D:\24DIALER\NEW VERSION\HELLOVOIP\24PCDIALER\G729\INCLUDE\TYPEDEF.H
D:\24DIALER\NEW VERSION\HELLOVOIP\24PCDIALER\G729\INCLUDE\MSINTTYPES\INTTYPES.H
D:\24DIALER\NEW VERSION\HELLOVOIP\24PCDIALER\G729\INCLUDE\MSINTTYPES\STDINT.H
D:\24DIALER\NEW VERSION\HELLOVOIP\24PCDIALER\G729\INCLUDE\BASIC_OP.H
D:\24DIALER\NEW VERSION\HELLOVOIP\24PCDIALER\G729\INCLUDE\BASICOP_MALLOC.H
D:\24DIALER\NEW VERSION\HELLOVOIP\24PCDIALER\G729\INCLUDE\BASIC_OP_C_EQUIVALENT.H
D:\24DIALER\NEW VERSION\HELLOVOIP\24PCDIALER\G729\INCLUDE\ADD.H
D:\24DIALER\NEW VERSION\HELLOVOIP\24PCDIALER\G729\INCLUDE\DIV_S.H
D:\24DIALER\NEW VERSION\HELLOVOIP\24PCDIALER\G729\INCLUDE\L_SHR_R.H
D:\24DIALER\NEW VERSION\HELLOVOIP\24PCDIALER\G729\INCLUDE\MULT_R.H
D:\24DIALER\NEW VERSION\HELLOVOIP\24PCDIALER\G729\INCLUDE\NORM_L.H
D:\24DIALER\NEW VERSION\HELLOVOIP\24PCDIALER\G729\INCLUDE\NORM_S.H
D:\24DIALER\NEW VERSION\HELLOVOIP\24PCDIALER\G729\INCLUDE\ROUND.H
D:\24DIALER\NEW VERSION\HELLOVOIP\24PCDIALER\G729\INCLUDE\SHR_R.H
D:\24DIALER\NEW VERSION\HELLOVOIP\24PCDIALER\G729\INCLUDE\SUB.H
D:\24DIALER\NEW VERSION\HELLOVOIP\24PCDIALER\G729\INCLUDE\SHR.H
D:\24DIALER\NEW VERSION\HELLOVOIP\24PCDIALER\G729\INCLUDE\L_NEGATE.H
D:\24DIALER\NEW VERSION\HELLOVOIP\24PCDIALER\G729\INCLUDE\L_EXTRACT.H
D:\24DIALER\NEW VERSION\HELLOVOIP\24PCDIALER\G729\INCLUDE\LD8A.H
D:\24DIALER\NEW VERSION\HELLOVOIP\24PCDIALER\G729\INCLUDE\MSINTTYPES\STRINGS.H
D:\24DIALER\NEW VERSION\HELLOVOIP\24PCDIALER\G729\INCLUDE\G729A_DECODER.H
^D:\24DIALER\NEW VERSION\HELLOVOIP\24PCDIALER\G729\SOURCE\DSPFUNC.C
D:\24DIALER\NEW VERSION\HELLOVOIP\24PCDIALER\G729\INCLUDE\TYPEDEF.H
D:\24DIALER\NEW VERSION\HELLOVOIP\24PCDIALER\G729\INCLUDE\MSINTTYPES\INTTYPES.H
D:\24DIALER\NEW VERSION\HELLOVOIP\24PCDIALER\G729\INCLUDE\MSINTTYPES\STDINT.H
D:\24DIALER\NEW VERSION\HELLOVOIP\24PCDIALER\G729\INCLUDE\BASIC_OP.H
D:\24DIALER\NEW VERSION\HELLOVOIP\24PCDIALER\G729\INCLUDE\BASICOP_MALLOC.H
D:\24DIALER\NEW VERSION\HELLOVOIP\24PCDIALER\G729\INCLUDE\BASIC_OP_C_EQUIVALENT.H
D:\24DIALER\NEW VERSION\HELLOVOIP\24PCDIALER\G729\INCLUDE\ADD.H
D:\24DIALER\NEW VERSION\HELLOVOIP\24PCDIALER\G729\INCLUDE\DIV_S.H
D:\24DIALER\NEW VERSION\HELLOVOIP\24PCDIALER\G729\INCLUDE\L_SHR_R.H
D:\24DIALER\NEW VERSION\HELLOVOIP\24PCDIALER\G729\INCLUDE\MULT_R.H
D:\24DIALER\NEW VERSION\HELLOVOIP\24PCDIALER\G729\INCLUDE\NORM_L.H
D:\24DIALER\NEW VERSION\HELLOVOIP\24PCDIALER\G729\INCLUDE\NORM_S.H
D:\24DIALER\NEW VERSION\HELLOVOIP\24PCDIALER\G729\INCLUDE\ROUND.H
D:\24DIALER\NEW VERSION\HELLOVOIP\24PCDIALER\G729\INCLUDE\SHR_R.H
D:\24DIALER\NEW VERSION\HELLOVOIP\24PCDIALER\G729\INCLUDE\SUB.H
D:\24DIALER\NEW VERSION\HELLOVOIP\24PCDIALER\G729\INCLUDE\SHR.H
D:\24DIALER\NEW VERSION\HELLOVOIP\24PCDIALER\G729\INCLUDE\L_NEGATE.H
D:\24DIALER\NEW VERSION\HELLOVOIP\24PCDIALER\G729\INCLUDE\L_EXTRACT.H
D:\24DIALER\NEW VERSION\HELLOVOIP\24PCDIALER\G729\INCLUDE\LD8A.H
D:\24DIALER\NEW VERSION\HELLOVOIP\24PCDIALER\G729\INCLUDE\MSINTTYPES\STRINGS.H
D:\24DIALER\NEW VERSION\HELLOVOIP\24PCDIALER\G729\INCLUDE\TAB_LD8A.H
^D:\24DIALER\NEW VERSION\HELLOVOIP\24PCDIALER\G729\SOURCE\FILTER.C
D:\24DIALER\NEW VERSION\HELLOVOIP\24PCDIALER\G729\INCLUDE\TYPEDEF.H
D:\24DIALER\NEW VERSION\HELLOVOIP\24PCDIALER\G729\INCLUDE\MSINTTYPES\INTTYPES.H
D:\24DIALER\NEW VERSION\HELLOVOIP\24PCDIALER\G729\INCLUDE\MSINTTYPES\STDINT.H
D:\24DIALER\NEW VERSION\HELLOVOIP\24PCDIALER\G729\INCLUDE\BASIC_OP.H
D:\24DIALER\NEW VERSION\HELLOVOIP\24PCDIALER\G729\INCLUDE\BASICOP_MALLOC.H
D:\24DIALER\NEW VERSION\HELLOVOIP\24PCDIALER\G729\INCLUDE\BASIC_OP_C_EQUIVALENT.H
D:\24DIALER\NEW VERSION\HELLOVOIP\24PCDIALER\G729\INCLUDE\ADD.H
D:\24DIALER\NEW VERSION\HELLOVOIP\24PCDIALER\G729\INCLUDE\DIV_S.H
D:\24DIALER\NEW VERSION\HELLOVOIP\24PCDIALER\G729\INCLUDE\L_SHR_R.H
D:\24DIALER\NEW VERSION\HELLOVOIP\24PCDIALER\G729\INCLUDE\MULT_R.H
D:\24DIALER\NEW VERSION\HELLOVOIP\24PCDIALER\G729\INCLUDE\NORM_L.H
D:\24DIALER\NEW VERSION\HELLOVOIP\24PCDIALER\G729\INCLUDE\NORM_S.H
D:\24DIALER\NEW VERSION\HELLOVOIP\24PCDIALER\G729\INCLUDE\ROUND.H
D:\24DIALER\NEW VERSION\HELLOVOIP\24PCDIALER\G729\INCLUDE\SHR_R.H
D:\24DIALER\NEW VERSION\HELLOVOIP\24PCDIALER\G729\INCLUDE\SUB.H
D:\24DIALER\NEW VERSION\HELLOVOIP\24PCDIALER\G729\INCLUDE\SHR.H
D:\24DIALER\NEW VERSION\HELLOVOIP\24PCDIALER\G729\INCLUDE\L_NEGATE.H
D:\24DIALER\NEW VERSION\HELLOVOIP\24PCDIALER\G729\INCLUDE\L_EXTRACT.H
D:\24DIALER\NEW VERSION\HELLOVOIP\24PCDIALER\G729\INCLUDE\LD8A.H
D:\24DIALER\NEW VERSION\HELLOVOIP\24PCDIALER\G729\INCLUDE\MSINTTYPES\STRINGS.H
^D:\24DIALER\NEW VERSION\HELLOVOIP\24PCDIALER\G729\SOURCE\G729A_DECODER.C
D:\24DIALER\NEW VERSION\HELLOVOIP\24PCDIALER\G729\INCLUDE\TYPEDEF.H
D:\24DIALER\NEW VERSION\HELLOVOIP\24PCDIALER\G729\INCLUDE\MSINTTYPES\INTTYPES.H
D:\24DIALER\NEW VERSION\HELLOVOIP\24PCDIALER\G729\INCLUDE\MSINTTYPES\STDINT.H
D:\24DIALER\NEW VERSION\HELLOVOIP\24PCDIALER\G729\INCLUDE\G729A_DECODER.H
D:\24DIALER\NEW VERSION\HELLOVOIP\24PCDIALER\G729\INCLUDE\LD8A.H
D:\24DIALER\NEW VERSION\HELLOVOIP\24PCDIALER\G729\INCLUDE\MSINTTYPES\STRINGS.H
^D:\24DIALER\NEW VERSION\HELLOVOIP\24PCDIALER\G729\SOURCE\G729A_ENCODER.C
D:\24DIALER\NEW VERSION\HELLOVOIP\24PCDIALER\G729\INCLUDE\TYPEDEF.H
D:\24DIALER\NEW VERSION\HELLOVOIP\24PCDIALER\G729\INCLUDE\MSINTTYPES\INTTYPES.H
D:\24DIALER\NEW VERSION\HELLOVOIP\24PCDIALER\G729\INCLUDE\MSINTTYPES\STDINT.H
D:\24DIALER\NEW VERSION\HELLOVOIP\24PCDIALER\G729\INCLUDE\G729A_ENCODER.H
D:\24DIALER\NEW VERSION\HELLOVOIP\24PCDIALER\G729\INCLUDE\LD8A.H
D:\24DIALER\NEW VERSION\HELLOVOIP\24PCDIALER\G729\INCLUDE\MSINTTYPES\STRINGS.H
^D:\24DIALER\NEW VERSION\HELLOVOIP\24PCDIALER\G729\SOURCE\GAINPRED.C
D:\24DIALER\NEW VERSION\HELLOVOIP\24PCDIALER\G729\INCLUDE\TYPEDEF.H
D:\24DIALER\NEW VERSION\HELLOVOIP\24PCDIALER\G729\INCLUDE\MSINTTYPES\INTTYPES.H
D:\24DIALER\NEW VERSION\HELLOVOIP\24PCDIALER\G729\INCLUDE\MSINTTYPES\STDINT.H
D:\24DIALER\NEW VERSION\HELLOVOIP\24PCDIALER\G729\INCLUDE\BASIC_OP.H
D:\24DIALER\NEW VERSION\HELLOVOIP\24PCDIALER\G729\INCLUDE\BASICOP_MALLOC.H
D:\24DIALER\NEW VERSION\HELLOVOIP\24PCDIALER\G729\INCLUDE\BASIC_OP_C_EQUIVALENT.H
D:\24DIALER\NEW VERSION\HELLOVOIP\24PCDIALER\G729\INCLUDE\ADD.H
D:\24DIALER\NEW VERSION\HELLOVOIP\24PCDIALER\G729\INCLUDE\DIV_S.H
D:\24DIALER\NEW VERSION\HELLOVOIP\24PCDIALER\G729\INCLUDE\L_SHR_R.H
D:\24DIALER\NEW VERSION\HELLOVOIP\24PCDIALER\G729\INCLUDE\MULT_R.H
D:\24DIALER\NEW VERSION\HELLOVOIP\24PCDIALER\G729\INCLUDE\NORM_L.H
D:\24DIALER\NEW VERSION\HELLOVOIP\24PCDIALER\G729\INCLUDE\NORM_S.H
D:\24DIALER\NEW VERSION\HELLOVOIP\24PCDIALER\G729\INCLUDE\ROUND.H
D:\24DIALER\NEW VERSION\HELLOVOIP\24PCDIALER\G729\INCLUDE\SHR_R.H
D:\24DIALER\NEW VERSION\HELLOVOIP\24PCDIALER\G729\INCLUDE\SUB.H
D:\24DIALER\NEW VERSION\HELLOVOIP\24PCDIALER\G729\INCLUDE\SHR.H
D:\24DIALER\NEW VERSION\HELLOVOIP\24PCDIALER\G729\INCLUDE\L_NEGATE.H
D:\24DIALER\NEW VERSION\HELLOVOIP\24PCDIALER\G729\INCLUDE\L_EXTRACT.H
D:\24DIALER\NEW VERSION\HELLOVOIP\24PCDIALER\G729\INCLUDE\LD8A.H
D:\24DIALER\NEW VERSION\HELLOVOIP\24PCDIALER\G729\INCLUDE\MSINTTYPES\STRINGS.H
D:\24DIALER\NEW VERSION\HELLOVOIP\24PCDIALER\G729\INCLUDE\TAB_LD8A.H
D:\24DIALER\NEW VERSION\HELLOVOIP\24PCDIALER\G729\INCLUDE\OPER_32B.H
D:\24DIALER\NEW VERSION\HELLOVOIP\24PCDIALER\G729\INCLUDE\L_COMP.H
^D:\24DIALER\NEW VERSION\HELLOVOIP\24PCDIALER\G729\SOURCE\LPC.C
D:\24DIALER\NEW VERSION\HELLOVOIP\24PCDIALER\G729\INCLUDE\TYPEDEF.H
D:\24DIALER\NEW VERSION\HELLOVOIP\24PCDIALER\G729\INCLUDE\MSINTTYPES\INTTYPES.H
D:\24DIALER\NEW VERSION\HELLOVOIP\24PCDIALER\G729\INCLUDE\MSINTTYPES\STDINT.H
D:\24DIALER\NEW VERSION\HELLOVOIP\24PCDIALER\G729\INCLUDE\BASIC_OP.H
D:\24DIALER\NEW VERSION\HELLOVOIP\24PCDIALER\G729\INCLUDE\BASICOP_MALLOC.H
D:\24DIALER\NEW VERSION\HELLOVOIP\24PCDIALER\G729\INCLUDE\BASIC_OP_C_EQUIVALENT.H
D:\24DIALER\NEW VERSION\HELLOVOIP\24PCDIALER\G729\INCLUDE\ADD.H
D:\24DIALER\NEW VERSION\HELLOVOIP\24PCDIALER\G729\INCLUDE\DIV_S.H
D:\24DIALER\NEW VERSION\HELLOVOIP\24PCDIALER\G729\INCLUDE\L_SHR_R.H
D:\24DIALER\NEW VERSION\HELLOVOIP\24PCDIALER\G729\INCLUDE\MULT_R.H
D:\24DIALER\NEW VERSION\HELLOVOIP\24PCDIALER\G729\INCLUDE\NORM_L.H
D:\24DIALER\NEW VERSION\HELLOVOIP\24PCDIALER\G729\INCLUDE\NORM_S.H
D:\24DIALER\NEW VERSION\HELLOVOIP\24PCDIALER\G729\INCLUDE\ROUND.H
D:\24DIALER\NEW VERSION\HELLOVOIP\24PCDIALER\G729\INCLUDE\SHR_R.H
D:\24DIALER\NEW VERSION\HELLOVOIP\24PCDIALER\G729\INCLUDE\SUB.H
D:\24DIALER\NEW VERSION\HELLOVOIP\24PCDIALER\G729\INCLUDE\SHR.H
D:\24DIALER\NEW VERSION\HELLOVOIP\24PCDIALER\G729\INCLUDE\L_NEGATE.H
D:\24DIALER\NEW VERSION\HELLOVOIP\24PCDIALER\G729\INCLUDE\L_EXTRACT.H
D:\24DIALER\NEW VERSION\HELLOVOIP\24PCDIALER\G729\INCLUDE\OPER_32B.H
D:\24DIALER\NEW VERSION\HELLOVOIP\24PCDIALER\G729\INCLUDE\L_COMP.H
D:\24DIALER\NEW VERSION\HELLOVOIP\24PCDIALER\G729\INCLUDE\LD8A.H
D:\24DIALER\NEW VERSION\HELLOVOIP\24PCDIALER\G729\INCLUDE\MSINTTYPES\STRINGS.H
D:\24DIALER\NEW VERSION\HELLOVOIP\24PCDIALER\G729\INCLUDE\TAB_LD8A.H
^D:\24DIALER\NEW VERSION\HELLOVOIP\24PCDIALER\G729\SOURCE\LPCFUNC.C
D:\24DIALER\NEW VERSION\HELLOVOIP\24PCDIALER\G729\INCLUDE\TYPEDEF.H
D:\24DIALER\NEW VERSION\HELLOVOIP\24PCDIALER\G729\INCLUDE\MSINTTYPES\INTTYPES.H
D:\24DIALER\NEW VERSION\HELLOVOIP\24PCDIALER\G729\INCLUDE\MSINTTYPES\STDINT.H
D:\24DIALER\NEW VERSION\HELLOVOIP\24PCDIALER\G729\INCLUDE\BASIC_OP.H
D:\24DIALER\NEW VERSION\HELLOVOIP\24PCDIALER\G729\INCLUDE\BASICOP_MALLOC.H
D:\24DIALER\NEW VERSION\HELLOVOIP\24PCDIALER\G729\INCLUDE\BASIC_OP_C_EQUIVALENT.H
D:\24DIALER\NEW VERSION\HELLOVOIP\24PCDIALER\G729\INCLUDE\ADD.H
D:\24DIALER\NEW VERSION\HELLOVOIP\24PCDIALER\G729\INCLUDE\DIV_S.H
D:\24DIALER\NEW VERSION\HELLOVOIP\24PCDIALER\G729\INCLUDE\L_SHR_R.H
D:\24DIALER\NEW VERSION\HELLOVOIP\24PCDIALER\G729\INCLUDE\MULT_R.H
D:\24DIALER\NEW VERSION\HELLOVOIP\24PCDIALER\G729\INCLUDE\NORM_L.H
D:\24DIALER\NEW VERSION\HELLOVOIP\24PCDIALER\G729\INCLUDE\NORM_S.H
D:\24DIALER\NEW VERSION\HELLOVOIP\24PCDIALER\G729\INCLUDE\ROUND.H
D:\24DIALER\NEW VERSION\HELLOVOIP\24PCDIALER\G729\INCLUDE\SHR_R.H
D:\24DIALER\NEW VERSION\HELLOVOIP\24PCDIALER\G729\INCLUDE\SUB.H
D:\24DIALER\NEW VERSION\HELLOVOIP\24PCDIALER\G729\INCLUDE\SHR.H
D:\24DIALER\NEW VERSION\HELLOVOIP\24PCDIALER\G729\INCLUDE\L_NEGATE.H
D:\24DIALER\NEW VERSION\HELLOVOIP\24PCDIALER\G729\INCLUDE\L_EXTRACT.H
D:\24DIALER\NEW VERSION\HELLOVOIP\24PCDIALER\G729\INCLUDE\OPER_32B.H
D:\24DIALER\NEW VERSION\HELLOVOIP\24PCDIALER\G729\INCLUDE\L_COMP.H
D:\24DIALER\NEW VERSION\HELLOVOIP\24PCDIALER\G729\INCLUDE\LD8A.H
D:\24DIALER\NEW VERSION\HELLOVOIP\24PCDIALER\G729\INCLUDE\MSINTTYPES\STRINGS.H
D:\24DIALER\NEW VERSION\HELLOVOIP\24PCDIALER\G729\INCLUDE\TAB_LD8A.H
^D:\24DIALER\NEW VERSION\HELLOVOIP\24PCDIALER\G729\SOURCE\LSPDEC.C
D:\24DIALER\NEW VERSION\HELLOVOIP\24PCDIALER\G729\INCLUDE\TYPEDEF.H
D:\24DIALER\NEW VERSION\HELLOVOIP\24PCDIALER\G729\INCLUDE\MSINTTYPES\INTTYPES.H
D:\24DIALER\NEW VERSION\HELLOVOIP\24PCDIALER\G729\INCLUDE\MSINTTYPES\STDINT.H
D:\24DIALER\NEW VERSION\HELLOVOIP\24PCDIALER\G729\INCLUDE\LD8A.H
D:\24DIALER\NEW VERSION\HELLOVOIP\24PCDIALER\G729\INCLUDE\MSINTTYPES\STRINGS.H
D:\24DIALER\NEW VERSION\HELLOVOIP\24PCDIALER\G729\INCLUDE\BASIC_OP.H
D:\24DIALER\NEW VERSION\HELLOVOIP\24PCDIALER\G729\INCLUDE\BASICOP_MALLOC.H
D:\24DIALER\NEW VERSION\HELLOVOIP\24PCDIALER\G729\INCLUDE\BASIC_OP_C_EQUIVALENT.H
D:\24DIALER\NEW VERSION\HELLOVOIP\24PCDIALER\G729\INCLUDE\ADD.H
D:\24DIALER\NEW VERSION\HELLOVOIP\24PCDIALER\G729\INCLUDE\DIV_S.H
D:\24DIALER\NEW VERSION\HELLOVOIP\24PCDIALER\G729\INCLUDE\L_SHR_R.H
D:\24DIALER\NEW VERSION\HELLOVOIP\24PCDIALER\G729\INCLUDE\MULT_R.H
D:\24DIALER\NEW VERSION\HELLOVOIP\24PCDIALER\G729\INCLUDE\NORM_L.H
D:\24DIALER\NEW VERSION\HELLOVOIP\24PCDIALER\G729\INCLUDE\NORM_S.H
D:\24DIALER\NEW VERSION\HELLOVOIP\24PCDIALER\G729\INCLUDE\ROUND.H
D:\24DIALER\NEW VERSION\HELLOVOIP\24PCDIALER\G729\INCLUDE\SHR_R.H
D:\24DIALER\NEW VERSION\HELLOVOIP\24PCDIALER\G729\INCLUDE\SUB.H
D:\24DIALER\NEW VERSION\HELLOVOIP\24PCDIALER\G729\INCLUDE\SHR.H
D:\24DIALER\NEW VERSION\HELLOVOIP\24PCDIALER\G729\INCLUDE\L_NEGATE.H
D:\24DIALER\NEW VERSION\HELLOVOIP\24PCDIALER\G729\INCLUDE\L_EXTRACT.H
D:\24DIALER\NEW VERSION\HELLOVOIP\24PCDIALER\G729\INCLUDE\TAB_LD8A.H
D:\24DIALER\NEW VERSION\HELLOVOIP\24PCDIALER\G729\INCLUDE\G729A_DECODER.H
^D:\24DIALER\NEW VERSION\HELLOVOIP\24PCDIALER\G729\SOURCE\LSPGETQ.C
C:\PROGRAM FILES (X86)\MICROSOFT VISUAL STUDIO 11.0\VC\INCLUDE\STDIO.H
C:\PROGRAM FILES (X86)\MICROSOFT VISUAL STUDIO 11.0\VC\INCLUDE\CRTDEFS.H
C:\PROGRAM FILES (X86)\MICROSOFT VISUAL STUDIO 11.0\VC\INCLUDE\SAL.H
C:\PROGRAM FILES (X86)\MICROSOFT VISUAL STUDIO 11.0\VC\INCLUDE\CONCURRENCYSAL.H
C:\PROGRAM FILES (X86)\MICROSOFT VISUAL STUDIO 11.0\VC\INCLUDE\VADEFS.H
C:\PROGRAM FILES (X86)\MICROSOFT VISUAL STUDIO 11.0\VC\INCLUDE\SWPRINTF.INL
D:\24DIALER\NEW VERSION\HELLOVOIP\24PCDIALER\G729\INCLUDE\TYPEDEF.H
D:\24DIALER\NEW VERSION\HELLOVOIP\24PCDIALER\G729\INCLUDE\MSINTTYPES\INTTYPES.H
D:\24DIALER\NEW VERSION\HELLOVOIP\24PCDIALER\G729\INCLUDE\MSINTTYPES\STDINT.H
D:\24DIALER\NEW VERSION\HELLOVOIP\24PCDIALER\G729\INCLUDE\BASIC_OP.H
D:\24DIALER\NEW VERSION\HELLOVOIP\24PCDIALER\G729\INCLUDE\BASICOP_MALLOC.H
D:\24DIALER\NEW VERSION\HELLOVOIP\24PCDIALER\G729\INCLUDE\BASIC_OP_C_EQUIVALENT.H
D:\24DIALER\NEW VERSION\HELLOVOIP\24PCDIALER\G729\INCLUDE\ADD.H
D:\24DIALER\NEW VERSION\HELLOVOIP\24PCDIALER\G729\INCLUDE\DIV_S.H
D:\24DIALER\NEW VERSION\HELLOVOIP\24PCDIALER\G729\INCLUDE\L_SHR_R.H
D:\24DIALER\NEW VERSION\HELLOVOIP\24PCDIALER\G729\INCLUDE\MULT_R.H
D:\24DIALER\NEW VERSION\HELLOVOIP\24PCDIALER\G729\INCLUDE\NORM_L.H
D:\24DIALER\NEW VERSION\HELLOVOIP\24PCDIALER\G729\INCLUDE\NORM_S.H
D:\24DIALER\NEW VERSION\HELLOVOIP\24PCDIALER\G729\INCLUDE\ROUND.H
D:\24DIALER\NEW VERSION\HELLOVOIP\24PCDIALER\G729\INCLUDE\SHR_R.H
D:\24DIALER\NEW VERSION\HELLOVOIP\24PCDIALER\G729\INCLUDE\SUB.H
D:\24DIALER\NEW VERSION\HELLOVOIP\24PCDIALER\G729\INCLUDE\SHR.H
D:\24DIALER\NEW VERSION\HELLOVOIP\24PCDIALER\G729\INCLUDE\L_NEGATE.H
D:\24DIALER\NEW VERSION\HELLOVOIP\24PCDIALER\G729\INCLUDE\L_EXTRACT.H
D:\24DIALER\NEW VERSION\HELLOVOIP\24PCDIALER\G729\INCLUDE\LD8A.H
D:\24DIALER\NEW VERSION\HELLOVOIP\24PCDIALER\G729\INCLUDE\MSINTTYPES\STRINGS.H
^D:\24DIALER\NEW VERSION\HELLOVOIP\24PCDIALER\G729\SOURCE\MAIN.C
C:\PROGRAM FILES (X86)\MICROSOFT VISUAL STUDIO 11.0\VC\INCLUDE\STDLIB.H
C:\PROGRAM FILES (X86)\MICROSOFT VISUAL STUDIO 11.0\VC\INCLUDE\CRTDEFS.H
C:\PROGRAM FILES (X86)\MICROSOFT VISUAL STUDIO 11.0\VC\INCLUDE\SAL.H
C:\PROGRAM FILES (X86)\MICROSOFT VISUAL STUDIO 11.0\VC\INCLUDE\CONCURRENCYSAL.H
C:\PROGRAM FILES (X86)\MICROSOFT VISUAL STUDIO 11.0\VC\INCLUDE\VADEFS.H
C:\PROGRAM FILES (X86)\MICROSOFT VISUAL STUDIO 11.0\VC\INCLUDE\LIMITS.H
D:\24DIALER\NEW VERSION\HELLOVOIP\24PCDIALER\G729\INCLUDE\G729A_ENCODER.H
D:\24DIALER\NEW VERSION\HELLOVOIP\24PCDIALER\G729\INCLUDE\TYPEDEF.H
D:\24DIALER\NEW VERSION\HELLOVOIP\24PCDIALER\G729\INCLUDE\MSINTTYPES\INTTYPES.H
D:\24DIALER\NEW VERSION\HELLOVOIP\24PCDIALER\G729\INCLUDE\MSINTTYPES\STDINT.H
D:\24DIALER\NEW VERSION\HELLOVOIP\24PCDIALER\G729\INCLUDE\LD8A.H
D:\24DIALER\NEW VERSION\HELLOVOIP\24PCDIALER\G729\INCLUDE\MSINTTYPES\STRINGS.H
D:\24DIALER\NEW VERSION\HELLOVOIP\24PCDIALER\G729\INCLUDE\G729A.H
^D:\24DIALER\NEW VERSION\HELLOVOIP\24PCDIALER\G729\SOURCE\OPER_32B.C
D:\24DIALER\NEW VERSION\HELLOVOIP\24PCDIALER\G729\INCLUDE\TYPEDEF.H
D:\24DIALER\NEW VERSION\HELLOVOIP\24PCDIALER\G729\INCLUDE\MSINTTYPES\INTTYPES.H
D:\24DIALER\NEW VERSION\HELLOVOIP\24PCDIALER\G729\INCLUDE\MSINTTYPES\STDINT.H
D:\24DIALER\NEW VERSION\HELLOVOIP\24PCDIALER\G729\INCLUDE\BASIC_OP.H
D:\24DIALER\NEW VERSION\HELLOVOIP\24PCDIALER\G729\INCLUDE\BASICOP_MALLOC.H
D:\24DIALER\NEW VERSION\HELLOVOIP\24PCDIALER\G729\INCLUDE\BASIC_OP_C_EQUIVALENT.H
D:\24DIALER\NEW VERSION\HELLOVOIP\24PCDIALER\G729\INCLUDE\ADD.H
D:\24DIALER\NEW VERSION\HELLOVOIP\24PCDIALER\G729\INCLUDE\DIV_S.H
D:\24DIALER\NEW VERSION\HELLOVOIP\24PCDIALER\G729\INCLUDE\L_SHR_R.H
D:\24DIALER\NEW VERSION\HELLOVOIP\24PCDIALER\G729\INCLUDE\MULT_R.H
D:\24DIALER\NEW VERSION\HELLOVOIP\24PCDIALER\G729\INCLUDE\NORM_L.H
D:\24DIALER\NEW VERSION\HELLOVOIP\24PCDIALER\G729\INCLUDE\NORM_S.H
D:\24DIALER\NEW VERSION\HELLOVOIP\24PCDIALER\G729\INCLUDE\ROUND.H
D:\24DIALER\NEW VERSION\HELLOVOIP\24PCDIALER\G729\INCLUDE\SHR_R.H
D:\24DIALER\NEW VERSION\HELLOVOIP\24PCDIALER\G729\INCLUDE\SUB.H
D:\24DIALER\NEW VERSION\HELLOVOIP\24PCDIALER\G729\INCLUDE\SHR.H
D:\24DIALER\NEW VERSION\HELLOVOIP\24PCDIALER\G729\INCLUDE\L_NEGATE.H
D:\24DIALER\NEW VERSION\HELLOVOIP\24PCDIALER\G729\INCLUDE\L_EXTRACT.H
D:\24DIALER\NEW VERSION\HELLOVOIP\24PCDIALER\G729\INCLUDE\OPER_32B.H
D:\24DIALER\NEW VERSION\HELLOVOIP\24PCDIALER\G729\INCLUDE\L_COMP.H
^D:\24DIALER\NEW VERSION\HELLOVOIP\24PCDIALER\G729\SOURCE\P_PARITY.C
D:\24DIALER\NEW VERSION\HELLOVOIP\24PCDIALER\G729\INCLUDE\TYPEDEF.H
D:\24DIALER\NEW VERSION\HELLOVOIP\24PCDIALER\G729\INCLUDE\MSINTTYPES\INTTYPES.H
D:\24DIALER\NEW VERSION\HELLOVOIP\24PCDIALER\G729\INCLUDE\MSINTTYPES\STDINT.H
D:\24DIALER\NEW VERSION\HELLOVOIP\24PCDIALER\G729\INCLUDE\LD8A.H
D:\24DIALER\NEW VERSION\HELLOVOIP\24PCDIALER\G729\INCLUDE\MSINTTYPES\STRINGS.H
^D:\24DIALER\NEW VERSION\HELLOVOIP\24PCDIALER\G729\SOURCE\PITCH_A.C
D:\24DIALER\NEW VERSION\HELLOVOIP\24PCDIALER\G729\INCLUDE\TYPEDEF.H
D:\24DIALER\NEW VERSION\HELLOVOIP\24PCDIALER\G729\INCLUDE\MSINTTYPES\INTTYPES.H
D:\24DIALER\NEW VERSION\HELLOVOIP\24PCDIALER\G729\INCLUDE\MSINTTYPES\STDINT.H
D:\24DIALER\NEW VERSION\HELLOVOIP\24PCDIALER\G729\INCLUDE\BASIC_OP.H
D:\24DIALER\NEW VERSION\HELLOVOIP\24PCDIALER\G729\INCLUDE\BASICOP_MALLOC.H
D:\24DIALER\NEW VERSION\HELLOVOIP\24PCDIALER\G729\INCLUDE\BASIC_OP_C_EQUIVALENT.H
D:\24DIALER\NEW VERSION\HELLOVOIP\24PCDIALER\G729\INCLUDE\ADD.H
D:\24DIALER\NEW VERSION\HELLOVOIP\24PCDIALER\G729\INCLUDE\DIV_S.H
D:\24DIALER\NEW VERSION\HELLOVOIP\24PCDIALER\G729\INCLUDE\L_SHR_R.H
D:\24DIALER\NEW VERSION\HELLOVOIP\24PCDIALER\G729\INCLUDE\MULT_R.H
D:\24DIALER\NEW VERSION\HELLOVOIP\24PCDIALER\G729\INCLUDE\NORM_L.H
D:\24DIALER\NEW VERSION\HELLOVOIP\24PCDIALER\G729\INCLUDE\NORM_S.H
D:\24DIALER\NEW VERSION\HELLOVOIP\24PCDIALER\G729\INCLUDE\ROUND.H
D:\24DIALER\NEW VERSION\HELLOVOIP\24PCDIALER\G729\INCLUDE\SHR_R.H
D:\24DIALER\NEW VERSION\HELLOVOIP\24PCDIALER\G729\INCLUDE\SUB.H
D:\24DIALER\NEW VERSION\HELLOVOIP\24PCDIALER\G729\INCLUDE\SHR.H
D:\24DIALER\NEW VERSION\HELLOVOIP\24PCDIALER\G729\INCLUDE\L_NEGATE.H
D:\24DIALER\NEW VERSION\HELLOVOIP\24PCDIALER\G729\INCLUDE\L_EXTRACT.H
D:\24DIALER\NEW VERSION\HELLOVOIP\24PCDIALER\G729\INCLUDE\OPER_32B.H
D:\24DIALER\NEW VERSION\HELLOVOIP\24PCDIALER\G729\INCLUDE\L_COMP.H
D:\24DIALER\NEW VERSION\HELLOVOIP\24PCDIALER\G729\INCLUDE\LD8A.H
D:\24DIALER\NEW VERSION\HELLOVOIP\24PCDIALER\G729\INCLUDE\MSINTTYPES\STRINGS.H
D:\24DIALER\NEW VERSION\HELLOVOIP\24PCDIALER\G729\INCLUDE\TAB_LD8A.H
^D:\24DIALER\NEW VERSION\HELLOVOIP\24PCDIALER\G729\SOURCE\POST_PRO.C
D:\24DIALER\NEW VERSION\HELLOVOIP\24PCDIALER\G729\INCLUDE\TYPEDEF.H
D:\24DIALER\NEW VERSION\HELLOVOIP\24PCDIALER\G729\INCLUDE\MSINTTYPES\INTTYPES.H
D:\24DIALER\NEW VERSION\HELLOVOIP\24PCDIALER\G729\INCLUDE\MSINTTYPES\STDINT.H
D:\24DIALER\NEW VERSION\HELLOVOIP\24PCDIALER\G729\INCLUDE\BASIC_OP.H
D:\24DIALER\NEW VERSION\HELLOVOIP\24PCDIALER\G729\INCLUDE\BASICOP_MALLOC.H
D:\24DIALER\NEW VERSION\HELLOVOIP\24PCDIALER\G729\INCLUDE\BASIC_OP_C_EQUIVALENT.H
D:\24DIALER\NEW VERSION\HELLOVOIP\24PCDIALER\G729\INCLUDE\ADD.H
D:\24DIALER\NEW VERSION\HELLOVOIP\24PCDIALER\G729\INCLUDE\DIV_S.H
D:\24DIALER\NEW VERSION\HELLOVOIP\24PCDIALER\G729\INCLUDE\L_SHR_R.H
D:\24DIALER\NEW VERSION\HELLOVOIP\24PCDIALER\G729\INCLUDE\MULT_R.H
D:\24DIALER\NEW VERSION\HELLOVOIP\24PCDIALER\G729\INCLUDE\NORM_L.H
D:\24DIALER\NEW VERSION\HELLOVOIP\24PCDIALER\G729\INCLUDE\NORM_S.H
D:\24DIALER\NEW VERSION\HELLOVOIP\24PCDIALER\G729\INCLUDE\ROUND.H
D:\24DIALER\NEW VERSION\HELLOVOIP\24PCDIALER\G729\INCLUDE\SHR_R.H
D:\24DIALER\NEW VERSION\HELLOVOIP\24PCDIALER\G729\INCLUDE\SUB.H
D:\24DIALER\NEW VERSION\HELLOVOIP\24PCDIALER\G729\INCLUDE\SHR.H
D:\24DIALER\NEW VERSION\HELLOVOIP\24PCDIALER\G729\INCLUDE\L_NEGATE.H
D:\24DIALER\NEW VERSION\HELLOVOIP\24PCDIALER\G729\INCLUDE\L_EXTRACT.H
D:\24DIALER\NEW VERSION\HELLOVOIP\24PCDIALER\G729\INCLUDE\OPER_32B.H
D:\24DIALER\NEW VERSION\HELLOVOIP\24PCDIALER\G729\INCLUDE\L_COMP.H
D:\24DIALER\NEW VERSION\HELLOVOIP\24PCDIALER\G729\INCLUDE\LD8A.H
D:\24DIALER\NEW VERSION\HELLOVOIP\24PCDIALER\G729\INCLUDE\MSINTTYPES\STRINGS.H
D:\24DIALER\NEW VERSION\HELLOVOIP\24PCDIALER\G729\INCLUDE\G729A_DECODER.H
^D:\24DIALER\NEW VERSION\HELLOVOIP\24PCDIALER\G729\SOURCE\POSTFILT.C
D:\24DIALER\NEW VERSION\HELLOVOIP\24PCDIALER\G729\INCLUDE\TYPEDEF.H
D:\24DIALER\NEW VERSION\HELLOVOIP\24PCDIALER\G729\INCLUDE\MSINTTYPES\INTTYPES.H
D:\24DIALER\NEW VERSION\HELLOVOIP\24PCDIALER\G729\INCLUDE\MSINTTYPES\STDINT.H
D:\24DIALER\NEW VERSION\HELLOVOIP\24PCDIALER\G729\INCLUDE\BASIC_OP.H
D:\24DIALER\NEW VERSION\HELLOVOIP\24PCDIALER\G729\INCLUDE\BASICOP_MALLOC.H
D:\24DIALER\NEW VERSION\HELLOVOIP\24PCDIALER\G729\INCLUDE\BASIC_OP_C_EQUIVALENT.H
D:\24DIALER\NEW VERSION\HELLOVOIP\24PCDIALER\G729\INCLUDE\ADD.H
D:\24DIALER\NEW VERSION\HELLOVOIP\24PCDIALER\G729\INCLUDE\DIV_S.H
D:\24DIALER\NEW VERSION\HELLOVOIP\24PCDIALER\G729\INCLUDE\L_SHR_R.H
D:\24DIALER\NEW VERSION\HELLOVOIP\24PCDIALER\G729\INCLUDE\MULT_R.H
D:\24DIALER\NEW VERSION\HELLOVOIP\24PCDIALER\G729\INCLUDE\NORM_L.H
D:\24DIALER\NEW VERSION\HELLOVOIP\24PCDIALER\G729\INCLUDE\NORM_S.H
D:\24DIALER\NEW VERSION\HELLOVOIP\24PCDIALER\G729\INCLUDE\ROUND.H
D:\24DIALER\NEW VERSION\HELLOVOIP\24PCDIALER\G729\INCLUDE\SHR_R.H
D:\24DIALER\NEW VERSION\HELLOVOIP\24PCDIALER\G729\INCLUDE\SUB.H
D:\24DIALER\NEW VERSION\HELLOVOIP\24PCDIALER\G729\INCLUDE\SHR.H
D:\24DIALER\NEW VERSION\HELLOVOIP\24PCDIALER\G729\INCLUDE\L_NEGATE.H
D:\24DIALER\NEW VERSION\HELLOVOIP\24PCDIALER\G729\INCLUDE\L_EXTRACT.H
D:\24DIALER\NEW VERSION\HELLOVOIP\24PCDIALER\G729\INCLUDE\LD8A.H
D:\24DIALER\NEW VERSION\HELLOVOIP\24PCDIALER\G729\INCLUDE\MSINTTYPES\STRINGS.H
D:\24DIALER\NEW VERSION\HELLOVOIP\24PCDIALER\G729\INCLUDE\OPER_32B.H
D:\24DIALER\NEW VERSION\HELLOVOIP\24PCDIALER\G729\INCLUDE\L_COMP.H
D:\24DIALER\NEW VERSION\HELLOVOIP\24PCDIALER\G729\INCLUDE\G729A_DECODER.H
^D:\24DIALER\NEW VERSION\HELLOVOIP\24PCDIALER\G729\SOURCE\PRE_PROC.C
D:\24DIALER\NEW VERSION\HELLOVOIP\24PCDIALER\G729\INCLUDE\TYPEDEF.H
D:\24DIALER\NEW VERSION\HELLOVOIP\24PCDIALER\G729\INCLUDE\MSINTTYPES\INTTYPES.H
D:\24DIALER\NEW VERSION\HELLOVOIP\24PCDIALER\G729\INCLUDE\MSINTTYPES\STDINT.H
D:\24DIALER\NEW VERSION\HELLOVOIP\24PCDIALER\G729\INCLUDE\LD8A.H
D:\24DIALER\NEW VERSION\HELLOVOIP\24PCDIALER\G729\INCLUDE\MSINTTYPES\STRINGS.H
D:\24DIALER\NEW VERSION\HELLOVOIP\24PCDIALER\G729\INCLUDE\BASIC_OP.H
D:\24DIALER\NEW VERSION\HELLOVOIP\24PCDIALER\G729\INCLUDE\BASICOP_MALLOC.H
D:\24DIALER\NEW VERSION\HELLOVOIP\24PCDIALER\G729\INCLUDE\BASIC_OP_C_EQUIVALENT.H
D:\24DIALER\NEW VERSION\HELLOVOIP\24PCDIALER\G729\INCLUDE\ADD.H
D:\24DIALER\NEW VERSION\HELLOVOIP\24PCDIALER\G729\INCLUDE\DIV_S.H
D:\24DIALER\NEW VERSION\HELLOVOIP\24PCDIALER\G729\INCLUDE\L_SHR_R.H
D:\24DIALER\NEW VERSION\HELLOVOIP\24PCDIALER\G729\INCLUDE\MULT_R.H
D:\24DIALER\NEW VERSION\HELLOVOIP\24PCDIALER\G729\INCLUDE\NORM_L.H
D:\24DIALER\NEW VERSION\HELLOVOIP\24PCDIALER\G729\INCLUDE\NORM_S.H
D:\24DIALER\NEW VERSION\HELLOVOIP\24PCDIALER\G729\INCLUDE\ROUND.H
D:\24DIALER\NEW VERSION\HELLOVOIP\24PCDIALER\G729\INCLUDE\SHR_R.H
D:\24DIALER\NEW VERSION\HELLOVOIP\24PCDIALER\G729\INCLUDE\SUB.H
D:\24DIALER\NEW VERSION\HELLOVOIP\24PCDIALER\G729\INCLUDE\SHR.H
D:\24DIALER\NEW VERSION\HELLOVOIP\24PCDIALER\G729\INCLUDE\L_NEGATE.H
D:\24DIALER\NEW VERSION\HELLOVOIP\24PCDIALER\G729\INCLUDE\L_EXTRACT.H
D:\24DIALER\NEW VERSION\HELLOVOIP\24PCDIALER\G729\INCLUDE\G729A_ENCODER.H
^D:\24DIALER\NEW VERSION\HELLOVOIP\24PCDIALER\G729\SOURCE\PRED_LT3.C
D:\24DIALER\NEW VERSION\HELLOVOIP\24PCDIALER\G729\INCLUDE\TYPEDEF.H
D:\24DIALER\NEW VERSION\HELLOVOIP\24PCDIALER\G729\INCLUDE\MSINTTYPES\INTTYPES.H
D:\24DIALER\NEW VERSION\HELLOVOIP\24PCDIALER\G729\INCLUDE\MSINTTYPES\STDINT.H
D:\24DIALER\NEW VERSION\HELLOVOIP\24PCDIALER\G729\INCLUDE\BASIC_OP.H
D:\24DIALER\NEW VERSION\HELLOVOIP\24PCDIALER\G729\INCLUDE\BASICOP_MALLOC.H
D:\24DIALER\NEW VERSION\HELLOVOIP\24PCDIALER\G729\INCLUDE\BASIC_OP_C_EQUIVALENT.H
D:\24DIALER\NEW VERSION\HELLOVOIP\24PCDIALER\G729\INCLUDE\ADD.H
D:\24DIALER\NEW VERSION\HELLOVOIP\24PCDIALER\G729\INCLUDE\DIV_S.H
D:\24DIALER\NEW VERSION\HELLOVOIP\24PCDIALER\G729\INCLUDE\L_SHR_R.H
D:\24DIALER\NEW VERSION\HELLOVOIP\24PCDIALER\G729\INCLUDE\MULT_R.H
D:\24DIALER\NEW VERSION\HELLOVOIP\24PCDIALER\G729\INCLUDE\NORM_L.H
D:\24DIALER\NEW VERSION\HELLOVOIP\24PCDIALER\G729\INCLUDE\NORM_S.H
D:\24DIALER\NEW VERSION\HELLOVOIP\24PCDIALER\G729\INCLUDE\ROUND.H
D:\24DIALER\NEW VERSION\HELLOVOIP\24PCDIALER\G729\INCLUDE\SHR_R.H
D:\24DIALER\NEW VERSION\HELLOVOIP\24PCDIALER\G729\INCLUDE\SUB.H
D:\24DIALER\NEW VERSION\HELLOVOIP\24PCDIALER\G729\INCLUDE\SHR.H
D:\24DIALER\NEW VERSION\HELLOVOIP\24PCDIALER\G729\INCLUDE\L_NEGATE.H
D:\24DIALER\NEW VERSION\HELLOVOIP\24PCDIALER\G729\INCLUDE\L_EXTRACT.H
D:\24DIALER\NEW VERSION\HELLOVOIP\24PCDIALER\G729\INCLUDE\LD8A.H
D:\24DIALER\NEW VERSION\HELLOVOIP\24PCDIALER\G729\INCLUDE\MSINTTYPES\STRINGS.H
D:\24DIALER\NEW VERSION\HELLOVOIP\24PCDIALER\G729\INCLUDE\TAB_LD8A.H
^D:\24DIALER\NEW VERSION\HELLOVOIP\24PCDIALER\G729\SOURCE\QUA_GAIN.C
D:\24DIALER\NEW VERSION\HELLOVOIP\24PCDIALER\G729\INCLUDE\TYPEDEF.H
D:\24DIALER\NEW VERSION\HELLOVOIP\24PCDIALER\G729\INCLUDE\MSINTTYPES\INTTYPES.H
D:\24DIALER\NEW VERSION\HELLOVOIP\24PCDIALER\G729\INCLUDE\MSINTTYPES\STDINT.H
D:\24DIALER\NEW VERSION\HELLOVOIP\24PCDIALER\G729\INCLUDE\BASIC_OP.H
D:\24DIALER\NEW VERSION\HELLOVOIP\24PCDIALER\G729\INCLUDE\BASICOP_MALLOC.H
D:\24DIALER\NEW VERSION\HELLOVOIP\24PCDIALER\G729\INCLUDE\BASIC_OP_C_EQUIVALENT.H
D:\24DIALER\NEW VERSION\HELLOVOIP\24PCDIALER\G729\INCLUDE\ADD.H
D:\24DIALER\NEW VERSION\HELLOVOIP\24PCDIALER\G729\INCLUDE\DIV_S.H
D:\24DIALER\NEW VERSION\HELLOVOIP\24PCDIALER\G729\INCLUDE\L_SHR_R.H
D:\24DIALER\NEW VERSION\HELLOVOIP\24PCDIALER\G729\INCLUDE\MULT_R.H
D:\24DIALER\NEW VERSION\HELLOVOIP\24PCDIALER\G729\INCLUDE\NORM_L.H
D:\24DIALER\NEW VERSION\HELLOVOIP\24PCDIALER\G729\INCLUDE\NORM_S.H
D:\24DIALER\NEW VERSION\HELLOVOIP\24PCDIALER\G729\INCLUDE\ROUND.H
D:\24DIALER\NEW VERSION\HELLOVOIP\24PCDIALER\G729\INCLUDE\SHR_R.H
D:\24DIALER\NEW VERSION\HELLOVOIP\24PCDIALER\G729\INCLUDE\SUB.H
D:\24DIALER\NEW VERSION\HELLOVOIP\24PCDIALER\G729\INCLUDE\SHR.H
D:\24DIALER\NEW VERSION\HELLOVOIP\24PCDIALER\G729\INCLUDE\L_NEGATE.H
D:\24DIALER\NEW VERSION\HELLOVOIP\24PCDIALER\G729\INCLUDE\L_EXTRACT.H
D:\24DIALER\NEW VERSION\HELLOVOIP\24PCDIALER\G729\INCLUDE\OPER_32B.H
D:\24DIALER\NEW VERSION\HELLOVOIP\24PCDIALER\G729\INCLUDE\L_COMP.H
D:\24DIALER\NEW VERSION\HELLOVOIP\24PCDIALER\G729\INCLUDE\LD8A.H
D:\24DIALER\NEW VERSION\HELLOVOIP\24PCDIALER\G729\INCLUDE\MSINTTYPES\STRINGS.H
D:\24DIALER\NEW VERSION\HELLOVOIP\24PCDIALER\G729\INCLUDE\TAB_LD8A.H
^D:\24DIALER\NEW VERSION\HELLOVOIP\24PCDIALER\G729\SOURCE\QUA_LSP.C
D:\24DIALER\NEW VERSION\HELLOVOIP\24PCDIALER\G729\INCLUDE\TYPEDEF.H
D:\24DIALER\NEW VERSION\HELLOVOIP\24PCDIALER\G729\INCLUDE\MSINTTYPES\INTTYPES.H
D:\24DIALER\NEW VERSION\HELLOVOIP\24PCDIALER\G729\INCLUDE\MSINTTYPES\STDINT.H
D:\24DIALER\NEW VERSION\HELLOVOIP\24PCDIALER\G729\INCLUDE\BASIC_OP.H
D:\24DIALER\NEW VERSION\HELLOVOIP\24PCDIALER\G729\INCLUDE\BASICOP_MALLOC.H
D:\24DIALER\NEW VERSION\HELLOVOIP\24PCDIALER\G729\INCLUDE\BASIC_OP_C_EQUIVALENT.H
D:\24DIALER\NEW VERSION\HELLOVOIP\24PCDIALER\G729\INCLUDE\ADD.H
D:\24DIALER\NEW VERSION\HELLOVOIP\24PCDIALER\G729\INCLUDE\DIV_S.H
D:\24DIALER\NEW VERSION\HELLOVOIP\24PCDIALER\G729\INCLUDE\L_SHR_R.H
D:\24DIALER\NEW VERSION\HELLOVOIP\24PCDIALER\G729\INCLUDE\MULT_R.H
D:\24DIALER\NEW VERSION\HELLOVOIP\24PCDIALER\G729\INCLUDE\NORM_L.H
D:\24DIALER\NEW VERSION\HELLOVOIP\24PCDIALER\G729\INCLUDE\NORM_S.H
D:\24DIALER\NEW VERSION\HELLOVOIP\24PCDIALER\G729\INCLUDE\ROUND.H
D:\24DIALER\NEW VERSION\HELLOVOIP\24PCDIALER\G729\INCLUDE\SHR_R.H
D:\24DIALER\NEW VERSION\HELLOVOIP\24PCDIALER\G729\INCLUDE\SUB.H
D:\24DIALER\NEW VERSION\HELLOVOIP\24PCDIALER\G729\INCLUDE\SHR.H
D:\24DIALER\NEW VERSION\HELLOVOIP\24PCDIALER\G729\INCLUDE\L_NEGATE.H
D:\24DIALER\NEW VERSION\HELLOVOIP\24PCDIALER\G729\INCLUDE\L_EXTRACT.H
D:\24DIALER\NEW VERSION\HELLOVOIP\24PCDIALER\G729\INCLUDE\LD8A.H
D:\24DIALER\NEW VERSION\HELLOVOIP\24PCDIALER\G729\INCLUDE\MSINTTYPES\STRINGS.H
D:\24DIALER\NEW VERSION\HELLOVOIP\24PCDIALER\G729\INCLUDE\TAB_LD8A.H
D:\24DIALER\NEW VERSION\HELLOVOIP\24PCDIALER\G729\INCLUDE\G729A_ENCODER.H
^D:\24DIALER\NEW VERSION\HELLOVOIP\24PCDIALER\G729\SOURCE\ROUND.C
D:\24DIALER\NEW VERSION\HELLOVOIP\24PCDIALER\G729\INCLUDE\BASIC_OP.H
D:\24DIALER\NEW VERSION\HELLOVOIP\24PCDIALER\G729\INCLUDE\BASICOP_MALLOC.H
D:\24DIALER\NEW VERSION\HELLOVOIP\24PCDIALER\G729\INCLUDE\TYPEDEF.H
D:\24DIALER\NEW VERSION\HELLOVOIP\24PCDIALER\G729\INCLUDE\MSINTTYPES\INTTYPES.H
D:\24DIALER\NEW VERSION\HELLOVOIP\24PCDIALER\G729\INCLUDE\MSINTTYPES\STDINT.H
D:\24DIALER\NEW VERSION\HELLOVOIP\24PCDIALER\G729\INCLUDE\BASIC_OP_C_EQUIVALENT.H
D:\24DIALER\NEW VERSION\HELLOVOIP\24PCDIALER\G729\INCLUDE\ADD.H
D:\24DIALER\NEW VERSION\HELLOVOIP\24PCDIALER\G729\INCLUDE\DIV_S.H
D:\24DIALER\NEW VERSION\HELLOVOIP\24PCDIALER\G729\INCLUDE\L_SHR_R.H
D:\24DIALER\NEW VERSION\HELLOVOIP\24PCDIALER\G729\INCLUDE\MULT_R.H
D:\24DIALER\NEW VERSION\HELLOVOIP\24PCDIALER\G729\INCLUDE\NORM_L.H
D:\24DIALER\NEW VERSION\HELLOVOIP\24PCDIALER\G729\INCLUDE\NORM_S.H
D:\24DIALER\NEW VERSION\HELLOVOIP\24PCDIALER\G729\INCLUDE\ROUND.H
D:\24DIALER\NEW VERSION\HELLOVOIP\24PCDIALER\G729\INCLUDE\SHR_R.H
D:\24DIALER\NEW VERSION\HELLOVOIP\24PCDIALER\G729\INCLUDE\SUB.H
D:\24DIALER\NEW VERSION\HELLOVOIP\24PCDIALER\G729\INCLUDE\SHR.H
D:\24DIALER\NEW VERSION\HELLOVOIP\24PCDIALER\G729\INCLUDE\L_NEGATE.H
D:\24DIALER\NEW VERSION\HELLOVOIP\24PCDIALER\G729\INCLUDE\L_EXTRACT.H
^D:\24DIALER\NEW VERSION\HELLOVOIP\24PCDIALER\G729\SOURCE\TAB_LD8A.C
D:\24DIALER\NEW VERSION\HELLOVOIP\24PCDIALER\G729\INCLUDE\TYPEDEF.H
D:\24DIALER\NEW VERSION\HELLOVOIP\24PCDIALER\G729\INCLUDE\MSINTTYPES\INTTYPES.H
D:\24DIALER\NEW VERSION\HELLOVOIP\24PCDIALER\G729\INCLUDE\MSINTTYPES\STDINT.H
D:\24DIALER\NEW VERSION\HELLOVOIP\24PCDIALER\G729\INCLUDE\LD8A.H
D:\24DIALER\NEW VERSION\HELLOVOIP\24PCDIALER\G729\INCLUDE\MSINTTYPES\STRINGS.H
D:\24DIALER\NEW VERSION\HELLOVOIP\24PCDIALER\G729\INCLUDE\TAB_LD8A.H
^D:\24DIALER\NEW VERSION\HELLOVOIP\24PCDIALER\G729\SOURCE\TAMING.C
D:\24DIALER\NEW VERSION\HELLOVOIP\24PCDIALER\G729\INCLUDE\TYPEDEF.H
D:\24DIALER\NEW VERSION\HELLOVOIP\24PCDIALER\G729\INCLUDE\MSINTTYPES\INTTYPES.H
D:\24DIALER\NEW VERSION\HELLOVOIP\24PCDIALER\G729\INCLUDE\MSINTTYPES\STDINT.H
D:\24DIALER\NEW VERSION\HELLOVOIP\24PCDIALER\G729\INCLUDE\BASIC_OP.H
D:\24DIALER\NEW VERSION\HELLOVOIP\24PCDIALER\G729\INCLUDE\BASICOP_MALLOC.H
D:\24DIALER\NEW VERSION\HELLOVOIP\24PCDIALER\G729\INCLUDE\BASIC_OP_C_EQUIVALENT.H
D:\24DIALER\NEW VERSION\HELLOVOIP\24PCDIALER\G729\INCLUDE\ADD.H
D:\24DIALER\NEW VERSION\HELLOVOIP\24PCDIALER\G729\INCLUDE\DIV_S.H
D:\24DIALER\NEW VERSION\HELLOVOIP\24PCDIALER\G729\INCLUDE\L_SHR_R.H
D:\24DIALER\NEW VERSION\HELLOVOIP\24PCDIALER\G729\INCLUDE\MULT_R.H
D:\24DIALER\NEW VERSION\HELLOVOIP\24PCDIALER\G729\INCLUDE\NORM_L.H
D:\24DIALER\NEW VERSION\HELLOVOIP\24PCDIALER\G729\INCLUDE\NORM_S.H
D:\24DIALER\NEW VERSION\HELLOVOIP\24PCDIALER\G729\INCLUDE\ROUND.H
D:\24DIALER\NEW VERSION\HELLOVOIP\24PCDIALER\G729\INCLUDE\SHR_R.H
D:\24DIALER\NEW VERSION\HELLOVOIP\24PCDIALER\G729\INCLUDE\SUB.H
D:\24DIALER\NEW VERSION\HELLOVOIP\24PCDIALER\G729\INCLUDE\SHR.H
D:\24DIALER\NEW VERSION\HELLOVOIP\24PCDIALER\G729\INCLUDE\L_NEGATE.H
D:\24DIALER\NEW VERSION\HELLOVOIP\24PCDIALER\G729\INCLUDE\L_EXTRACT.H
D:\24DIALER\NEW VERSION\HELLOVOIP\24PCDIALER\G729\INCLUDE\OPER_32B.H
D:\24DIALER\NEW VERSION\HELLOVOIP\24PCDIALER\G729\INCLUDE\L_COMP.H
D:\24DIALER\NEW VERSION\HELLOVOIP\24PCDIALER\G729\INCLUDE\LD8A.H
D:\24DIALER\NEW VERSION\HELLOVOIP\24PCDIALER\G729\INCLUDE\MSINTTYPES\STRINGS.H
D:\24DIALER\NEW VERSION\HELLOVOIP\24PCDIALER\G729\INCLUDE\TAB_LD8A.H
D:\24DIALER\NEW VERSION\HELLOVOIP\24PCDIALER\G729\INCLUDE\G729A_ENCODER.H
^D:\24DIALER\NEW VERSION\HELLOVOIP\24PCDIALER\G729\SOURCE\UTIL.C
D:\24DIALER\NEW VERSION\HELLOVOIP\24PCDIALER\G729\INCLUDE\TYPEDEF.H
D:\24DIALER\NEW VERSION\HELLOVOIP\24PCDIALER\G729\INCLUDE\MSINTTYPES\INTTYPES.H
D:\24DIALER\NEW VERSION\HELLOVOIP\24PCDIALER\G729\INCLUDE\MSINTTYPES\STDINT.H
D:\24DIALER\NEW VERSION\HELLOVOIP\24PCDIALER\G729\INCLUDE\BASIC_OP.H
D:\24DIALER\NEW VERSION\HELLOVOIP\24PCDIALER\G729\INCLUDE\BASICOP_MALLOC.H
D:\24DIALER\NEW VERSION\HELLOVOIP\24PCDIALER\G729\INCLUDE\BASIC_OP_C_EQUIVALENT.H
D:\24DIALER\NEW VERSION\HELLOVOIP\24PCDIALER\G729\INCLUDE\ADD.H
D:\24DIALER\NEW VERSION\HELLOVOIP\24PCDIALER\G729\INCLUDE\DIV_S.H
D:\24DIALER\NEW VERSION\HELLOVOIP\24PCDIALER\G729\INCLUDE\L_SHR_R.H
D:\24DIALER\NEW VERSION\HELLOVOIP\24PCDIALER\G729\INCLUDE\MULT_R.H
D:\24DIALER\NEW VERSION\HELLOVOIP\24PCDIALER\G729\INCLUDE\NORM_L.H
D:\24DIALER\NEW VERSION\HELLOVOIP\24PCDIALER\G729\INCLUDE\NORM_S.H
D:\24DIALER\NEW VERSION\HELLOVOIP\24PCDIALER\G729\INCLUDE\ROUND.H
D:\24DIALER\NEW VERSION\HELLOVOIP\24PCDIALER\G729\INCLUDE\SHR_R.H
D:\24DIALER\NEW VERSION\HELLOVOIP\24PCDIALER\G729\INCLUDE\SUB.H
D:\24DIALER\NEW VERSION\HELLOVOIP\24PCDIALER\G729\INCLUDE\SHR.H
D:\24DIALER\NEW VERSION\HELLOVOIP\24PCDIALER\G729\INCLUDE\L_NEGATE.H
D:\24DIALER\NEW VERSION\HELLOVOIP\24PCDIALER\G729\INCLUDE\L_EXTRACT.H
D:\24DIALER\NEW VERSION\HELLOVOIP\24PCDIALER\G729\INCLUDE\LD8A.H
D:\24DIALER\NEW VERSION\HELLOVOIP\24PCDIALER\G729\INCLUDE\MSINTTYPES\STRINGS.H
