D:\24DIALER\NEW VERSION\SMOOTHDIALER-PC\SMOOTHDIALER\RELEASE\24PCDIALER.PCH
D:\24DIALER\NEW VERSION\SMOOTHDIALER-PC\SMOOTHDIALER\RELEASE\STDAFX.OBJ
D:\24DIALER\NEW VERSION\SMOOTHDIALER-PC\SMOOTHDIALER\RELEASE\VC110.PDB
D:\24DIALER\NEW VERSION\SMOOTHDIALER-PC\SMOOTHDIALER\RELEASE\SMOOTHDIALERDLG.OBJ
D:\24DIALER\NEW VERSION\SMOOTHDIALER-PC\SMOOTHDIALER\RELEASE\SMOOTHDIALER.OBJ
D:\24DIALER\NEW VERSION\SMOOTHDIALER-PC\SMOOTHDIALER\RELEASE\MYUTIL.OBJ
D:\24DIALER\NEW VERSION\SMOOTHDIALER-PC\SMOOTHDIALER\RELEASE\CONTACTVIEW.OBJ
D:\24DIALER\NEW VERSION\SMOOTHDIALER-PC\SMOOTHDIALER\RELEASE\CALLLOG.OBJ
D:\24DIALER\NEW VERSION\SMOOTHDIALER-PC\SMOOTHDIALER\RELEASE\AUDIO_RECORDER.OBJ
D:\24DIALER\NEW VERSION\SMOOTHDIALER-PC\SMOOTHDIALER\RELEASE\AUDIO_PLAYER.OBJ
D:\24DIALER\NEW VERSION\SMOOTHDIALER-PC\SMOOTHDIALER\RELEASE\ADDCONTACT.OBJ
D:\24DIALER\NEW VERSION\SMOOTHDIALER-PC\SMOOTHDIALER\RELEASE\ACCOUNTDIALOG.OBJ
D:\24DIALER\NEW VERSION\SMOOTHDIALER-PC\RELEASE\24PCDIALER.EXE
D:\24DIALER\NEW VERSION\SMOOTHDIALER-PC\RELEASE\24PCDIALER.PDB
D:\24DIALER\NEW VERSION\SMOOTHDIALER-PC\SMOOTHDIALER\RELEASE\SMOOTHDIALER.RES
D:\24Dialer\New Version\SmoothDialer-pc\SmoothDialer\Release\AccountDialog.obj
D:\24Dialer\New Version\SmoothDialer-pc\SmoothDialer\Release\AddContact.obj
D:\24Dialer\New Version\SmoothDialer-pc\SmoothDialer\Release\audio_player.obj
D:\24Dialer\New Version\SmoothDialer-pc\SmoothDialer\Release\audio_recorder.obj
D:\24Dialer\New Version\SmoothDialer-pc\SmoothDialer\Release\CallLog.obj
D:\24Dialer\New Version\SmoothDialer-pc\SmoothDialer\Release\ContactView.obj
D:\24Dialer\New Version\SmoothDialer-pc\SmoothDialer\Release\MyUtil.obj
D:\24Dialer\New Version\SmoothDialer-pc\SmoothDialer\Release\SmoothDialer.obj
D:\24Dialer\New Version\SmoothDialer-pc\SmoothDialer\Release\SmoothDialerDlg.obj
D:\24Dialer\New Version\SmoothDialer-pc\SmoothDialer\Release\stdafx.obj
D:\24Dialer\New Version\SmoothDialer-pc\SmoothDialer\Release\cl.command.1.tlog
D:\24Dialer\New Version\SmoothDialer-pc\SmoothDialer\Release\CL.read.1.tlog
D:\24Dialer\New Version\SmoothDialer-pc\SmoothDialer\Release\CL.write.1.tlog
D:\24Dialer\New Version\SmoothDialer-pc\SmoothDialer\Release\link-cvtres.read.1.tlog
D:\24Dialer\New Version\SmoothDialer-pc\SmoothDialer\Release\link-cvtres.write.1.tlog
D:\24Dialer\New Version\SmoothDialer-pc\SmoothDialer\Release\link-mt.read.1.tlog
D:\24Dialer\New Version\SmoothDialer-pc\SmoothDialer\Release\link-mt.write.1.tlog
D:\24Dialer\New Version\SmoothDialer-pc\SmoothDialer\Release\link-rc.read.1.tlog
D:\24Dialer\New Version\SmoothDialer-pc\SmoothDialer\Release\link-rc.write.1.tlog
D:\24Dialer\New Version\SmoothDialer-pc\SmoothDialer\Release\link.command.1.tlog
D:\24Dialer\New Version\SmoothDialer-pc\SmoothDialer\Release\link.read.1.tlog
D:\24Dialer\New Version\SmoothDialer-pc\SmoothDialer\Release\link.read.3.tlog
D:\24Dialer\New Version\SmoothDialer-pc\SmoothDialer\Release\link.read.4.tlog
D:\24Dialer\New Version\SmoothDialer-pc\SmoothDialer\Release\link.read.5.tlog
D:\24Dialer\New Version\SmoothDialer-pc\SmoothDialer\Release\link.read.6.tlog
D:\24Dialer\New Version\SmoothDialer-pc\SmoothDialer\Release\link.write.1.tlog
D:\24Dialer\New Version\SmoothDialer-pc\SmoothDialer\Release\rc.command.1.tlog
D:\24Dialer\New Version\SmoothDialer-pc\SmoothDialer\Release\rc.read.1.tlog
D:\24Dialer\New Version\SmoothDialer-pc\SmoothDialer\Release\rc.write.1.tlog
D:\24Dialer\New Version\SmoothDialer-pc\SmoothDialer\Release\SmoothDialer.res
D:\24Dialer\New Version\SmoothDialer-pc\SmoothDialer\Release\24PCDialer.pch
D:\24Dialer\New Version\SmoothDialer-pc\SmoothDialer\Release\vc110.pdb
D:\24Dialer\New Version\SmoothDialer-pc\Release\24PCDialer.pdb
D:\24Dialer\New Version\SmoothDialer-pc\Release\24PCDialer.exe
