^D:\24DIALER\NEW VERSION\SMOOTHDIALER-PC\SMOOTHDIALER\STDAFX.CPP
/c /Zi /nologo /W3 /WX- /O2 /Oi /Oy- /GL /D WIN32 /D _WINDOWS /D NDEBUG /D _UNICODE /D UNICODE /Gm- /EHsc /MTd /GS /Gy /fp:precise /Zc:wchar_t /Zc:forScope /Yc"stdafx.h" /Fp"RELEASE\24PCDIALER.PCH" /Fo"RELEASE\\" /Fd"RELEASE\VC110.PDB" /Gd /TP /analyze- D:\24DIALER\NEW VERSION\SMOOTHDIALER-PC\SMOOTHDIALER\STDAFX.CPP
^D:\24DIALER\NEW VERSION\SMOOTHDIALER-PC\SMOOTHDIALER\ADDCONTACT.CPP
/c /Zi /nologo /W3 /WX- /O2 /Oi /Oy- /GL /D WIN32 /D _WINDOWS /D NDEBUG /D _UNICODE /D UNICODE /Gm- /EHsc /MTd /GS /Gy /fp:precise /Zc:wchar_t /Zc:forScope /Yu"stdafx.h" /Fp"RELEASE\24PCDIALER.PCH" /Fo"RELEASE\\" /Fd"RELEASE\VC110.PDB" /Gd /TP /analyze- D:\24DIALER\NEW VERSION\SMOOTHDIALER-PC\SMOOTHDIALER\ADDCONTACT.CPP
^D:\24DIALER\NEW VERSION\SMOOTHDIALER-PC\SMOOTHDIALER\AUDIO_PLAYER.CPP
/c /Zi /nologo /W3 /WX- /O2 /Oi /Oy- /GL /D WIN32 /D _WINDOWS /D NDEBUG /D _UNICODE /D UNICODE /Gm- /EHsc /MTd /GS /Gy /fp:precise /Zc:wchar_t /Zc:forScope /Yu"stdafx.h" /Fp"RELEASE\24PCDIALER.PCH" /Fo"RELEASE\\" /Fd"RELEASE\VC110.PDB" /Gd /TP /analyze- D:\24DIALER\NEW VERSION\SMOOTHDIALER-PC\SMOOTHDIALER\AUDIO_PLAYER.CPP
^D:\24DIALER\NEW VERSION\SMOOTHDIALER-PC\SMOOTHDIALER\AUDIO_RECORDER.CPP
/c /Zi /nologo /W3 /WX- /O2 /Oi /Oy- /GL /D WIN32 /D _WINDOWS /D NDEBUG /D _UNICODE /D UNICODE /Gm- /EHsc /MTd /GS /Gy /fp:precise /Zc:wchar_t /Zc:forScope /Yu"stdafx.h" /Fp"RELEASE\24PCDIALER.PCH" /Fo"RELEASE\\" /Fd"RELEASE\VC110.PDB" /Gd /TP /analyze- D:\24DIALER\NEW VERSION\SMOOTHDIALER-PC\SMOOTHDIALER\AUDIO_RECORDER.CPP
^D:\24DIALER\NEW VERSION\SMOOTHDIALER-PC\SMOOTHDIALER\CALLLOG.CPP
/c /Zi /nologo /W3 /WX- /O2 /Oi /Oy- /GL /D WIN32 /D _WINDOWS /D NDEBUG /D _UNICODE /D UNICODE /Gm- /EHsc /MTd /GS /Gy /fp:precise /Zc:wchar_t /Zc:forScope /Yu"stdafx.h" /Fp"RELEASE\24PCDIALER.PCH" /Fo"RELEASE\\" /Fd"RELEASE\VC110.PDB" /Gd /TP /analyze- D:\24DIALER\NEW VERSION\SMOOTHDIALER-PC\SMOOTHDIALER\CALLLOG.CPP
^D:\24DIALER\NEW VERSION\SMOOTHDIALER-PC\SMOOTHDIALER\CONTACTVIEW.CPP
/c /Zi /nologo /W3 /WX- /O2 /Oi /Oy- /GL /D WIN32 /D _WINDOWS /D NDEBUG /D _UNICODE /D UNICODE /Gm- /EHsc /MTd /GS /Gy /fp:precise /Zc:wchar_t /Zc:forScope /Yu"stdafx.h" /Fp"RELEASE\24PCDIALER.PCH" /Fo"RELEASE\\" /Fd"RELEASE\VC110.PDB" /Gd /TP /analyze- D:\24DIALER\NEW VERSION\SMOOTHDIALER-PC\SMOOTHDIALER\CONTACTVIEW.CPP
^D:\24DIALER\NEW VERSION\SMOOTHDIALER-PC\SMOOTHDIALER\MYUTIL.CPP
/c /Zi /nologo /W3 /WX- /O2 /Oi /Oy- /GL /D WIN32 /D _WINDOWS /D NDEBUG /D _UNICODE /D UNICODE /Gm- /EHsc /MTd /GS /Gy /fp:precise /Zc:wchar_t /Zc:forScope /Yu"stdafx.h" /Fp"RELEASE\24PCDIALER.PCH" /Fo"RELEASE\\" /Fd"RELEASE\VC110.PDB" /Gd /TP /analyze- D:\24DIALER\NEW VERSION\SMOOTHDIALER-PC\SMOOTHDIALER\MYUTIL.CPP
^D:\24DIALER\NEW VERSION\SMOOTHDIALER-PC\SMOOTHDIALER\SMOOTHDIALER.CPP
/c /Zi /nologo /W3 /WX- /O2 /Oi /Oy- /GL /D WIN32 /D _WINDOWS /D NDEBUG /D _UNICODE /D UNICODE /Gm- /EHsc /MTd /GS /Gy /fp:precise /Zc:wchar_t /Zc:forScope /Yu"stdafx.h" /Fp"RELEASE\24PCDIALER.PCH" /Fo"RELEASE\\" /Fd"RELEASE\VC110.PDB" /Gd /TP /analyze- D:\24DIALER\NEW VERSION\SMOOTHDIALER-PC\SMOOTHDIALER\SMOOTHDIALER.CPP
^D:\24DIALER\NEW VERSION\SMOOTHDIALER-PC\SMOOTHDIALER\SMOOTHDIALERDLG.CPP
/c /Zi /nologo /W3 /WX- /O2 /Oi /Oy- /GL /D WIN32 /D _WINDOWS /D NDEBUG /D _UNICODE /D UNICODE /Gm- /EHsc /MTd /GS /Gy /fp:precise /Zc:wchar_t /Zc:forScope /Yu"stdafx.h" /Fp"RELEASE\24PCDIALER.PCH" /Fo"RELEASE\\" /Fd"RELEASE\VC110.PDB" /Gd /TP /analyze- D:\24DIALER\NEW VERSION\SMOOTHDIALER-PC\SMOOTHDIALER\SMOOTHDIALERDLG.CPP
^D:\24DIALER\NEW VERSION\SMOOTHDIALER-PC\SMOOTHDIALER\ACCOUNTDIALOG.CPP
/c /Zi /nologo /W3 /WX- /O2 /Oi /Oy- /GL /D WIN32 /D _WINDOWS /D NDEBUG /D _UNICODE /D UNICODE /Gm- /EHsc /MTd /GS /Gy /fp:precise /Zc:wchar_t /Zc:forScope /Yu"stdafx.h" /Fp"RELEASE\24PCDIALER.PCH" /Fo"RELEASE\\" /Fd"RELEASE\VC110.PDB" /Gd /TP /analyze- D:\24DIALER\NEW VERSION\SMOOTHDIALER-PC\SMOOTHDIALER\ACCOUNTDIALOG.CPP
