^D:\24DIALER\RUNNING\SMOOTHDIALER-PC-VS2008\AUDIOENGINESYMBIAN.CPP
/c /Ig729 /ZI /nologo /W3 /WX- /Od /Oy- /D WIN32 /D _DEBUG /D _WINDOWS /D _VC80_UPGRADE=0x0600 /D _MBCS /D _AFXDLL /Gm /EHsc /RTC1 /MDd /GS /Gy- /fp:precise /Zc:wchar_t /Zc:forScope /Fo".\DEBUG\\" /Fd".\DEBUG\VC110.PDB" /FR".\Debug\\" /Gd /TP /analyze- D:\24DIALER\RUNNING\SMOOTHDIALER-PC-VS2008\AUDIOENGINESYMBIAN.CPP
^D:\24DIALER\RUNNING\SMOOTHDIALER-PC-VS2008\AUDIOTHREAD.CPP
/c /Ig729 /ZI /nologo /W3 /WX- /Od /Oy- /D WIN32 /D _DEBUG /D _WINDOWS /D _VC80_UPGRADE=0x0600 /D _MBCS /D _AFXDLL /Gm /EHsc /RTC1 /MDd /GS /Gy- /fp:precise /Zc:wchar_t /Zc:forScope /Fo".\DEBUG\\" /Fd".\DEBUG\VC110.PDB" /FR".\Debug\\" /Gd /TP /analyze- D:\24DIALER\RUNNING\SMOOTHDIALER-PC-VS2008\AUDIOTHREAD.CPP
^D:\24DIALER\RUNNING\SMOOTHDIALER-PC-VS2008\DIALERAGENT.CPP
/c /Ig729 /ZI /nologo /W3 /WX- /Od /Oy- /D WIN32 /D _DEBUG /D _WINDOWS /D _VC80_UPGRADE=0x0600 /D _MBCS /D _AFXDLL /Gm /EHsc /RTC1 /MDd /GS /Gy- /fp:precise /Zc:wchar_t /Zc:forScope /Fo".\DEBUG\\" /Fd".\DEBUG\VC110.PDB" /FR".\Debug\\" /Gd /TP /analyze- D:\24DIALER\RUNNING\SMOOTHDIALER-PC-VS2008\DIALERAGENT.CPP
^D:\24DIALER\RUNNING\SMOOTHDIALER-PC-VS2008\DIALERAGENTEXTENSION.CPP
/c /Ig729 /ZI /nologo /W3 /WX- /Od /Oy- /D WIN32 /D _DEBUG /D _WINDOWS /D _VC80_UPGRADE=0x0600 /D _MBCS /D _AFXDLL /Gm /EHsc /RTC1 /MDd /GS /Gy- /fp:precise /Zc:wchar_t /Zc:forScope /Fo".\DEBUG\\" /Fd".\DEBUG\VC110.PDB" /FR".\Debug\\" /Gd /TP /analyze- D:\24DIALER\RUNNING\SMOOTHDIALER-PC-VS2008\DIALERAGENTEXTENSION.CPP
^D:\24DIALER\RUNNING\SMOOTHDIALER-PC-VS2008\GLOBALS.CPP
/c /Ig729 /ZI /nologo /W3 /WX- /Od /Oy- /D WIN32 /D _DEBUG /D _WINDOWS /D _VC80_UPGRADE=0x0600 /D _MBCS /D _AFXDLL /Gm /EHsc /RTC1 /MDd /GS /Gy- /fp:precise /Zc:wchar_t /Zc:forScope /Fo".\DEBUG\\" /Fd".\DEBUG\VC110.PDB" /FR".\Debug\\" /Gd /TP /analyze- D:\24DIALER\RUNNING\SMOOTHDIALER-PC-VS2008\GLOBALS.CPP
^D:\24DIALER\RUNNING\SMOOTHDIALER-PC-VS2008\LOGINDLG.CPP
/c /Ig729 /ZI /nologo /W3 /WX- /Od /Oy- /D WIN32 /D _DEBUG /D _WINDOWS /D _VC80_UPGRADE=0x0600 /D _MBCS /D _AFXDLL /Gm /EHsc /RTC1 /MDd /GS /Gy- /fp:precise /Zc:wchar_t /Zc:forScope /Fo".\DEBUG\\" /Fd".\DEBUG\VC110.PDB" /FR".\Debug\\" /Gd /TP /analyze- D:\24DIALER\RUNNING\SMOOTHDIALER-PC-VS2008\LOGINDLG.CPP
^D:\24DIALER\RUNNING\SMOOTHDIALER-PC-VS2008\SMOOTHDIALER.CPP
/c /Ig729 /ZI /nologo /W3 /WX- /Od /Oy- /D WIN32 /D _DEBUG /D _WINDOWS /D _VC80_UPGRADE=0x0600 /D _MBCS /D _AFXDLL /Gm /EHsc /RTC1 /MDd /GS /Gy- /fp:precise /Zc:wchar_t /Zc:forScope /Fo".\DEBUG\\" /Fd".\DEBUG\VC110.PDB" /FR".\Debug\\" /Gd /TP /analyze- D:\24DIALER\RUNNING\SMOOTHDIALER-PC-VS2008\SMOOTHDIALER.CPP
^D:\24DIALER\RUNNING\SMOOTHDIALER-PC-VS2008\SMOOTHDIALERDLG.CPP
/c /Ig729 /ZI /nologo /W3 /WX- /Od /Oy- /D WIN32 /D _DEBUG /D _WINDOWS /D _VC80_UPGRADE=0x0600 /D _MBCS /D _AFXDLL /Gm /EHsc /RTC1 /MDd /GS /Gy- /fp:precise /Zc:wchar_t /Zc:forScope /Fo".\DEBUG\\" /Fd".\DEBUG\VC110.PDB" /FR".\Debug\\" /Gd /TP /analyze- D:\24DIALER\RUNNING\SMOOTHDIALER-PC-VS2008\SMOOTHDIALERDLG.CPP
^D:\24DIALER\RUNNING\SMOOTHDIALER-PC-VS2008\STDAFX.CPP
/c /Ig729 /ZI /nologo /W3 /WX- /Od /Oy- /D WIN32 /D _DEBUG /D _WINDOWS /D _VC80_UPGRADE=0x0600 /D _MBCS /D _AFXDLL /Gm /EHsc /RTC1 /MDd /GS /Gy- /fp:precise /Zc:wchar_t /Zc:forScope /Fo".\DEBUG\\" /Fd".\DEBUG\VC110.PDB" /FR".\Debug\\" /Gd /TP /analyze- D:\24DIALER\RUNNING\SMOOTHDIALER-PC-VS2008\STDAFX.CPP
^D:\24DIALER\BACKUP\16.7.2013\2(LOGIN + BKGRD IMAGE SET + BTN IMAGE SET)\SMOOTHDIALER-PC-VS2008\AUDIOENGINESYMBIAN.CPP
/c /Ig729 /ZI /nologo /W3 /WX- /Od /Oy- /D WIN32 /D _DEBUG /D _WINDOWS /D _VC80_UPGRADE=0x0600 /D _MBCS /D _AFXDLL /Gm /EHsc /RTC1 /MDd /GS /Gy- /fp:precise /Zc:wchar_t /Zc:forScope /Fo".\DEBUG\\" /Fd".\DEBUG\VC110.PDB" /FR".\Debug\\" /Gd /TP /analyze- D:\24DIALER\BACKUP\16.7.2013\2(LOGIN + BKGRD IMAGE SET + BTN IMAGE SET)\SMOOTHDIALER-PC-VS2008\AUDIOENGINESYMBIAN.CPP
^D:\24DIALER\BACKUP\16.7.2013\2(LOGIN + BKGRD IMAGE SET + BTN IMAGE SET)\SMOOTHDIALER-PC-VS2008\AUDIOTHREAD.CPP
/c /Ig729 /ZI /nologo /W3 /WX- /Od /Oy- /D WIN32 /D _DEBUG /D _WINDOWS /D _VC80_UPGRADE=0x0600 /D _MBCS /D _AFXDLL /Gm /EHsc /RTC1 /MDd /GS /Gy- /fp:precise /Zc:wchar_t /Zc:forScope /Fo".\DEBUG\\" /Fd".\DEBUG\VC110.PDB" /FR".\Debug\\" /Gd /TP /analyze- D:\24DIALER\BACKUP\16.7.2013\2(LOGIN + BKGRD IMAGE SET + BTN IMAGE SET)\SMOOTHDIALER-PC-VS2008\AUDIOTHREAD.CPP
^D:\24DIALER\BACKUP\16.7.2013\2(LOGIN + BKGRD IMAGE SET + BTN IMAGE SET)\SMOOTHDIALER-PC-VS2008\DIALERAGENT.CPP
/c /Ig729 /ZI /nologo /W3 /WX- /Od /Oy- /D WIN32 /D _DEBUG /D _WINDOWS /D _VC80_UPGRADE=0x0600 /D _MBCS /D _AFXDLL /Gm /EHsc /RTC1 /MDd /GS /Gy- /fp:precise /Zc:wchar_t /Zc:forScope /Fo".\DEBUG\\" /Fd".\DEBUG\VC110.PDB" /FR".\Debug\\" /Gd /TP /analyze- D:\24DIALER\BACKUP\16.7.2013\2(LOGIN + BKGRD IMAGE SET + BTN IMAGE SET)\SMOOTHDIALER-PC-VS2008\DIALERAGENT.CPP
^D:\24DIALER\BACKUP\16.7.2013\2(LOGIN + BKGRD IMAGE SET + BTN IMAGE SET)\SMOOTHDIALER-PC-VS2008\DIALERAGENTEXTENSION.CPP
/c /Ig729 /ZI /nologo /W3 /WX- /Od /Oy- /D WIN32 /D _DEBUG /D _WINDOWS /D _VC80_UPGRADE=0x0600 /D _MBCS /D _AFXDLL /Gm /EHsc /RTC1 /MDd /GS /Gy- /fp:precise /Zc:wchar_t /Zc:forScope /Fo".\DEBUG\\" /Fd".\DEBUG\VC110.PDB" /FR".\Debug\\" /Gd /TP /analyze- D:\24DIALER\BACKUP\16.7.2013\2(LOGIN + BKGRD IMAGE SET + BTN IMAGE SET)\SMOOTHDIALER-PC-VS2008\DIALERAGENTEXTENSION.CPP
^D:\24DIALER\BACKUP\16.7.2013\2(LOGIN + BKGRD IMAGE SET + BTN IMAGE SET)\SMOOTHDIALER-PC-VS2008\GLOBALS.CPP
/c /Ig729 /ZI /nologo /W3 /WX- /Od /Oy- /D WIN32 /D _DEBUG /D _WINDOWS /D _VC80_UPGRADE=0x0600 /D _MBCS /D _AFXDLL /Gm /EHsc /RTC1 /MDd /GS /Gy- /fp:precise /Zc:wchar_t /Zc:forScope /Fo".\DEBUG\\" /Fd".\DEBUG\VC110.PDB" /FR".\Debug\\" /Gd /TP /analyze- D:\24DIALER\BACKUP\16.7.2013\2(LOGIN + BKGRD IMAGE SET + BTN IMAGE SET)\SMOOTHDIALER-PC-VS2008\GLOBALS.CPP
^D:\24DIALER\BACKUP\16.7.2013\2(LOGIN + BKGRD IMAGE SET + BTN IMAGE SET)\SMOOTHDIALER-PC-VS2008\LOGINDLG.CPP
/c /Ig729 /ZI /nologo /W3 /WX- /Od /Oy- /D WIN32 /D _DEBUG /D _WINDOWS /D _VC80_UPGRADE=0x0600 /D _MBCS /D _AFXDLL /Gm /EHsc /RTC1 /MDd /GS /Gy- /fp:precise /Zc:wchar_t /Zc:forScope /Fo".\DEBUG\\" /Fd".\DEBUG\VC110.PDB" /FR".\Debug\\" /Gd /TP /analyze- D:\24DIALER\BACKUP\16.7.2013\2(LOGIN + BKGRD IMAGE SET + BTN IMAGE SET)\SMOOTHDIALER-PC-VS2008\LOGINDLG.CPP
^D:\24DIALER\BACKUP\16.7.2013\2(LOGIN + BKGRD IMAGE SET + BTN IMAGE SET)\SMOOTHDIALER-PC-VS2008\SMOOTHDIALER.CPP
/c /Ig729 /ZI /nologo /W3 /WX- /Od /Oy- /D WIN32 /D _DEBUG /D _WINDOWS /D _VC80_UPGRADE=0x0600 /D _MBCS /D _AFXDLL /Gm /EHsc /RTC1 /MDd /GS /Gy- /fp:precise /Zc:wchar_t /Zc:forScope /Fo".\DEBUG\\" /Fd".\DEBUG\VC110.PDB" /FR".\Debug\\" /Gd /TP /analyze- D:\24DIALER\BACKUP\16.7.2013\2(LOGIN + BKGRD IMAGE SET + BTN IMAGE SET)\SMOOTHDIALER-PC-VS2008\SMOOTHDIALER.CPP
^D:\24DIALER\BACKUP\16.7.2013\2(LOGIN + BKGRD IMAGE SET + BTN IMAGE SET)\SMOOTHDIALER-PC-VS2008\SMOOTHDIALERDLG.CPP
/c /Ig729 /ZI /nologo /W3 /WX- /Od /Oy- /D WIN32 /D _DEBUG /D _WINDOWS /D _VC80_UPGRADE=0x0600 /D _MBCS /D _AFXDLL /Gm /EHsc /RTC1 /MDd /GS /Gy- /fp:precise /Zc:wchar_t /Zc:forScope /Fo".\DEBUG\\" /Fd".\DEBUG\VC110.PDB" /FR".\Debug\\" /Gd /TP /analyze- D:\24DIALER\BACKUP\16.7.2013\2(LOGIN + BKGRD IMAGE SET + BTN IMAGE SET)\SMOOTHDIALER-PC-VS2008\SMOOTHDIALERDLG.CPP
^D:\24DIALER\BACKUP\16.7.2013\2(LOGIN + BKGRD IMAGE SET + BTN IMAGE SET)\SMOOTHDIALER-PC-VS2008\STDAFX.CPP
/c /Ig729 /ZI /nologo /W3 /WX- /Od /Oy- /D WIN32 /D _DEBUG /D _WINDOWS /D _VC80_UPGRADE=0x0600 /D _MBCS /D _AFXDLL /Gm /EHsc /RTC1 /MDd /GS /Gy- /fp:precise /Zc:wchar_t /Zc:forScope /Fo".\DEBUG\\" /Fd".\DEBUG\VC110.PDB" /FR".\Debug\\" /Gd /TP /analyze- D:\24DIALER\BACKUP\16.7.2013\2(LOGIN + BKGRD IMAGE SET + BTN IMAGE SET)\SMOOTHDIALER-PC-VS2008\STDAFX.CPP
