^D:\24DIALER\RUNNING\SMOOTHDIALER-PC-VS2008\AUDIOENGINESYMBIAN.CPP|D:\24DIALER\RUNNING\SMOOTHDIALER-PC-VS2008\AUDIOTHREAD.CPP|D:\24DIALER\RUNNING\SMOOTHDIALER-PC-VS2008\DIALERAGENT.CPP|D:\24DIALER\RUNNING\SMOOTHDIALER-PC-VS2008\DIALERAGENTEXTENSION.CPP|D:\24DIALER\RUNNING\SMOOTHDIALER-PC-VS2008\GLOBALS.CPP|D:\24DIALER\RUNNING\SMOOTHDIALER-PC-VS2008\LOGINDLG.CPP|D:\24DIALER\RUNNING\SMOOTHDIALER-PC-VS2008\SMOOTHDIALER.CPP|D:\24DIALER\RUNNING\SMOOTHDIALER-PC-VS2008\SMOOTHDIALERDLG.CPP|D:\24DIALER\RUNNING\SMOOTHDIALER-PC-VS2008\STDAFX.CPP
D:\24DIALER\RUNNING\SMOOTHDIALER-PC-VS2008\DEBUG\STDAFX.SBR
D:\24DIALER\RUNNING\SMOOTHDIALER-PC-VS2008\DEBUG\SMOOTHDIALERDLG.SBR
D:\24DIALER\RUNNING\SMOOTHDIALER-PC-VS2008\DEBUG\SMOOTHDIALER.SBR
D:\24DIALER\RUNNING\SMOOTHDIALER-PC-VS2008\DEBUG\LOGINDLG.SBR
D:\24DIALER\RUNNING\SMOOTHDIALER-PC-VS2008\DEBUG\GLOBALS.SBR
D:\24DIALER\RUNNING\SMOOTHDIALER-PC-VS2008\DEBUG\DIALERAGENTEXTENSION.SBR
D:\24DIALER\RUNNING\SMOOTHDIALER-PC-VS2008\DEBUG\DIALERAGENT.SBR
D:\24DIALER\RUNNING\SMOOTHDIALER-PC-VS2008\DEBUG\AUDIOTHREAD.SBR
D:\24DIALER\RUNNING\SMOOTHDIALER-PC-VS2008\DEBUG\AUDIOENGINESYMBIAN.SBR
D:\24DIALER\RUNNING\SMOOTHDIALER-PC-VS2008\DEBUG\AUDIOENGINESYMBIAN.OBJ
D:\24DIALER\RUNNING\SMOOTHDIALER-PC-VS2008\DEBUG\AUDIOTHREAD.OBJ
D:\24DIALER\RUNNING\SMOOTHDIALER-PC-VS2008\DEBUG\DIALERAGENT.OBJ
D:\24DIALER\RUNNING\SMOOTHDIALER-PC-VS2008\DEBUG\DIALERAGENTEXTENSION.OBJ
D:\24DIALER\RUNNING\SMOOTHDIALER-PC-VS2008\DEBUG\GLOBALS.OBJ
D:\24DIALER\RUNNING\SMOOTHDIALER-PC-VS2008\DEBUG\LOGINDLG.OBJ
D:\24DIALER\RUNNING\SMOOTHDIALER-PC-VS2008\DEBUG\SMOOTHDIALER.OBJ
D:\24DIALER\RUNNING\SMOOTHDIALER-PC-VS2008\DEBUG\SMOOTHDIALERDLG.OBJ
D:\24DIALER\RUNNING\SMOOTHDIALER-PC-VS2008\DEBUG\STDAFX.OBJ
^D:\24DIALER\RUNNING\SMOOTHDIALER-PC-VS2008\AUDIOENGINESYMBIAN.CPP
D:\24DIALER\RUNNING\SMOOTHDIALER-PC-VS2008\DEBUG\VC110.PDB
^D:\24DIALER\RUNNING\SMOOTHDIALER-PC-VS2008\AUDIOTHREAD.CPP
D:\24DIALER\RUNNING\SMOOTHDIALER-PC-VS2008\DEBUG\VC110.PDB
^D:\24DIALER\RUNNING\SMOOTHDIALER-PC-VS2008\DIALERAGENT.CPP
D:\24DIALER\RUNNING\SMOOTHDIALER-PC-VS2008\DEBUG\VC110.PDB
^D:\24DIALER\RUNNING\SMOOTHDIALER-PC-VS2008\DIALERAGENTEXTENSION.CPP
D:\24DIALER\RUNNING\SMOOTHDIALER-PC-VS2008\DEBUG\VC110.PDB
^D:\24DIALER\RUNNING\SMOOTHDIALER-PC-VS2008\GLOBALS.CPP
D:\24DIALER\RUNNING\SMOOTHDIALER-PC-VS2008\DEBUG\VC110.PDB
^D:\24DIALER\RUNNING\SMOOTHDIALER-PC-VS2008\LOGINDLG.CPP
D:\24DIALER\RUNNING\SMOOTHDIALER-PC-VS2008\DEBUG\VC110.PDB
D:\24DIALER\RUNNING\SMOOTHDIALER-PC-VS2008\DEBUG\LOGINDLG.SBR
D:\24DIALER\RUNNING\SMOOTHDIALER-PC-VS2008\DEBUG\LOGINDLG.OBJ
^D:\24DIALER\RUNNING\SMOOTHDIALER-PC-VS2008\SMOOTHDIALER.CPP
D:\24DIALER\RUNNING\SMOOTHDIALER-PC-VS2008\DEBUG\VC110.PDB
^D:\24DIALER\RUNNING\SMOOTHDIALER-PC-VS2008\SMOOTHDIALERDLG.CPP
D:\24DIALER\RUNNING\SMOOTHDIALER-PC-VS2008\DEBUG\VC110.PDB
D:\24DIALER\RUNNING\SMOOTHDIALER-PC-VS2008\DEBUG\SMOOTHDIALERDLG.SBR
D:\24DIALER\RUNNING\SMOOTHDIALER-PC-VS2008\DEBUG\SMOOTHDIALERDLG.OBJ
^D:\24DIALER\RUNNING\SMOOTHDIALER-PC-VS2008\STDAFX.CPP
D:\24DIALER\RUNNING\SMOOTHDIALER-PC-VS2008\DEBUG\VC110.PDB
^D:\24DIALER\RUNNING\SMOOTHDIALER-PC-VS2008\LOGINDLG.CPP|D:\24DIALER\RUNNING\SMOOTHDIALER-PC-VS2008\SMOOTHDIALER.CPP|D:\24DIALER\RUNNING\SMOOTHDIALER-PC-VS2008\SMOOTHDIALERDLG.CPP
D:\24DIALER\RUNNING\SMOOTHDIALER-PC-VS2008\DEBUG\SMOOTHDIALERDLG.SBR
D:\24DIALER\RUNNING\SMOOTHDIALER-PC-VS2008\DEBUG\LOGINDLG.SBR
D:\24DIALER\RUNNING\SMOOTHDIALER-PC-VS2008\DEBUG\SMOOTHDIALERDLG.OBJ
D:\24DIALER\RUNNING\SMOOTHDIALER-PC-VS2008\DEBUG\LOGINDLG.OBJ
D:\24DIALER\RUNNING\SMOOTHDIALER-PC-VS2008\DEBUG\SMOOTHDIALER.SBR
D:\24DIALER\RUNNING\SMOOTHDIALER-PC-VS2008\DEBUG\SMOOTHDIALER.OBJ
^D:\24DIALER\BACKUP\16.7.2013\2(LOGIN + BKGRD IMAGE SET + BTN IMAGE SET)\SMOOTHDIALER-PC-VS2008\AUDIOENGINESYMBIAN.CPP|D:\24DIALER\BACKUP\16.7.2013\2(LOGIN + BKGRD IMAGE SET + BTN IMAGE SET)\SMOOTHDIALER-PC-VS2008\AUDIOTHREAD.CPP|D:\24DIALER\BACKUP\16.7.2013\2(LOGIN + BKGRD IMAGE SET + BTN IMAGE SET)\SMOOTHDIALER-PC-VS2008\DIALERAGENT.CPP|D:\24DIALER\BACKUP\16.7.2013\2(LOGIN + BKGRD IMAGE SET + BTN IMAGE SET)\SMOOTHDIALER-PC-VS2008\DIALERAGENTEXTENSION.CPP|D:\24DIALER\BACKUP\16.7.2013\2(LOGIN + BKGRD IMAGE SET + BTN IMAGE SET)\SMOOTHDIALER-PC-VS2008\GLOBALS.CPP|D:\24DIALER\BACKUP\16.7.2013\2(LOGIN + BKGRD IMAGE SET + BTN IMAGE SET)\SMOOTHDIALER-PC-VS2008\LOGINDLG.CPP|D:\24DIALER\BACKUP\16.7.2013\2(LOGIN + BKGRD IMAGE SET + BTN IMAGE SET)\SMOOTHDIALER-PC-VS2008\SMOOTHDIALER.CPP|D:\24DIALER\BACKUP\16.7.2013\2(LOGIN + BKGRD IMAGE SET + BTN IMAGE SET)\SMOOTHDIALER-PC-VS2008\SMOOTHDIALERDLG.CPP|D:\24DIALER\BACKUP\16.7.2013\2(LOGIN + BKGRD IMAGE SET + BTN IMAGE SET)\SMOOTHDIALER-PC-VS2008\STDAFX.CPP
D:\24DIALER\BACKUP\16.7.2013\2(LOGIN + BKGRD IMAGE SET + BTN IMAGE SET)\SMOOTHDIALER-PC-VS2008\DEBUG\STDAFX.SBR
D:\24DIALER\BACKUP\16.7.2013\2(LOGIN + BKGRD IMAGE SET + BTN IMAGE SET)\SMOOTHDIALER-PC-VS2008\DEBUG\SMOOTHDIALERDLG.SBR
D:\24DIALER\BACKUP\16.7.2013\2(LOGIN + BKGRD IMAGE SET + BTN IMAGE SET)\SMOOTHDIALER-PC-VS2008\DEBUG\SMOOTHDIALER.SBR
D:\24DIALER\BACKUP\16.7.2013\2(LOGIN + BKGRD IMAGE SET + BTN IMAGE SET)\SMOOTHDIALER-PC-VS2008\DEBUG\LOGINDLG.SBR
D:\24DIALER\BACKUP\16.7.2013\2(LOGIN + BKGRD IMAGE SET + BTN IMAGE SET)\SMOOTHDIALER-PC-VS2008\DEBUG\GLOBALS.SBR
D:\24DIALER\BACKUP\16.7.2013\2(LOGIN + BKGRD IMAGE SET + BTN IMAGE SET)\SMOOTHDIALER-PC-VS2008\DEBUG\DIALERAGENTEXTENSION.SBR
D:\24DIALER\BACKUP\16.7.2013\2(LOGIN + BKGRD IMAGE SET + BTN IMAGE SET)\SMOOTHDIALER-PC-VS2008\DEBUG\DIALERAGENT.SBR
D:\24DIALER\BACKUP\16.7.2013\2(LOGIN + BKGRD IMAGE SET + BTN IMAGE SET)\SMOOTHDIALER-PC-VS2008\DEBUG\AUDIOTHREAD.SBR
D:\24DIALER\BACKUP\16.7.2013\2(LOGIN + BKGRD IMAGE SET + BTN IMAGE SET)\SMOOTHDIALER-PC-VS2008\DEBUG\AUDIOENGINESYMBIAN.SBR
D:\24DIALER\BACKUP\16.7.2013\2(LOGIN + BKGRD IMAGE SET + BTN IMAGE SET)\SMOOTHDIALER-PC-VS2008\DEBUG\AUDIOENGINESYMBIAN.OBJ
D:\24DIALER\BACKUP\16.7.2013\2(LOGIN + BKGRD IMAGE SET + BTN IMAGE SET)\SMOOTHDIALER-PC-VS2008\DEBUG\AUDIOTHREAD.OBJ
D:\24DIALER\BACKUP\16.7.2013\2(LOGIN + BKGRD IMAGE SET + BTN IMAGE SET)\SMOOTHDIALER-PC-VS2008\DEBUG\DIALERAGENT.OBJ
D:\24DIALER\BACKUP\16.7.2013\2(LOGIN + BKGRD IMAGE SET + BTN IMAGE SET)\SMOOTHDIALER-PC-VS2008\DEBUG\DIALERAGENTEXTENSION.OBJ
D:\24DIALER\BACKUP\16.7.2013\2(LOGIN + BKGRD IMAGE SET + BTN IMAGE SET)\SMOOTHDIALER-PC-VS2008\DEBUG\GLOBALS.OBJ
D:\24DIALER\BACKUP\16.7.2013\2(LOGIN + BKGRD IMAGE SET + BTN IMAGE SET)\SMOOTHDIALER-PC-VS2008\DEBUG\LOGINDLG.OBJ
D:\24DIALER\BACKUP\16.7.2013\2(LOGIN + BKGRD IMAGE SET + BTN IMAGE SET)\SMOOTHDIALER-PC-VS2008\DEBUG\SMOOTHDIALER.OBJ
D:\24DIALER\BACKUP\16.7.2013\2(LOGIN + BKGRD IMAGE SET + BTN IMAGE SET)\SMOOTHDIALER-PC-VS2008\DEBUG\SMOOTHDIALERDLG.OBJ
D:\24DIALER\BACKUP\16.7.2013\2(LOGIN + BKGRD IMAGE SET + BTN IMAGE SET)\SMOOTHDIALER-PC-VS2008\DEBUG\STDAFX.OBJ
^D:\24DIALER\BACKUP\16.7.2013\2(LOGIN + BKGRD IMAGE SET + BTN IMAGE SET)\SMOOTHDIALER-PC-VS2008\AUDIOENGINESYMBIAN.CPP
D:\24DIALER\BACKUP\16.7.2013\2(LOGIN + BKGRD IMAGE SET + BTN IMAGE SET)\SMOOTHDIALER-PC-VS2008\DEBUG\VC110.PDB
^D:\24DIALER\BACKUP\16.7.2013\2(LOGIN + BKGRD IMAGE SET + BTN IMAGE SET)\SMOOTHDIALER-PC-VS2008\AUDIOTHREAD.CPP
D:\24DIALER\BACKUP\16.7.2013\2(LOGIN + BKGRD IMAGE SET + BTN IMAGE SET)\SMOOTHDIALER-PC-VS2008\DEBUG\VC110.PDB
^D:\24DIALER\BACKUP\16.7.2013\2(LOGIN + BKGRD IMAGE SET + BTN IMAGE SET)\SMOOTHDIALER-PC-VS2008\DIALERAGENT.CPP
D:\24DIALER\BACKUP\16.7.2013\2(LOGIN + BKGRD IMAGE SET + BTN IMAGE SET)\SMOOTHDIALER-PC-VS2008\DEBUG\VC110.PDB
^D:\24DIALER\BACKUP\16.7.2013\2(LOGIN + BKGRD IMAGE SET + BTN IMAGE SET)\SMOOTHDIALER-PC-VS2008\DIALERAGENTEXTENSION.CPP
D:\24DIALER\BACKUP\16.7.2013\2(LOGIN + BKGRD IMAGE SET + BTN IMAGE SET)\SMOOTHDIALER-PC-VS2008\DEBUG\VC110.PDB
^D:\24DIALER\BACKUP\16.7.2013\2(LOGIN + BKGRD IMAGE SET + BTN IMAGE SET)\SMOOTHDIALER-PC-VS2008\GLOBALS.CPP
D:\24DIALER\BACKUP\16.7.2013\2(LOGIN + BKGRD IMAGE SET + BTN IMAGE SET)\SMOOTHDIALER-PC-VS2008\DEBUG\VC110.PDB
^D:\24DIALER\BACKUP\16.7.2013\2(LOGIN + BKGRD IMAGE SET + BTN IMAGE SET)\SMOOTHDIALER-PC-VS2008\LOGINDLG.CPP
D:\24DIALER\BACKUP\16.7.2013\2(LOGIN + BKGRD IMAGE SET + BTN IMAGE SET)\SMOOTHDIALER-PC-VS2008\DEBUG\VC110.PDB
^D:\24DIALER\BACKUP\16.7.2013\2(LOGIN + BKGRD IMAGE SET + BTN IMAGE SET)\SMOOTHDIALER-PC-VS2008\SMOOTHDIALER.CPP
D:\24DIALER\BACKUP\16.7.2013\2(LOGIN + BKGRD IMAGE SET + BTN IMAGE SET)\SMOOTHDIALER-PC-VS2008\DEBUG\VC110.PDB
^D:\24DIALER\BACKUP\16.7.2013\2(LOGIN + BKGRD IMAGE SET + BTN IMAGE SET)\SMOOTHDIALER-PC-VS2008\SMOOTHDIALERDLG.CPP
D:\24DIALER\BACKUP\16.7.2013\2(LOGIN + BKGRD IMAGE SET + BTN IMAGE SET)\SMOOTHDIALER-PC-VS2008\DEBUG\VC110.PDB
^D:\24DIALER\BACKUP\16.7.2013\2(LOGIN + BKGRD IMAGE SET + BTN IMAGE SET)\SMOOTHDIALER-PC-VS2008\STDAFX.CPP
D:\24DIALER\BACKUP\16.7.2013\2(LOGIN + BKGRD IMAGE SET + BTN IMAGE SET)\SMOOTHDIALER-PC-VS2008\DEBUG\VC110.PDB
