^D:\24DIALER\RUNNING\24PCDIALER\SMOOTHDIALER.RC
D:\24DIALER\RUNNING\24PCDIALER\RESOURCE.H
C:\PROGRAM FILES (X86)\MICROSOFT VISUAL STUDIO 11.0\VC\ATLMFC\INCLUDE\AFXRES.H
C:\PROGRAM FILES (X86)\WINDOWS KITS\8.0\INCLUDE\UM\WINRES.H
C:\PROGRAM FILES (X86)\WINDOWS KITS\8.0\INCLUDE\UM\WINRESRC.H
C:\PROGRAM FILES (X86)\WINDOWS KITS\8.0\INCLUDE\UM\WINUSER.RH
C:\PROGRAM FILES (X86)\WINDOWS KITS\8.0\INCLUDE\UM\COMMCTRL.RH
C:\PROGRAM FILES (X86)\WINDOWS KITS\8.0\INCLUDE\UM\DDE.RH
C:\PROGRAM FILES (X86)\WINDOWS KITS\8.0\INCLUDE\UM\WINNT.RH
C:\PROGRAM FILES (X86)\WINDOWS KITS\8.0\INCLUDE\UM\DLGS.H
C:\PROGRAM FILES (X86)\WINDOWS KITS\8.0\INCLUDE\SHARED\WINAPIFAMILY.H
C:\PROGRAM FILES (X86)\WINDOWS KITS\8.0\INCLUDE\UM\WINVER.H
C:\PROGRAM FILES (X86)\WINDOWS KITS\8.0\INCLUDE\SHARED\SPECSTRINGS.H
C:\PROGRAM FILES (X86)\MICROSOFT VISUAL STUDIO 11.0\VC\INCLUDE\SAL.H
C:\PROGRAM FILES (X86)\MICROSOFT VISUAL STUDIO 11.0\VC\INCLUDE\CONCURRENCYSAL.H
C:\PROGRAM FILES (X86)\WINDOWS KITS\8.0\INCLUDE\SHARED\DRIVERSPECS.H
C:\PROGRAM FILES (X86)\WINDOWS KITS\8.0\INCLUDE\SHARED\SDV_DRIVERSPECS.H
C:\PROGRAM FILES (X86)\WINDOWS KITS\8.0\INCLUDE\UM\VERRSRC.H
D:\24DIALER\RUNNING\24PCDIALER\RES\SMOOTHDIALER.RC2
C:\PROGRAM FILES (X86)\MICROSOFT VISUAL STUDIO 11.0\VC\ATLMFC\INCLUDE\AFXRES.RC
D:\24DIALER\RUNNING\24PCDIALER\RES\24PCDIALER.ICO
D:\24DIALER\RUNNING\24PCDIALER\RES\MAIN_BG.BMP
D:\24DIALER\RUNNING\24PCDIALER\RES\DIAL_CALL.BMP
D:\24DIALER\RUNNING\24PCDIALER\RES\#.BMP
D:\24DIALER\RUNNING\24PCDIALER\RES\+.BMP
D:\24DIALER\RUNNING\24PCDIALER\RES\0.BMP
D:\24DIALER\RUNNING\24PCDIALER\RES\1.BMP
D:\24DIALER\RUNNING\24PCDIALER\RES\2.BMP
D:\24DIALER\RUNNING\24PCDIALER\RES\3.BMP
D:\24DIALER\RUNNING\24PCDIALER\RES\4.BMP
D:\24DIALER\RUNNING\24PCDIALER\RES\5.BMP
D:\24DIALER\RUNNING\24PCDIALER\RES\6.BMP
D:\24DIALER\RUNNING\24PCDIALER\RES\7.BMP
D:\24DIALER\RUNNING\24PCDIALER\RES\8.BMP
D:\24DIALER\RUNNING\24PCDIALER\RES\9.BMP
D:\24DIALER\RUNNING\24PCDIALER\RES\C.BMP
D:\24DIALER\RUNNING\24PCDIALER\RES\CANCEL.BMP
D:\24DIALER\RUNNING\24PCDIALER\RES\END_CALL.BMP
D:\24DIALER\RUNNING\24PCDIALER\RES\OK.BMP
D:\24DIALER\RUNNING\24PCDIALER\RES\LOGIN_BG.BMP
D:\24DIALER\RUNNING\24PCDIALER\RES\MIC.BMP
D:\24DIALER\RUNNING\24PCDIALER\RES\VOL.BMP
C:\PROGRAM FILES (X86)\MICROSOFT VISUAL STUDIO 11.0\VC\ATLMFC\INCLUDE\RES\HELP.CUR
C:\PROGRAM FILES (X86)\MICROSOFT VISUAL STUDIO 11.0\VC\ATLMFC\INCLUDE\RES\IM_PANN.CUR
C:\PROGRAM FILES (X86)\MICROSOFT VISUAL STUDIO 11.0\VC\ATLMFC\INCLUDE\RES\IM_PANS.CUR
C:\PROGRAM FILES (X86)\MICROSOFT VISUAL STUDIO 11.0\VC\ATLMFC\INCLUDE\RES\IM_PANE.CUR
C:\PROGRAM FILES (X86)\MICROSOFT VISUAL STUDIO 11.0\VC\ATLMFC\INCLUDE\RES\IM_PANW.CUR
C:\PROGRAM FILES (X86)\MICROSOFT VISUAL STUDIO 11.0\VC\ATLMFC\INCLUDE\RES\IM_PANNE.CUR
C:\PROGRAM FILES (X86)\MICROSOFT VISUAL STUDIO 11.0\VC\ATLMFC\INCLUDE\RES\IM_PANNW.CUR
C:\PROGRAM FILES (X86)\MICROSOFT VISUAL STUDIO 11.0\VC\ATLMFC\INCLUDE\RES\IM_PANSE.CUR
C:\PROGRAM FILES (X86)\MICROSOFT VISUAL STUDIO 11.0\VC\ATLMFC\INCLUDE\RES\IM_PANSW.CUR
C:\PROGRAM FILES (X86)\MICROSOFT VISUAL STUDIO 11.0\VC\ATLMFC\INCLUDE\RES\IM_PANH.CUR
C:\PROGRAM FILES (X86)\MICROSOFT VISUAL STUDIO 11.0\VC\ATLMFC\INCLUDE\RES\IM_PANV.CUR
C:\PROGRAM FILES (X86)\MICROSOFT VISUAL STUDIO 11.0\VC\ATLMFC\INCLUDE\RES\IM_PANHV.CUR
C:\PROGRAM FILES (X86)\MICROSOFT VISUAL STUDIO 11.0\VC\ATLMFC\INCLUDE\RES\IM_ORGH.CUR
C:\PROGRAM FILES (X86)\MICROSOFT VISUAL STUDIO 11.0\VC\ATLMFC\INCLUDE\RES\IM_ORGV.CUR
C:\PROGRAM FILES (X86)\MICROSOFT VISUAL STUDIO 11.0\VC\ATLMFC\INCLUDE\RES\IM_ORGHV.CUR
C:\PROGRAM FILES (X86)\MICROSOFT VISUAL STUDIO 11.0\VC\ATLMFC\INCLUDE\RES\MINIFWND.BMP
C:\PROGRAM FILES (X86)\MICROSOFT VISUAL STUDIO 11.0\VC\ATLMFC\INCLUDE\RES\95CHECK.BMP
