^D:\24DIALER\RUNNING\24DIALER\AUDIOENGINESYMBIAN.CPP
/c /Ig729 /ZI /nologo /W3 /WX- /Od /Oy- /D WIN32 /D _DEBUG /D _WINDOWS /D _VC80_UPGRADE=0x0600 /D _MBCS /D _AFXDLL /Gm /EHsc /RTC1 /MDd /GS /Gy- /fp:precise /Zc:wchar_t /Zc:forScope /Fo".\DEBUG\\" /Fd".\DEBUG\VC110.PDB" /FR".\Debug\\" /Gd /TP /analyze- D:\24DIALER\RUNNING\24DIALER\AUDIOENGINESYMBIAN.CPP
^D:\24DIALER\RUNNING\24DIALER\AUDIOTHREAD.CPP
/c /Ig729 /ZI /nologo /W3 /WX- /Od /Oy- /D WIN32 /D _DEBUG /D _WINDOWS /D _VC80_UPGRADE=0x0600 /D _MBCS /D _AFXDLL /Gm /EHsc /RTC1 /MDd /GS /Gy- /fp:precise /Zc:wchar_t /Zc:forScope /Fo".\DEBUG\\" /Fd".\DEBUG\VC110.PDB" /FR".\Debug\\" /Gd /TP /analyze- D:\24DIALER\RUNNING\24DIALER\AUDIOTHREAD.CPP
^D:\24DIALER\RUNNING\24DIALER\DIALERAGENT.CPP
/c /Ig729 /ZI /nologo /W3 /WX- /Od /Oy- /D WIN32 /D _DEBUG /D _WINDOWS /D _VC80_UPGRADE=0x0600 /D _MBCS /D _AFXDLL /Gm /EHsc /RTC1 /MDd /GS /Gy- /fp:precise /Zc:wchar_t /Zc:forScope /Fo".\DEBUG\\" /Fd".\DEBUG\VC110.PDB" /FR".\Debug\\" /Gd /TP /analyze- D:\24DIALER\RUNNING\24DIALER\DIALERAGENT.CPP
^D:\24DIALER\RUNNING\24DIALER\DIALERAGENTEXTENSION.CPP
/c /Ig729 /ZI /nologo /W3 /WX- /Od /Oy- /D WIN32 /D _DEBUG /D _WINDOWS /D _VC80_UPGRADE=0x0600 /D _MBCS /D _AFXDLL /Gm /EHsc /RTC1 /MDd /GS /Gy- /fp:precise /Zc:wchar_t /Zc:forScope /Fo".\DEBUG\\" /Fd".\DEBUG\VC110.PDB" /FR".\Debug\\" /Gd /TP /analyze- D:\24DIALER\RUNNING\24DIALER\DIALERAGENTEXTENSION.CPP
^D:\24DIALER\RUNNING\24DIALER\GLOBALS.CPP
/c /Ig729 /ZI /nologo /W3 /WX- /Od /Oy- /D WIN32 /D _DEBUG /D _WINDOWS /D _VC80_UPGRADE=0x0600 /D _MBCS /D _AFXDLL /Gm /EHsc /RTC1 /MDd /GS /Gy- /fp:precise /Zc:wchar_t /Zc:forScope /Fo".\DEBUG\\" /Fd".\DEBUG\VC110.PDB" /FR".\Debug\\" /Gd /TP /analyze- D:\24DIALER\RUNNING\24DIALER\GLOBALS.CPP
^D:\24DIALER\RUNNING\24DIALER\LOGINDLG.CPP
/c /Ig729 /ZI /nologo /W3 /WX- /Od /Oy- /D WIN32 /D _DEBUG /D _WINDOWS /D _VC80_UPGRADE=0x0600 /D _MBCS /D _AFXDLL /Gm /EHsc /RTC1 /MDd /GS /Gy- /fp:precise /Zc:wchar_t /Zc:forScope /Fo".\DEBUG\\" /Fd".\DEBUG\VC110.PDB" /FR".\Debug\\" /Gd /TP /analyze- D:\24DIALER\RUNNING\24DIALER\LOGINDLG.CPP
^D:\24DIALER\RUNNING\24DIALER\SMOOTHDIALER.CPP
/c /Ig729 /ZI /nologo /W3 /WX- /Od /Oy- /D WIN32 /D _DEBUG /D _WINDOWS /D _VC80_UPGRADE=0x0600 /D _MBCS /D _AFXDLL /Gm /EHsc /RTC1 /MDd /GS /Gy- /fp:precise /Zc:wchar_t /Zc:forScope /Fo".\DEBUG\\" /Fd".\DEBUG\VC110.PDB" /FR".\Debug\\" /Gd /TP /analyze- D:\24DIALER\RUNNING\24DIALER\SMOOTHDIALER.CPP
^D:\24DIALER\RUNNING\24DIALER\SMOOTHDIALERDLG.CPP
/c /Ig729 /ZI /nologo /W3 /WX- /Od /Oy- /D WIN32 /D _DEBUG /D _WINDOWS /D _VC80_UPGRADE=0x0600 /D _MBCS /D _AFXDLL /Gm /EHsc /RTC1 /MDd /GS /Gy- /fp:precise /Zc:wchar_t /Zc:forScope /Fo".\DEBUG\\" /Fd".\DEBUG\VC110.PDB" /FR".\Debug\\" /Gd /TP /analyze- D:\24DIALER\RUNNING\24DIALER\SMOOTHDIALERDLG.CPP
^D:\24DIALER\RUNNING\24DIALER\STDAFX.CPP
/c /Ig729 /ZI /nologo /W3 /WX- /Od /Oy- /D WIN32 /D _DEBUG /D _WINDOWS /D _VC80_UPGRADE=0x0600 /D _MBCS /D _AFXDLL /Gm /EHsc /RTC1 /MDd /GS /Gy- /fp:precise /Zc:wchar_t /Zc:forScope /Fo".\DEBUG\\" /Fd".\DEBUG\VC110.PDB" /FR".\Debug\\" /Gd /TP /analyze- D:\24DIALER\RUNNING\24DIALER\STDAFX.CPP
