﻿  stdafx.cpp
  AccountDialog.cpp
  AddContact.cpp
  audio_player.cpp
  audio_recorder.cpp
audio_recorder.cpp(140): warning C4018: '<' : signed/unsigned mismatch
  CallLog.cpp
  ContactView.cpp
  MyUtil.cpp
MyUtil.cpp(38): warning C4244: 'initializing' : conversion from 'ULONGLONG' to 'int', possible loss of data
MyUtil.cpp(124): warning C4244: 'initializing' : conversion from 'wchar_t' to 'char', possible loss of data
MyUtil.cpp(138): warning C4244: '=' : conversion from 'wchar_t' to 'char', possible loss of data
MyUtil.cpp(149): warning C4244: '=' : conversion from 'wchar_t' to 'char', possible loss of data
MyUtil.cpp(251): warning C4018: '<' : signed/unsigned mismatch
MyUtil.cpp(445): warning C4996: 'localtime': This function or variable may be unsafe. Consider using localtime_s instead. To disable deprecation, use _CRT_SECURE_NO_WARNINGS. See online help for details.
          C:\Program Files (x86)\Microsoft Visual Studio 11.0\VC\include\time.inl(112) : see declaration of 'localtime'
MyUtil.cpp(449): warning C4018: '<' : signed/unsigned mismatch
  SmoothDialer.cpp
  SmoothDialerDlg.cpp
SmoothDialerDlg.cpp(215): warning C4996: '_snprintf': This function or variable may be unsafe. Consider using _snprintf_s instead. To disable deprecation, use _CRT_SECURE_NO_WARNINGS. See online help for details.
          C:\Program Files (x86)\Microsoft Visual Studio 11.0\VC\include\stdio.h(349) : see declaration of '_snprintf'
SmoothDialerDlg.cpp(234): warning C4018: '<' : signed/unsigned mismatch
SmoothDialerDlg.cpp(498): warning C4996: '_snprintf': This function or variable may be unsafe. Consider using _snprintf_s instead. To disable deprecation, use _CRT_SECURE_NO_WARNINGS. See online help for details.
          C:\Program Files (x86)\Microsoft Visual Studio 11.0\VC\include\stdio.h(349) : see declaration of '_snprintf'
SmoothDialerDlg.cpp(499): warning C4996: '_snprintf': This function or variable may be unsafe. Consider using _snprintf_s instead. To disable deprecation, use _CRT_SECURE_NO_WARNINGS. See online help for details.
          C:\Program Files (x86)\Microsoft Visual Studio 11.0\VC\include\stdio.h(349) : see declaration of '_snprintf'
  Generating code
d:\24dialer\new folder\smoothdialer-pc\smoothdialer\audio_recorder.cpp(126): warning C4715: 'audio_recorder::alloc_record_buffer' : not all control paths return a value
  Finished generating code
  SmoothDialer.vcxproj -> D:\24Dialer\New folder\SmoothDialer-pc\Release\SmoothDialer.exe
