^D:\24DIALER\RUNNING\24DIALER\RELEASE\AUDIOENGINESYMBIAN.SBR|D:\24DIALER\RUNNING\24DIALER\RELEASE\AUDIOTHREAD.SBR|D:\24DIALER\RUNNING\24DIALER\RELEASE\CONTACTSDLG.SBR|D:\24DIALER\RUNNING\24DIALER\RELEASE\DIALERAGENT.SBR|D:\24DIALER\RUNNING\24DIALER\RELEASE\DIALERAGENTEXTENSION.SBR|D:\24DIALER\RUNNING\24DIALER\RELEASE\GLOBALS.SBR|D:\24DIALER\RUNNING\24DIALER\RELEASE\LOGINDLG.SBR|D:\24DIALER\RUNNING\24DIALER\RELEASE\SMOOTHDIALER.SBR|D:\24DIALER\RUNNING\24DIALER\RELEASE\SMOOTHDIALERDLG.SBR|D:\24DIALER\RUNNING\24DIALER\RELEASE\STDAFX.SBR
C:\WINDOWS\SYSTEM32\TZRES.DLL
D:\24DIALER\RUNNING\24DIALER\RELEASE\AUDIOENGINESYMBIAN.SBR
D:\24DIALER\RUNNING\24DIALER\RELEASE\AUDIOTHREAD.SBR
D:\24DIALER\RUNNING\24DIALER\RELEASE\CONTACTSDLG.SBR
D:\24DIALER\RUNNING\24DIALER\RELEASE\DIALERAGENT.SBR
D:\24DIALER\RUNNING\24DIALER\RELEASE\DIALERAGENTEXTENSION.SBR
D:\24DIALER\RUNNING\24DIALER\RELEASE\GLOBALS.SBR
D:\24DIALER\RUNNING\24DIALER\RELEASE\LOGINDLG.SBR
D:\24DIALER\RUNNING\24DIALER\RELEASE\SMOOTHDIALER.SBR
D:\24DIALER\RUNNING\24DIALER\RELEASE\SMOOTHDIALERDLG.SBR
D:\24DIALER\RUNNING\24DIALER\RELEASE\STDAFX.SBR
