^D:\24PCDIALER WORKS\NEW VERSION\DEVELOPING\FINAL\24PCDIALER\G729\STDAFX.CPP
/c /IInclude /IInclude\msinttypes /Zi /nologo /W3 /WX- /Od /Oy- /D WIN32 /D _DEBUG /D _WINDLL /D _UNICODE /D UNICODE /Gm- /EHsc /MTd /GS /fp:precise /Zc:wchar_t /Zc:forScope /Yc"stdafx.h" /Fp"DEBUG\G729.PCH" /Fo"DEBUG\\" /Fd"DEBUG\VC110.PDB" /Gd /TP /analyze- D:\24PCDIALER WORKS\NEW VERSION\DEVELOPING\FINAL\24PCDIALER\G729\STDAFX.CPP
^D:\24PCDIALER WORKS\NEW VERSION\DEVELOPING\FINAL\24PCDIALER\G729\ASSEMBLYINFO.CPP
/c /IInclude /IInclude\msinttypes /Zi /nologo /W3 /WX- /Od /Oy- /D WIN32 /D _DEBUG /D _WINDLL /D _UNICODE /D UNICODE /Gm- /EHsc /MTd /GS /fp:precise /Zc:wchar_t /Zc:forScope /Fo"DEBUG\\" /Fd"DEBUG\VC110.PDB" /Gd /TP /analyze- D:\24PCDIALER WORKS\NEW VERSION\DEVELOPING\FINAL\24PCDIALER\G729\ASSEMBLYINFO.CPP
^D:\24PCDIALER WORKS\NEW VERSION\DEVELOPING\FINAL\24PCDIALER\G729\SOURCE\ACELP_CA.C
/c /IInclude /IInclude\msinttypes /Zi /nologo /W3 /WX- /Od /Oy- /D WIN32 /D _DEBUG /D _WINDLL /D _UNICODE /D UNICODE /Gm- /EHsc /MTd /GS /fp:precise /Zc:wchar_t /Zc:forScope /Fo"DEBUG\\" /Fd"DEBUG\VC110.PDB" /Gd /TC /analyze- D:\24PCDIALER WORKS\NEW VERSION\DEVELOPING\FINAL\24PCDIALER\G729\SOURCE\ACELP_CA.C
^D:\24PCDIALER WORKS\NEW VERSION\DEVELOPING\FINAL\24PCDIALER\G729\SOURCE\BASIC_OP.C
/c /IInclude /IInclude\msinttypes /Zi /nologo /W3 /WX- /Od /Oy- /D WIN32 /D _DEBUG /D _WINDLL /D _UNICODE /D UNICODE /Gm- /EHsc /MTd /GS /fp:precise /Zc:wchar_t /Zc:forScope /Fo"DEBUG\\" /Fd"DEBUG\VC110.PDB" /Gd /TC /analyze- D:\24PCDIALER WORKS\NEW VERSION\DEVELOPING\FINAL\24PCDIALER\G729\SOURCE\BASIC_OP.C
^D:\24PCDIALER WORKS\NEW VERSION\DEVELOPING\FINAL\24PCDIALER\G729\SOURCE\BITS.C
/c /IInclude /IInclude\msinttypes /Zi /nologo /W3 /WX- /Od /Oy- /D WIN32 /D _DEBUG /D _WINDLL /D _UNICODE /D UNICODE /Gm- /EHsc /MTd /GS /fp:precise /Zc:wchar_t /Zc:forScope /Fo"DEBUG\\" /Fd"DEBUG\VC110.PDB" /Gd /TC /analyze- D:\24PCDIALER WORKS\NEW VERSION\DEVELOPING\FINAL\24PCDIALER\G729\SOURCE\BITS.C
^D:\24PCDIALER WORKS\NEW VERSION\DEVELOPING\FINAL\24PCDIALER\G729\SOURCE\COD_LD8A.C
/c /IInclude /IInclude\msinttypes /Zi /nologo /W3 /WX- /Od /Oy- /D WIN32 /D _DEBUG /D _WINDLL /D _UNICODE /D UNICODE /Gm- /EHsc /MTd /GS /fp:precise /Zc:wchar_t /Zc:forScope /Fo"DEBUG\\" /Fd"DEBUG\VC110.PDB" /Gd /TC /analyze- D:\24PCDIALER WORKS\NEW VERSION\DEVELOPING\FINAL\24PCDIALER\G729\SOURCE\COD_LD8A.C
^D:\24PCDIALER WORKS\NEW VERSION\DEVELOPING\FINAL\24PCDIALER\G729\SOURCE\COR_FUNC.C
/c /IInclude /IInclude\msinttypes /Zi /nologo /W3 /WX- /Od /Oy- /D WIN32 /D _DEBUG /D _WINDLL /D _UNICODE /D UNICODE /Gm- /EHsc /MTd /GS /fp:precise /Zc:wchar_t /Zc:forScope /Fo"DEBUG\\" /Fd"DEBUG\VC110.PDB" /Gd /TC /analyze- D:\24PCDIALER WORKS\NEW VERSION\DEVELOPING\FINAL\24PCDIALER\G729\SOURCE\COR_FUNC.C
^D:\24PCDIALER WORKS\NEW VERSION\DEVELOPING\FINAL\24PCDIALER\G729\SOURCE\DE_ACELP.C
/c /IInclude /IInclude\msinttypes /Zi /nologo /W3 /WX- /Od /Oy- /D WIN32 /D _DEBUG /D _WINDLL /D _UNICODE /D UNICODE /Gm- /EHsc /MTd /GS /fp:precise /Zc:wchar_t /Zc:forScope /Fo"DEBUG\\" /Fd"DEBUG\VC110.PDB" /Gd /TC /analyze- D:\24PCDIALER WORKS\NEW VERSION\DEVELOPING\FINAL\24PCDIALER\G729\SOURCE\DE_ACELP.C
^D:\24PCDIALER WORKS\NEW VERSION\DEVELOPING\FINAL\24PCDIALER\G729\SOURCE\DEC_GAIN.C
/c /IInclude /IInclude\msinttypes /Zi /nologo /W3 /WX- /Od /Oy- /D WIN32 /D _DEBUG /D _WINDLL /D _UNICODE /D UNICODE /Gm- /EHsc /MTd /GS /fp:precise /Zc:wchar_t /Zc:forScope /Fo"DEBUG\\" /Fd"DEBUG\VC110.PDB" /Gd /TC /analyze- D:\24PCDIALER WORKS\NEW VERSION\DEVELOPING\FINAL\24PCDIALER\G729\SOURCE\DEC_GAIN.C
^D:\24PCDIALER WORKS\NEW VERSION\DEVELOPING\FINAL\24PCDIALER\G729\SOURCE\DEC_LAG3.C
/c /IInclude /IInclude\msinttypes /Zi /nologo /W3 /WX- /Od /Oy- /D WIN32 /D _DEBUG /D _WINDLL /D _UNICODE /D UNICODE /Gm- /EHsc /MTd /GS /fp:precise /Zc:wchar_t /Zc:forScope /Fo"DEBUG\\" /Fd"DEBUG\VC110.PDB" /Gd /TC /analyze- D:\24PCDIALER WORKS\NEW VERSION\DEVELOPING\FINAL\24PCDIALER\G729\SOURCE\DEC_LAG3.C
^D:\24PCDIALER WORKS\NEW VERSION\DEVELOPING\FINAL\24PCDIALER\G729\SOURCE\DEC_LD8A.C
/c /IInclude /IInclude\msinttypes /Zi /nologo /W3 /WX- /Od /Oy- /D WIN32 /D _DEBUG /D _WINDLL /D _UNICODE /D UNICODE /Gm- /EHsc /MTd /GS /fp:precise /Zc:wchar_t /Zc:forScope /Fo"DEBUG\\" /Fd"DEBUG\VC110.PDB" /Gd /TC /analyze- D:\24PCDIALER WORKS\NEW VERSION\DEVELOPING\FINAL\24PCDIALER\G729\SOURCE\DEC_LD8A.C
^D:\24PCDIALER WORKS\NEW VERSION\DEVELOPING\FINAL\24PCDIALER\G729\SOURCE\DSPFUNC.C
/c /IInclude /IInclude\msinttypes /Zi /nologo /W3 /WX- /Od /Oy- /D WIN32 /D _DEBUG /D _WINDLL /D _UNICODE /D UNICODE /Gm- /EHsc /MTd /GS /fp:precise /Zc:wchar_t /Zc:forScope /Fo"DEBUG\\" /Fd"DEBUG\VC110.PDB" /Gd /TC /analyze- D:\24PCDIALER WORKS\NEW VERSION\DEVELOPING\FINAL\24PCDIALER\G729\SOURCE\DSPFUNC.C
^D:\24PCDIALER WORKS\NEW VERSION\DEVELOPING\FINAL\24PCDIALER\G729\SOURCE\FILTER.C
/c /IInclude /IInclude\msinttypes /Zi /nologo /W3 /WX- /Od /Oy- /D WIN32 /D _DEBUG /D _WINDLL /D _UNICODE /D UNICODE /Gm- /EHsc /MTd /GS /fp:precise /Zc:wchar_t /Zc:forScope /Fo"DEBUG\\" /Fd"DEBUG\VC110.PDB" /Gd /TC /analyze- D:\24PCDIALER WORKS\NEW VERSION\DEVELOPING\FINAL\24PCDIALER\G729\SOURCE\FILTER.C
^D:\24PCDIALER WORKS\NEW VERSION\DEVELOPING\FINAL\24PCDIALER\G729\SOURCE\G729A_DECODER.C
/c /IInclude /IInclude\msinttypes /Zi /nologo /W3 /WX- /Od /Oy- /D WIN32 /D _DEBUG /D _WINDLL /D _UNICODE /D UNICODE /Gm- /EHsc /MTd /GS /fp:precise /Zc:wchar_t /Zc:forScope /Fo"DEBUG\\" /Fd"DEBUG\VC110.PDB" /Gd /TC /analyze- D:\24PCDIALER WORKS\NEW VERSION\DEVELOPING\FINAL\24PCDIALER\G729\SOURCE\G729A_DECODER.C
^D:\24PCDIALER WORKS\NEW VERSION\DEVELOPING\FINAL\24PCDIALER\G729\SOURCE\G729A_ENCODER.C
/c /IInclude /IInclude\msinttypes /Zi /nologo /W3 /WX- /Od /Oy- /D WIN32 /D _DEBUG /D _WINDLL /D _UNICODE /D UNICODE /Gm- /EHsc /MTd /GS /fp:precise /Zc:wchar_t /Zc:forScope /Fo"DEBUG\\" /Fd"DEBUG\VC110.PDB" /Gd /TC /analyze- D:\24PCDIALER WORKS\NEW VERSION\DEVELOPING\FINAL\24PCDIALER\G729\SOURCE\G729A_ENCODER.C
^D:\24PCDIALER WORKS\NEW VERSION\DEVELOPING\FINAL\24PCDIALER\G729\SOURCE\GAINPRED.C
/c /IInclude /IInclude\msinttypes /Zi /nologo /W3 /WX- /Od /Oy- /D WIN32 /D _DEBUG /D _WINDLL /D _UNICODE /D UNICODE /Gm- /EHsc /MTd /GS /fp:precise /Zc:wchar_t /Zc:forScope /Fo"DEBUG\\" /Fd"DEBUG\VC110.PDB" /Gd /TC /analyze- D:\24PCDIALER WORKS\NEW VERSION\DEVELOPING\FINAL\24PCDIALER\G729\SOURCE\GAINPRED.C
^D:\24PCDIALER WORKS\NEW VERSION\DEVELOPING\FINAL\24PCDIALER\G729\SOURCE\LPC.C
/c /IInclude /IInclude\msinttypes /Zi /nologo /W3 /WX- /Od /Oy- /D WIN32 /D _DEBUG /D _WINDLL /D _UNICODE /D UNICODE /Gm- /EHsc /MTd /GS /fp:precise /Zc:wchar_t /Zc:forScope /Fo"DEBUG\\" /Fd"DEBUG\VC110.PDB" /Gd /TC /analyze- D:\24PCDIALER WORKS\NEW VERSION\DEVELOPING\FINAL\24PCDIALER\G729\SOURCE\LPC.C
^D:\24PCDIALER WORKS\NEW VERSION\DEVELOPING\FINAL\24PCDIALER\G729\SOURCE\LPCFUNC.C
/c /IInclude /IInclude\msinttypes /Zi /nologo /W3 /WX- /Od /Oy- /D WIN32 /D _DEBUG /D _WINDLL /D _UNICODE /D UNICODE /Gm- /EHsc /MTd /GS /fp:precise /Zc:wchar_t /Zc:forScope /Fo"DEBUG\\" /Fd"DEBUG\VC110.PDB" /Gd /TC /analyze- D:\24PCDIALER WORKS\NEW VERSION\DEVELOPING\FINAL\24PCDIALER\G729\SOURCE\LPCFUNC.C
^D:\24PCDIALER WORKS\NEW VERSION\DEVELOPING\FINAL\24PCDIALER\G729\SOURCE\LSPDEC.C
/c /IInclude /IInclude\msinttypes /Zi /nologo /W3 /WX- /Od /Oy- /D WIN32 /D _DEBUG /D _WINDLL /D _UNICODE /D UNICODE /Gm- /EHsc /MTd /GS /fp:precise /Zc:wchar_t /Zc:forScope /Fo"DEBUG\\" /Fd"DEBUG\VC110.PDB" /Gd /TC /analyze- D:\24PCDIALER WORKS\NEW VERSION\DEVELOPING\FINAL\24PCDIALER\G729\SOURCE\LSPDEC.C
^D:\24PCDIALER WORKS\NEW VERSION\DEVELOPING\FINAL\24PCDIALER\G729\SOURCE\LSPGETQ.C
/c /IInclude /IInclude\msinttypes /Zi /nologo /W3 /WX- /Od /Oy- /D WIN32 /D _DEBUG /D _WINDLL /D _UNICODE /D UNICODE /Gm- /EHsc /MTd /GS /fp:precise /Zc:wchar_t /Zc:forScope /Fo"DEBUG\\" /Fd"DEBUG\VC110.PDB" /Gd /TC /analyze- D:\24PCDIALER WORKS\NEW VERSION\DEVELOPING\FINAL\24PCDIALER\G729\SOURCE\LSPGETQ.C
^D:\24PCDIALER WORKS\NEW VERSION\DEVELOPING\FINAL\24PCDIALER\G729\SOURCE\MAIN.C
/c /IInclude /IInclude\msinttypes /Zi /nologo /W3 /WX- /Od /Oy- /D WIN32 /D _DEBUG /D _WINDLL /D _UNICODE /D UNICODE /Gm- /EHsc /MTd /GS /fp:precise /Zc:wchar_t /Zc:forScope /Fo"DEBUG\\" /Fd"DEBUG\VC110.PDB" /Gd /TC /analyze- D:\24PCDIALER WORKS\NEW VERSION\DEVELOPING\FINAL\24PCDIALER\G729\SOURCE\MAIN.C
^D:\24PCDIALER WORKS\NEW VERSION\DEVELOPING\FINAL\24PCDIALER\G729\SOURCE\OPER_32B.C
/c /IInclude /IInclude\msinttypes /Zi /nologo /W3 /WX- /Od /Oy- /D WIN32 /D _DEBUG /D _WINDLL /D _UNICODE /D UNICODE /Gm- /EHsc /MTd /GS /fp:precise /Zc:wchar_t /Zc:forScope /Fo"DEBUG\\" /Fd"DEBUG\VC110.PDB" /Gd /TC /analyze- D:\24PCDIALER WORKS\NEW VERSION\DEVELOPING\FINAL\24PCDIALER\G729\SOURCE\OPER_32B.C
^D:\24PCDIALER WORKS\NEW VERSION\DEVELOPING\FINAL\24PCDIALER\G729\SOURCE\P_PARITY.C
/c /IInclude /IInclude\msinttypes /Zi /nologo /W3 /WX- /Od /Oy- /D WIN32 /D _DEBUG /D _WINDLL /D _UNICODE /D UNICODE /Gm- /EHsc /MTd /GS /fp:precise /Zc:wchar_t /Zc:forScope /Fo"DEBUG\\" /Fd"DEBUG\VC110.PDB" /Gd /TC /analyze- D:\24PCDIALER WORKS\NEW VERSION\DEVELOPING\FINAL\24PCDIALER\G729\SOURCE\P_PARITY.C
^D:\24PCDIALER WORKS\NEW VERSION\DEVELOPING\FINAL\24PCDIALER\G729\SOURCE\PITCH_A.C
/c /IInclude /IInclude\msinttypes /Zi /nologo /W3 /WX- /Od /Oy- /D WIN32 /D _DEBUG /D _WINDLL /D _UNICODE /D UNICODE /Gm- /EHsc /MTd /GS /fp:precise /Zc:wchar_t /Zc:forScope /Fo"DEBUG\\" /Fd"DEBUG\VC110.PDB" /Gd /TC /analyze- D:\24PCDIALER WORKS\NEW VERSION\DEVELOPING\FINAL\24PCDIALER\G729\SOURCE\PITCH_A.C
^D:\24PCDIALER WORKS\NEW VERSION\DEVELOPING\FINAL\24PCDIALER\G729\SOURCE\POST_PRO.C
/c /IInclude /IInclude\msinttypes /Zi /nologo /W3 /WX- /Od /Oy- /D WIN32 /D _DEBUG /D _WINDLL /D _UNICODE /D UNICODE /Gm- /EHsc /MTd /GS /fp:precise /Zc:wchar_t /Zc:forScope /Fo"DEBUG\\" /Fd"DEBUG\VC110.PDB" /Gd /TC /analyze- D:\24PCDIALER WORKS\NEW VERSION\DEVELOPING\FINAL\24PCDIALER\G729\SOURCE\POST_PRO.C
^D:\24PCDIALER WORKS\NEW VERSION\DEVELOPING\FINAL\24PCDIALER\G729\SOURCE\POSTFILT.C
/c /IInclude /IInclude\msinttypes /Zi /nologo /W3 /WX- /Od /Oy- /D WIN32 /D _DEBUG /D _WINDLL /D _UNICODE /D UNICODE /Gm- /EHsc /MTd /GS /fp:precise /Zc:wchar_t /Zc:forScope /Fo"DEBUG\\" /Fd"DEBUG\VC110.PDB" /Gd /TC /analyze- D:\24PCDIALER WORKS\NEW VERSION\DEVELOPING\FINAL\24PCDIALER\G729\SOURCE\POSTFILT.C
^D:\24PCDIALER WORKS\NEW VERSION\DEVELOPING\FINAL\24PCDIALER\G729\SOURCE\PRE_PROC.C
/c /IInclude /IInclude\msinttypes /Zi /nologo /W3 /WX- /Od /Oy- /D WIN32 /D _DEBUG /D _WINDLL /D _UNICODE /D UNICODE /Gm- /EHsc /MTd /GS /fp:precise /Zc:wchar_t /Zc:forScope /Fo"DEBUG\\" /Fd"DEBUG\VC110.PDB" /Gd /TC /analyze- D:\24PCDIALER WORKS\NEW VERSION\DEVELOPING\FINAL\24PCDIALER\G729\SOURCE\PRE_PROC.C
^D:\24PCDIALER WORKS\NEW VERSION\DEVELOPING\FINAL\24PCDIALER\G729\SOURCE\PRED_LT3.C
/c /IInclude /IInclude\msinttypes /Zi /nologo /W3 /WX- /Od /Oy- /D WIN32 /D _DEBUG /D _WINDLL /D _UNICODE /D UNICODE /Gm- /EHsc /MTd /GS /fp:precise /Zc:wchar_t /Zc:forScope /Fo"DEBUG\\" /Fd"DEBUG\VC110.PDB" /Gd /TC /analyze- D:\24PCDIALER WORKS\NEW VERSION\DEVELOPING\FINAL\24PCDIALER\G729\SOURCE\PRED_LT3.C
^D:\24PCDIALER WORKS\NEW VERSION\DEVELOPING\FINAL\24PCDIALER\G729\SOURCE\QUA_GAIN.C
/c /IInclude /IInclude\msinttypes /Zi /nologo /W3 /WX- /Od /Oy- /D WIN32 /D _DEBUG /D _WINDLL /D _UNICODE /D UNICODE /Gm- /EHsc /MTd /GS /fp:precise /Zc:wchar_t /Zc:forScope /Fo"DEBUG\\" /Fd"DEBUG\VC110.PDB" /Gd /TC /analyze- D:\24PCDIALER WORKS\NEW VERSION\DEVELOPING\FINAL\24PCDIALER\G729\SOURCE\QUA_GAIN.C
^D:\24PCDIALER WORKS\NEW VERSION\DEVELOPING\FINAL\24PCDIALER\G729\SOURCE\QUA_LSP.C
/c /IInclude /IInclude\msinttypes /Zi /nologo /W3 /WX- /Od /Oy- /D WIN32 /D _DEBUG /D _WINDLL /D _UNICODE /D UNICODE /Gm- /EHsc /MTd /GS /fp:precise /Zc:wchar_t /Zc:forScope /Fo"DEBUG\\" /Fd"DEBUG\VC110.PDB" /Gd /TC /analyze- D:\24PCDIALER WORKS\NEW VERSION\DEVELOPING\FINAL\24PCDIALER\G729\SOURCE\QUA_LSP.C
^D:\24PCDIALER WORKS\NEW VERSION\DEVELOPING\FINAL\24PCDIALER\G729\SOURCE\ROUND.C
/c /IInclude /IInclude\msinttypes /Zi /nologo /W3 /WX- /Od /Oy- /D WIN32 /D _DEBUG /D _WINDLL /D _UNICODE /D UNICODE /Gm- /EHsc /MTd /GS /fp:precise /Zc:wchar_t /Zc:forScope /Fo"DEBUG\\" /Fd"DEBUG\VC110.PDB" /Gd /TC /analyze- D:\24PCDIALER WORKS\NEW VERSION\DEVELOPING\FINAL\24PCDIALER\G729\SOURCE\ROUND.C
^D:\24PCDIALER WORKS\NEW VERSION\DEVELOPING\FINAL\24PCDIALER\G729\SOURCE\TAB_LD8A.C
/c /IInclude /IInclude\msinttypes /Zi /nologo /W3 /WX- /Od /Oy- /D WIN32 /D _DEBUG /D _WINDLL /D _UNICODE /D UNICODE /Gm- /EHsc /MTd /GS /fp:precise /Zc:wchar_t /Zc:forScope /Fo"DEBUG\\" /Fd"DEBUG\VC110.PDB" /Gd /TC /analyze- D:\24PCDIALER WORKS\NEW VERSION\DEVELOPING\FINAL\24PCDIALER\G729\SOURCE\TAB_LD8A.C
^D:\24PCDIALER WORKS\NEW VERSION\DEVELOPING\FINAL\24PCDIALER\G729\SOURCE\TAMING.C
/c /IInclude /IInclude\msinttypes /Zi /nologo /W3 /WX- /Od /Oy- /D WIN32 /D _DEBUG /D _WINDLL /D _UNICODE /D UNICODE /Gm- /EHsc /MTd /GS /fp:precise /Zc:wchar_t /Zc:forScope /Fo"DEBUG\\" /Fd"DEBUG\VC110.PDB" /Gd /TC /analyze- D:\24PCDIALER WORKS\NEW VERSION\DEVELOPING\FINAL\24PCDIALER\G729\SOURCE\TAMING.C
^D:\24PCDIALER WORKS\NEW VERSION\DEVELOPING\FINAL\24PCDIALER\G729\SOURCE\UTIL.C
/c /IInclude /IInclude\msinttypes /Zi /nologo /W3 /WX- /Od /Oy- /D WIN32 /D _DEBUG /D _WINDLL /D _UNICODE /D UNICODE /Gm- /EHsc /MTd /GS /fp:precise /Zc:wchar_t /Zc:forScope /Fo"DEBUG\\" /Fd"DEBUG\VC110.PDB" /Gd /TC /analyze- D:\24PCDIALER WORKS\NEW VERSION\DEVELOPING\FINAL\24PCDIALER\G729\SOURCE\UTIL.C
