^D:\24PCDIALER WORKS\NEW VERSION\DEVELOPING\FINAL\24PCDIALER\G729\DEBUG\ACELP_CA.OBJ|D:\24PCDIALER WORKS\NEW VERSION\DEVELOPING\FINAL\24PCDIALER\G729\DEBUG\APP.RES|D:\24PCDIALER WORKS\NEW VERSION\DEVELOPING\FINAL\24PCDIALER\G729\DEBUG\ASSEMBLYINFO.OBJ|D:\24PCDIALER WORKS\NEW VERSION\DEVELOPING\FINAL\24PCDIALER\G729\DEBUG\BASIC_OP.OBJ|D:\24PCDIALER WORKS\NEW VERSION\DEVELOPING\FINAL\24PCDIALER\G729\DEBUG\BITS.OBJ|D:\24PCDIALER WORKS\NEW VERSION\DEVELOPING\FINAL\24PCDIALER\G729\DEBUG\COD_LD8A.OBJ|D:\24PCDIALER WORKS\NEW VERSION\DEVELOPING\FINAL\24PCDIALER\G729\DEBUG\COR_FUNC.OBJ|D:\24PCDIALER WORKS\NEW VERSION\DEVELOPING\FINAL\24PCDIALER\G729\DEBUG\DEC_GAIN.OBJ|D:\24PCDIALER WORKS\NEW VERSION\DEVELOPING\FINAL\24PCDIALER\G729\DEBUG\DEC_LAG3.OBJ|D:\24PCDIALER WORKS\NEW VERSION\DEVELOPING\FINAL\24PCDIALER\G729\DEBUG\DEC_LD8A.OBJ|D:\24PCDIALER WORKS\NEW VERSION\DEVELOPING\FINAL\24PCDIALER\G729\DEBUG\DE_ACELP.OBJ|D:\24PCDIALER WORKS\NEW VERSION\DEVELOPING\FINAL\24PCDIALER\G729\DEBUG\DSPFUNC.OBJ|D:\24PCDIALER WORKS\NEW VERSION\DEVELOPING\FINAL\24PCDIALER\G729\DEBUG\FILTER.OBJ|D:\24PCDIALER WORKS\NEW VERSION\DEVELOPING\FINAL\24PCDIALER\G729\DEBUG\G729A_DECODER.OBJ|D:\24PCDIALER WORKS\NEW VERSION\DEVELOPING\FINAL\24PCDIALER\G729\DEBUG\G729A_ENCODER.OBJ|D:\24PCDIALER WORKS\NEW VERSION\DEVELOPING\FINAL\24PCDIALER\G729\DEBUG\GAINPRED.OBJ|D:\24PCDIALER WORKS\NEW VERSION\DEVELOPING\FINAL\24PCDIALER\G729\DEBUG\LPC.OBJ|D:\24PCDIALER WORKS\NEW VERSION\DEVELOPING\FINAL\24PCDIALER\G729\DEBUG\LPCFUNC.OBJ|D:\24PCDIALER WORKS\NEW VERSION\DEVELOPING\FINAL\24PCDIALER\G729\DEBUG\LSPDEC.OBJ|D:\24PCDIALER WORKS\NEW VERSION\DEVELOPING\FINAL\24PCDIALER\G729\DEBUG\LSPGETQ.OBJ|D:\24PCDIALER WORKS\NEW VERSION\DEVELOPING\FINAL\24PCDIALER\G729\DEBUG\MAIN.OBJ|D:\24PCDIALER WORKS\NEW VERSION\DEVELOPING\FINAL\24PCDIALER\G729\DEBUG\OPER_32B.OBJ|D:\24PCDIALER WORKS\NEW VERSION\DEVELOPING\FINAL\24PCDIALER\G729\DEBUG\PITCH_A.OBJ|D:\24PCDIALER WORKS\NEW VERSION\DEVELOPING\FINAL\24PCDIALER\G729\DEBUG\POSTFILT.OBJ|D:\24PCDIALER WORKS\NEW VERSION\DEVELOPING\FINAL\24PCDIALER\G729\DEBUG\POST_PRO.OBJ|D:\24PCDIALER WORKS\NEW VERSION\DEVELOPING\FINAL\24PCDIALER\G729\DEBUG\PRED_LT3.OBJ|D:\24PCDIALER WORKS\NEW VERSION\DEVELOPING\FINAL\24PCDIALER\G729\DEBUG\PRE_PROC.OBJ|D:\24PCDIALER WORKS\NEW VERSION\DEVELOPING\FINAL\24PCDIALER\G729\DEBUG\P_PARITY.OBJ|D:\24PCDIALER WORKS\NEW VERSION\DEVELOPING\FINAL\24PCDIALER\G729\DEBUG\QUA_GAIN.OBJ|D:\24PCDIALER WORKS\NEW VERSION\DEVELOPING\FINAL\24PCDIALER\G729\DEBUG\QUA_LSP.OBJ|D:\24PCDIALER WORKS\NEW VERSION\DEVELOPING\FINAL\24PCDIALER\G729\DEBUG\ROUND.OBJ|D:\24PCDIALER WORKS\NEW VERSION\DEVELOPING\FINAL\24PCDIALER\G729\DEBUG\STDAFX.OBJ|D:\24PCDIALER WORKS\NEW VERSION\DEVELOPING\FINAL\24PCDIALER\G729\DEBUG\TAB_LD8A.OBJ|D:\24PCDIALER WORKS\NEW VERSION\DEVELOPING\FINAL\24PCDIALER\G729\DEBUG\TAMING.OBJ|D:\24PCDIALER WORKS\NEW VERSION\DEVELOPING\FINAL\24PCDIALER\G729\DEBUG\UTIL.OBJ
D:\24PCDIALER WORKS\NEW VERSION\DEVELOPING\FINAL\24PCDIALER\G729\DEBUG\APP.RES
D:\24PCDIALER WORKS\NEW VERSION\DEVELOPING\FINAL\24PCDIALER\G729\DEBUG\ASSEMBLYINFO.OBJ
D:\24PCDIALER WORKS\NEW VERSION\DEVELOPING\FINAL\24PCDIALER\G729\DEBUG\STDAFX.OBJ
D:\24PCDIALER WORKS\NEW VERSION\DEVELOPING\FINAL\24PCDIALER\G729\DEBUG\ACELP_CA.OBJ
D:\24PCDIALER WORKS\NEW VERSION\DEVELOPING\FINAL\24PCDIALER\G729\DEBUG\BASIC_OP.OBJ
D:\24PCDIALER WORKS\NEW VERSION\DEVELOPING\FINAL\24PCDIALER\G729\DEBUG\BITS.OBJ
D:\24PCDIALER WORKS\NEW VERSION\DEVELOPING\FINAL\24PCDIALER\G729\DEBUG\COD_LD8A.OBJ
D:\24PCDIALER WORKS\NEW VERSION\DEVELOPING\FINAL\24PCDIALER\G729\DEBUG\COR_FUNC.OBJ
D:\24PCDIALER WORKS\NEW VERSION\DEVELOPING\FINAL\24PCDIALER\G729\DEBUG\DE_ACELP.OBJ
D:\24PCDIALER WORKS\NEW VERSION\DEVELOPING\FINAL\24PCDIALER\G729\DEBUG\DEC_GAIN.OBJ
D:\24PCDIALER WORKS\NEW VERSION\DEVELOPING\FINAL\24PCDIALER\G729\DEBUG\DEC_LAG3.OBJ
D:\24PCDIALER WORKS\NEW VERSION\DEVELOPING\FINAL\24PCDIALER\G729\DEBUG\DEC_LD8A.OBJ
D:\24PCDIALER WORKS\NEW VERSION\DEVELOPING\FINAL\24PCDIALER\G729\DEBUG\DSPFUNC.OBJ
D:\24PCDIALER WORKS\NEW VERSION\DEVELOPING\FINAL\24PCDIALER\G729\DEBUG\FILTER.OBJ
D:\24PCDIALER WORKS\NEW VERSION\DEVELOPING\FINAL\24PCDIALER\G729\DEBUG\G729A_DECODER.OBJ
D:\24PCDIALER WORKS\NEW VERSION\DEVELOPING\FINAL\24PCDIALER\G729\DEBUG\G729A_ENCODER.OBJ
D:\24PCDIALER WORKS\NEW VERSION\DEVELOPING\FINAL\24PCDIALER\G729\DEBUG\GAINPRED.OBJ
D:\24PCDIALER WORKS\NEW VERSION\DEVELOPING\FINAL\24PCDIALER\G729\DEBUG\LPC.OBJ
D:\24PCDIALER WORKS\NEW VERSION\DEVELOPING\FINAL\24PCDIALER\G729\DEBUG\LPCFUNC.OBJ
D:\24PCDIALER WORKS\NEW VERSION\DEVELOPING\FINAL\24PCDIALER\G729\DEBUG\LSPDEC.OBJ
D:\24PCDIALER WORKS\NEW VERSION\DEVELOPING\FINAL\24PCDIALER\G729\DEBUG\LSPGETQ.OBJ
D:\24PCDIALER WORKS\NEW VERSION\DEVELOPING\FINAL\24PCDIALER\G729\DEBUG\MAIN.OBJ
D:\24PCDIALER WORKS\NEW VERSION\DEVELOPING\FINAL\24PCDIALER\G729\DEBUG\OPER_32B.OBJ
D:\24PCDIALER WORKS\NEW VERSION\DEVELOPING\FINAL\24PCDIALER\G729\DEBUG\P_PARITY.OBJ
D:\24PCDIALER WORKS\NEW VERSION\DEVELOPING\FINAL\24PCDIALER\G729\DEBUG\PITCH_A.OBJ
D:\24PCDIALER WORKS\NEW VERSION\DEVELOPING\FINAL\24PCDIALER\G729\DEBUG\POST_PRO.OBJ
D:\24PCDIALER WORKS\NEW VERSION\DEVELOPING\FINAL\24PCDIALER\G729\DEBUG\POSTFILT.OBJ
D:\24PCDIALER WORKS\NEW VERSION\DEVELOPING\FINAL\24PCDIALER\G729\DEBUG\PRE_PROC.OBJ
D:\24PCDIALER WORKS\NEW VERSION\DEVELOPING\FINAL\24PCDIALER\G729\DEBUG\PRED_LT3.OBJ
D:\24PCDIALER WORKS\NEW VERSION\DEVELOPING\FINAL\24PCDIALER\G729\DEBUG\QUA_GAIN.OBJ
D:\24PCDIALER WORKS\NEW VERSION\DEVELOPING\FINAL\24PCDIALER\G729\DEBUG\QUA_LSP.OBJ
D:\24PCDIALER WORKS\NEW VERSION\DEVELOPING\FINAL\24PCDIALER\G729\DEBUG\ROUND.OBJ
D:\24PCDIALER WORKS\NEW VERSION\DEVELOPING\FINAL\24PCDIALER\G729\DEBUG\TAB_LD8A.OBJ
D:\24PCDIALER WORKS\NEW VERSION\DEVELOPING\FINAL\24PCDIALER\G729\DEBUG\TAMING.OBJ
D:\24PCDIALER WORKS\NEW VERSION\DEVELOPING\FINAL\24PCDIALER\G729\DEBUG\UTIL.OBJ
C:\WINDOWS\GLOBALIZATION\SORTING\SORTDEFAULT.NLS
C:\PROGRAM FILES (X86)\MICROSOFT VISUAL STUDIO 11.0\VC\LIB\LIBCMTD.LIB
C:\PROGRAM FILES (X86)\MICROSOFT VISUAL STUDIO 11.0\VC\LIB\OLDNAMES.LIB
C:\PROGRAM FILES (X86)\WINDOWS KITS\8.0\LIB\WIN8\UM\X86\KERNEL32.LIB
C:\PROGRAM FILES (X86)\WINDOWS KITS\8.0\LIB\WIN8\UM\X86\UUID.LIB
C:\PROGRAM FILES (X86)\WINDOWS KITS\8.0\BIN\X86\MT.EXE
C:\PROGRAM FILES (X86)\WINDOWS KITS\8.0\BIN\X86\RC.EXE
C:\PROGRAM FILES (X86)\MICROSOFT VISUAL STUDIO 11.0\VC\BIN\CVTRES.EXE
C:\WINDOWS\SYSTEM32\TZRES.DLL
C:\PROGRAM FILES (X86)\MICROSOFT VISUAL STUDIO 11.0\VC\INCLUDE\MANIFEST\DPIAWARE.MANIFEST
