^D:\24PCDIALER WORKS\NEW VERSION\INTELVOIZ\24PCDIALER\DIALERAGENT\ASSEMBLYINFO.CPP
/c /I..\G729\Include /Zi /nologo /W3 /WX- /Od /Oy- /D WIN32 /D _DEBUG /D _UNICODE /D UNICODE /Gm- /EHsc /MTd /GS /fp:precise /Zc:wchar_t /Zc:forScope /Fo"DEBUG\\" /Fd"DEBUG\VC110.PDB" /Gd /TP /analyze- D:\24PCDIALER WORKS\NEW VERSION\INTELVOIZ\24PCDIALER\DIALERAGENT\ASSEMBLYINFO.CPP
^D:\24PCDIALER WORKS\NEW VERSION\INTELVOIZ\24PCDIALER\DIALERAGENT\DIALER_AGENT.CPP
/c /I..\G729\Include /Zi /nologo /W3 /WX- /Od /Oy- /D WIN32 /D _DEBUG /D _UNICODE /D UNICODE /Gm- /EHsc /MTd /GS /fp:precise /Zc:wchar_t /Zc:forScope /Fo"DEBUG\\" /Fd"DEBUG\VC110.PDB" /Gd /TP /analyze- D:\24PCDIALER WORKS\NEW VERSION\INTELVOIZ\24PCDIALER\DIALERAGENT\DIALER_AGENT.CPP
^D:\24PCDIALER WORKS\NEW VERSION\INTELVOIZ\24PCDIALER\DIALERAGENT\DIALER_AGENT_UTIL.CPP
/c /I..\G729\Include /Zi /nologo /W3 /WX- /Od /Oy- /D WIN32 /D _DEBUG /D _UNICODE /D UNICODE /Gm- /EHsc /MTd /GS /fp:precise /Zc:wchar_t /Zc:forScope /Fo"DEBUG\\" /Fd"DEBUG\VC110.PDB" /Gd /TP /analyze- D:\24PCDIALER WORKS\NEW VERSION\INTELVOIZ\24PCDIALER\DIALERAGENT\DIALER_AGENT_UTIL.CPP
^D:\24PCDIALER WORKS\NEW VERSION\INTELVOIZ\24PCDIALER\DIALERAGENT\DIALER_TUNNEL.CPP
/c /I..\G729\Include /Zi /nologo /W3 /WX- /Od /Oy- /D WIN32 /D _DEBUG /D _UNICODE /D UNICODE /Gm- /EHsc /MTd /GS /fp:precise /Zc:wchar_t /Zc:forScope /Fo"DEBUG\\" /Fd"DEBUG\VC110.PDB" /Gd /TP /analyze- D:\24PCDIALER WORKS\NEW VERSION\INTELVOIZ\24PCDIALER\DIALERAGENT\DIALER_TUNNEL.CPP
^D:\24PCDIALER WORKS\NEW VERSION\INTELVOIZ\24PCDIALER\DIALERAGENT\NETWORK_POLLER.CPP
/c /I..\G729\Include /Zi /nologo /W3 /WX- /Od /Oy- /D WIN32 /D _DEBUG /D _UNICODE /D UNICODE /Gm- /EHsc /MTd /GS /fp:precise /Zc:wchar_t /Zc:forScope /Fo"DEBUG\\" /Fd"DEBUG\VC110.PDB" /Gd /TP /analyze- D:\24PCDIALER WORKS\NEW VERSION\INTELVOIZ\24PCDIALER\DIALERAGENT\NETWORK_POLLER.CPP
