^D:\24DIALER\NEW VERSION\24PCDIALER\WITHOUT BRUSH\24PCDIALER\SMOOTHDIALER\STDAFX.CPP
D:\24DIALER\NEW VERSION\24PCDIALER\WITHOUT BRUSH\24PCDIALER\SMOOTHDIALER\DEBUG\24PCDIALER.PCH
D:\24DIALER\NEW VERSION\24PCDIALER\WITHOUT BRUSH\24PCDIALER\SMOOTHDIALER\DEBUG\STDAFX.OBJ
D:\24DIALER\NEW VERSION\24PCDIALER\WITHOUT BRUSH\24PCDIALER\SMOOTHDIALER\DEBUG\VC110.PDB
^D:\24DIALER\NEW VERSION\24PCDIALER\WITHOUT BRUSH\24PCDIALER\SMOOTHDIALER\ACCOUNTDIALOG.CPP|D:\24DIALER\NEW VERSION\24PCDIALER\WITHOUT BRUSH\24PCDIALER\SMOOTHDIALER\ADDCONTACT.CPP|D:\24DIALER\NEW VERSION\24PCDIALER\WITHOUT BRUSH\24PCDIALER\SMOOTHDIALER\AUDIO_PLAYER.CPP|D:\24DIALER\NEW VERSION\24PCDIALER\WITHOUT BRUSH\24PCDIALER\SMOOTHDIALER\AUDIO_RECORDER.CPP|D:\24DIALER\NEW VERSION\24PCDIALER\WITHOUT BRUSH\24PCDIALER\SMOOTHDIALER\CALLLOG.CPP|D:\24DIALER\NEW VERSION\24PCDIALER\WITHOUT BRUSH\24PCDIALER\SMOOTHDIALER\CONTACTVIEW.CPP|D:\24DIALER\NEW VERSION\24PCDIALER\WITHOUT BRUSH\24PCDIALER\SMOOTHDIALER\MYUTIL.CPP|D:\24DIALER\NEW VERSION\24PCDIALER\WITHOUT BRUSH\24PCDIALER\SMOOTHDIALER\SMOOTHDIALER.CPP|D:\24DIALER\NEW VERSION\24PCDIALER\WITHOUT BRUSH\24PCDIALER\SMOOTHDIALER\SMOOTHDIALERDLG.CPP
D:\24DIALER\NEW VERSION\24PCDIALER\WITHOUT BRUSH\24PCDIALER\SMOOTHDIALER\DEBUG\ACCOUNTDIALOG.OBJ
D:\24DIALER\NEW VERSION\24PCDIALER\WITHOUT BRUSH\24PCDIALER\SMOOTHDIALER\DEBUG\ADDCONTACT.OBJ
D:\24DIALER\NEW VERSION\24PCDIALER\WITHOUT BRUSH\24PCDIALER\SMOOTHDIALER\DEBUG\AUDIO_PLAYER.OBJ
D:\24DIALER\NEW VERSION\24PCDIALER\WITHOUT BRUSH\24PCDIALER\SMOOTHDIALER\DEBUG\AUDIO_RECORDER.OBJ
D:\24DIALER\NEW VERSION\24PCDIALER\WITHOUT BRUSH\24PCDIALER\SMOOTHDIALER\DEBUG\CALLLOG.OBJ
D:\24DIALER\NEW VERSION\24PCDIALER\WITHOUT BRUSH\24PCDIALER\SMOOTHDIALER\DEBUG\CONTACTVIEW.OBJ
D:\24DIALER\NEW VERSION\24PCDIALER\WITHOUT BRUSH\24PCDIALER\SMOOTHDIALER\DEBUG\MYUTIL.OBJ
D:\24DIALER\NEW VERSION\24PCDIALER\WITHOUT BRUSH\24PCDIALER\SMOOTHDIALER\DEBUG\SMOOTHDIALER.OBJ
D:\24DIALER\NEW VERSION\24PCDIALER\WITHOUT BRUSH\24PCDIALER\SMOOTHDIALER\DEBUG\SMOOTHDIALERDLG.OBJ
^D:\24DIALER\NEW VERSION\24PCDIALER\WITHOUT BRUSH\24PCDIALER\SMOOTHDIALER\ACCOUNTDIALOG.CPP
D:\24DIALER\NEW VERSION\24PCDIALER\WITHOUT BRUSH\24PCDIALER\SMOOTHDIALER\DEBUG\VC110.PDB
^D:\24DIALER\NEW VERSION\24PCDIALER\WITHOUT BRUSH\24PCDIALER\SMOOTHDIALER\ADDCONTACT.CPP
D:\24DIALER\NEW VERSION\24PCDIALER\WITHOUT BRUSH\24PCDIALER\SMOOTHDIALER\DEBUG\VC110.PDB
^D:\24DIALER\NEW VERSION\24PCDIALER\WITHOUT BRUSH\24PCDIALER\SMOOTHDIALER\AUDIO_PLAYER.CPP
D:\24DIALER\NEW VERSION\24PCDIALER\WITHOUT BRUSH\24PCDIALER\SMOOTHDIALER\DEBUG\VC110.PDB
^D:\24DIALER\NEW VERSION\24PCDIALER\WITHOUT BRUSH\24PCDIALER\SMOOTHDIALER\AUDIO_RECORDER.CPP
D:\24DIALER\NEW VERSION\24PCDIALER\WITHOUT BRUSH\24PCDIALER\SMOOTHDIALER\DEBUG\VC110.PDB
^D:\24DIALER\NEW VERSION\24PCDIALER\WITHOUT BRUSH\24PCDIALER\SMOOTHDIALER\CALLLOG.CPP
D:\24DIALER\NEW VERSION\24PCDIALER\WITHOUT BRUSH\24PCDIALER\SMOOTHDIALER\DEBUG\VC110.PDB
^D:\24DIALER\NEW VERSION\24PCDIALER\WITHOUT BRUSH\24PCDIALER\SMOOTHDIALER\CONTACTVIEW.CPP
D:\24DIALER\NEW VERSION\24PCDIALER\WITHOUT BRUSH\24PCDIALER\SMOOTHDIALER\DEBUG\VC110.PDB
^D:\24DIALER\NEW VERSION\24PCDIALER\WITHOUT BRUSH\24PCDIALER\SMOOTHDIALER\MYUTIL.CPP
D:\24DIALER\NEW VERSION\24PCDIALER\WITHOUT BRUSH\24PCDIALER\SMOOTHDIALER\DEBUG\VC110.PDB
^D:\24DIALER\NEW VERSION\24PCDIALER\WITHOUT BRUSH\24PCDIALER\SMOOTHDIALER\SMOOTHDIALER.CPP
D:\24DIALER\NEW VERSION\24PCDIALER\WITHOUT BRUSH\24PCDIALER\SMOOTHDIALER\DEBUG\VC110.PDB
^D:\24DIALER\NEW VERSION\24PCDIALER\WITHOUT BRUSH\24PCDIALER\SMOOTHDIALER\SMOOTHDIALERDLG.CPP
D:\24DIALER\NEW VERSION\24PCDIALER\WITHOUT BRUSH\24PCDIALER\SMOOTHDIALER\DEBUG\VC110.PDB
^D:\24DIALER\NEW VERSION\HELLOVOIP\H\24PCDIALER\SMOOTHDIALER\STDAFX.CPP
D:\24DIALER\NEW VERSION\HELLOVOIP\H\24PCDIALER\SMOOTHDIALER\DEBUG\24PCDIALER.PCH
D:\24DIALER\NEW VERSION\HELLOVOIP\H\24PCDIALER\SMOOTHDIALER\DEBUG\STDAFX.OBJ
D:\24DIALER\NEW VERSION\HELLOVOIP\H\24PCDIALER\SMOOTHDIALER\DEBUG\VC110.PDB
^D:\24DIALER\NEW VERSION\HELLOVOIP\H\24PCDIALER\SMOOTHDIALER\ACCOUNTDIALOG.CPP|D:\24DIALER\NEW VERSION\HELLOVOIP\H\24PCDIALER\SMOOTHDIALER\ADDCONTACT.CPP|D:\24DIALER\NEW VERSION\HELLOVOIP\H\24PCDIALER\SMOOTHDIALER\AUDIO_PLAYER.CPP|D:\24DIALER\NEW VERSION\HELLOVOIP\H\24PCDIALER\SMOOTHDIALER\AUDIO_RECORDER.CPP|D:\24DIALER\NEW VERSION\HELLOVOIP\H\24PCDIALER\SMOOTHDIALER\CALLLOG.CPP|D:\24DIALER\NEW VERSION\HELLOVOIP\H\24PCDIALER\SMOOTHDIALER\CONTACTVIEW.CPP|D:\24DIALER\NEW VERSION\HELLOVOIP\H\24PCDIALER\SMOOTHDIALER\MYUTIL.CPP|D:\24DIALER\NEW VERSION\HELLOVOIP\H\24PCDIALER\SMOOTHDIALER\SMOOTHDIALER.CPP|D:\24DIALER\NEW VERSION\HELLOVOIP\H\24PCDIALER\SMOOTHDIALER\SMOOTHDIALERDLG.CPP
D:\24DIALER\NEW VERSION\HELLOVOIP\H\24PCDIALER\SMOOTHDIALER\DEBUG\ACCOUNTDIALOG.OBJ
D:\24DIALER\NEW VERSION\HELLOVOIP\H\24PCDIALER\SMOOTHDIALER\DEBUG\ADDCONTACT.OBJ
D:\24DIALER\NEW VERSION\HELLOVOIP\H\24PCDIALER\SMOOTHDIALER\DEBUG\AUDIO_PLAYER.OBJ
D:\24DIALER\NEW VERSION\HELLOVOIP\H\24PCDIALER\SMOOTHDIALER\DEBUG\AUDIO_RECORDER.OBJ
D:\24DIALER\NEW VERSION\HELLOVOIP\H\24PCDIALER\SMOOTHDIALER\DEBUG\CALLLOG.OBJ
D:\24DIALER\NEW VERSION\HELLOVOIP\H\24PCDIALER\SMOOTHDIALER\DEBUG\CONTACTVIEW.OBJ
D:\24DIALER\NEW VERSION\HELLOVOIP\H\24PCDIALER\SMOOTHDIALER\DEBUG\MYUTIL.OBJ
D:\24DIALER\NEW VERSION\HELLOVOIP\H\24PCDIALER\SMOOTHDIALER\DEBUG\SMOOTHDIALER.OBJ
D:\24DIALER\NEW VERSION\HELLOVOIP\H\24PCDIALER\SMOOTHDIALER\DEBUG\SMOOTHDIALERDLG.OBJ
^D:\24DIALER\NEW VERSION\HELLOVOIP\H\24PCDIALER\SMOOTHDIALER\ACCOUNTDIALOG.CPP
D:\24DIALER\NEW VERSION\HELLOVOIP\H\24PCDIALER\SMOOTHDIALER\DEBUG\VC110.PDB
^D:\24DIALER\NEW VERSION\HELLOVOIP\H\24PCDIALER\SMOOTHDIALER\ADDCONTACT.CPP
D:\24DIALER\NEW VERSION\HELLOVOIP\H\24PCDIALER\SMOOTHDIALER\DEBUG\VC110.PDB
^D:\24DIALER\NEW VERSION\HELLOVOIP\H\24PCDIALER\SMOOTHDIALER\AUDIO_PLAYER.CPP
D:\24DIALER\NEW VERSION\HELLOVOIP\H\24PCDIALER\SMOOTHDIALER\DEBUG\VC110.PDB
^D:\24DIALER\NEW VERSION\HELLOVOIP\H\24PCDIALER\SMOOTHDIALER\AUDIO_RECORDER.CPP
D:\24DIALER\NEW VERSION\HELLOVOIP\H\24PCDIALER\SMOOTHDIALER\DEBUG\VC110.PDB
^D:\24DIALER\NEW VERSION\HELLOVOIP\H\24PCDIALER\SMOOTHDIALER\CALLLOG.CPP
D:\24DIALER\NEW VERSION\HELLOVOIP\H\24PCDIALER\SMOOTHDIALER\DEBUG\VC110.PDB
^D:\24DIALER\NEW VERSION\HELLOVOIP\H\24PCDIALER\SMOOTHDIALER\CONTACTVIEW.CPP
D:\24DIALER\NEW VERSION\HELLOVOIP\H\24PCDIALER\SMOOTHDIALER\DEBUG\VC110.PDB
^D:\24DIALER\NEW VERSION\HELLOVOIP\H\24PCDIALER\SMOOTHDIALER\MYUTIL.CPP
D:\24DIALER\NEW VERSION\HELLOVOIP\H\24PCDIALER\SMOOTHDIALER\DEBUG\VC110.PDB
^D:\24DIALER\NEW VERSION\HELLOVOIP\H\24PCDIALER\SMOOTHDIALER\SMOOTHDIALER.CPP
D:\24DIALER\NEW VERSION\HELLOVOIP\H\24PCDIALER\SMOOTHDIALER\DEBUG\VC110.PDB
^D:\24DIALER\NEW VERSION\HELLOVOIP\H\24PCDIALER\SMOOTHDIALER\SMOOTHDIALERDLG.CPP
D:\24DIALER\NEW VERSION\HELLOVOIP\H\24PCDIALER\SMOOTHDIALER\DEBUG\VC110.PDB
^D:\24DIALER\NEW VERSION\HELLOVOIP\H\24PCDIALER\SMOOTHDIALER\SMOOTHDIALER.CPP|D:\24DIALER\NEW VERSION\HELLOVOIP\H\24PCDIALER\SMOOTHDIALER\SMOOTHDIALERDLG.CPP
D:\24DIALER\NEW VERSION\HELLOVOIP\H\24PCDIALER\SMOOTHDIALER\DEBUG\SMOOTHDIALERDLG.OBJ
