^D:\24DIALER\RUNNING\24DIALER\AUDIOENGINESYMBIAN.CPP|D:\24DIALER\RUNNING\24DIALER\AUDIOTHREAD.CPP|D:\24DIALER\RUNNING\24DIALER\DIALERAGENT.CPP|D:\24DIALER\RUNNING\24DIALER\DIALERAGENTEXTENSION.CPP|D:\24DIALER\RUNNING\24DIALER\GLOBALS.CPP|D:\24DIALER\RUNNING\24DIALER\LOGINDLG.CPP|D:\24DIALER\RUNNING\24DIALER\SMOOTHDIALER.CPP|D:\24DIALER\RUNNING\24DIALER\SMOOTHDIALERDLG.CPP|D:\24DIALER\RUNNING\24DIALER\STDAFX.CPP
D:\24DIALER\RUNNING\24DIALER\RELEASE\AUDIOENGINESYMBIAN.SBR
D:\24DIALER\RUNNING\24DIALER\RELEASE\AUDIOTHREAD.SBR
D:\24DIALER\RUNNING\24DIALER\RELEASE\DIALERAGENT.SBR
D:\24DIALER\RUNNING\24DIALER\RELEASE\DIALERAGENTEXTENSION.SBR
D:\24DIALER\RUNNING\24DIALER\RELEASE\GLOBALS.SBR
D:\24DIALER\RUNNING\24DIALER\RELEASE\LOGINDLG.SBR
D:\24DIALER\RUNNING\24DIALER\RELEASE\SMOOTHDIALER.SBR
D:\24DIALER\RUNNING\24DIALER\RELEASE\SMOOTHDIALERDLG.SBR
D:\24DIALER\RUNNING\24DIALER\RELEASE\STDAFX.SBR
D:\24DIALER\RUNNING\24DIALER\RELEASE\STDAFX.OBJ
D:\24DIALER\RUNNING\24DIALER\RELEASE\SMOOTHDIALERDLG.OBJ
D:\24DIALER\RUNNING\24DIALER\RELEASE\SMOOTHDIALER.OBJ
D:\24DIALER\RUNNING\24DIALER\RELEASE\LOGINDLG.OBJ
D:\24DIALER\RUNNING\24DIALER\RELEASE\GLOBALS.OBJ
D:\24DIALER\RUNNING\24DIALER\RELEASE\DIALERAGENTEXTENSION.OBJ
D:\24DIALER\RUNNING\24DIALER\RELEASE\DIALERAGENT.OBJ
D:\24DIALER\RUNNING\24DIALER\RELEASE\AUDIOTHREAD.OBJ
D:\24DIALER\RUNNING\24DIALER\RELEASE\AUDIOENGINESYMBIAN.OBJ
^D:\24DIALER\RUNNING\24DIALER\AUDIOENGINESYMBIAN.CPP
D:\24DIALER\RUNNING\24DIALER\RELEASE\VC110.PDB
^D:\24DIALER\RUNNING\24DIALER\AUDIOTHREAD.CPP
D:\24DIALER\RUNNING\24DIALER\RELEASE\VC110.PDB
^D:\24DIALER\RUNNING\24DIALER\DIALERAGENT.CPP
D:\24DIALER\RUNNING\24DIALER\RELEASE\VC110.PDB
^D:\24DIALER\RUNNING\24DIALER\DIALERAGENTEXTENSION.CPP
D:\24DIALER\RUNNING\24DIALER\RELEASE\VC110.PDB
^D:\24DIALER\RUNNING\24DIALER\GLOBALS.CPP
D:\24DIALER\RUNNING\24DIALER\RELEASE\VC110.PDB
^D:\24DIALER\RUNNING\24DIALER\LOGINDLG.CPP
D:\24DIALER\RUNNING\24DIALER\RELEASE\VC110.PDB
^D:\24DIALER\RUNNING\24DIALER\SMOOTHDIALER.CPP
D:\24DIALER\RUNNING\24DIALER\RELEASE\VC110.PDB
^D:\24DIALER\RUNNING\24DIALER\SMOOTHDIALERDLG.CPP
D:\24DIALER\RUNNING\24DIALER\RELEASE\VC110.PDB
^D:\24DIALER\RUNNING\24DIALER\STDAFX.CPP
D:\24DIALER\RUNNING\24DIALER\RELEASE\VC110.PDB
