^D:\24DIALER\RUNNING\24DIALER\RELEASE\AUDIOENGINESYMBIAN.OBJ|D:\24DIALER\RUNNING\24DIALER\RELEASE\AUDIOTHREAD.OBJ|D:\24DIALER\RUNNING\24DIALER\RELEASE\DIALERAGENT.OBJ|D:\24DIALER\RUNNING\24DIALER\RELEASE\DIALERAGENTEXTENSION.OBJ|D:\24DIALER\RUNNING\24DIALER\RELEASE\GLOBALS.OBJ|D:\24DIALER\RUNNING\24DIALER\RELEASE\LOGINDLG.OBJ|D:\24DIALER\RUNNING\24DIALER\RELEASE\SMOOTHDIALER.OBJ|D:\24DIALER\RUNNING\24DIALER\RELEASE\SMOOTHDIALER.RES|D:\24DIALER\RUNNING\24DIALER\RELEASE\SMOOTHDIALERDLG.OBJ|D:\24DIALER\RUNNING\24DIALER\RELEASE\STDAFX.OBJ
D:\24DIALER\RUNNING\24DIALER\RELEASE\24DIALER.ILK
D:\24DIALER\RUNNING\24DIALER\RELEASE\24DIALER.EXE
D:\24DIALER\RUNNING\24DIALER\RELEASE\24DIALER.PDB
