﻿  AudioEngineSymbian.cpp
  _WIN32_WINNT not defined. Defaulting to _WIN32_WINNT_MAXVER (see WinSDKVer.h)
d:\24dialer\running\24dialer\wstring.h(183): warning C4996: 'sprintf': This function or variable may be unsafe. Consider using sprintf_s instead. To disable deprecation, use _CRT_SECURE_NO_WARNINGS. See online help for details.
          c:\program files (x86)\microsoft visual studio 11.0\vc\include\stdio.h(357) : see declaration of 'sprintf'
d:\24dialer\running\24dialer\wstring.h(239): warning C4996: 'vsprintf': This function or variable may be unsafe. Consider using vsprintf_s instead. To disable deprecation, use _CRT_SECURE_NO_WARNINGS. See online help for details.
          c:\program files (x86)\microsoft visual studio 11.0\vc\include\stdio.h(357) : see declaration of 'vsprintf'
d:\24dialer\running\24dialer\audioenginesymbian.cpp(37): warning C4244: 'return' : conversion from '__int64' to 'TUint32', possible loss of data
  AudioThread.cpp
  _WIN32_WINNT not defined. Defaulting to _WIN32_WINNT_MAXVER (see WinSDKVer.h)
d:\24dialer\running\24dialer\audiothread.cpp(327): warning C4101: 'mmtime' : unreferenced local variable
  DialerAgent.cpp
d:\24dialer\running\24dialer\wstring.h(183): warning C4996: 'sprintf': This function or variable may be unsafe. Consider using sprintf_s instead. To disable deprecation, use _CRT_SECURE_NO_WARNINGS. See online help for details.
          c:\program files (x86)\microsoft visual studio 11.0\vc\include\stdio.h(357) : see declaration of 'sprintf'
d:\24dialer\running\24dialer\wstring.h(239): warning C4996: 'vsprintf': This function or variable may be unsafe. Consider using vsprintf_s instead. To disable deprecation, use _CRT_SECURE_NO_WARNINGS. See online help for details.
          c:\program files (x86)\microsoft visual studio 11.0\vc\include\stdio.h(357) : see declaration of 'vsprintf'
d:\24dialer\running\24dialer\dialerstate.h(157): warning C4244: 'return' : conversion from '__int64' to 'TInt', possible loss of data
d:\24dialer\running\24dialer\dialerstate.h(402): warning C4018: '>=' : signed/unsigned mismatch
d:\24dialer\running\24dialer\dialerstate.h(411): warning C4018: '<' : signed/unsigned mismatch
d:\24dialer\running\24dialer\dialerstate.h(412): warning C4018: '<=' : signed/unsigned mismatch
  _WIN32_WINNT not defined. Defaulting to _WIN32_WINNT_MAXVER (see WinSDKVer.h)
d:\24dialer\running\24dialer\wpoller.h(142): warning C4018: '>' : signed/unsigned mismatch
d:\24dialer\running\24dialer\wpoller.h(145): warning C4018: '>' : signed/unsigned mismatch
d:\24dialer\running\24dialer\wpoller.h(147): warning C4018: '<' : signed/unsigned mismatch
d:\24dialer\running\24dialer\wpoller.h(155): warning C4018: '>' : signed/unsigned mismatch
d:\24dialer\running\24dialer\wpoller.h(158): warning C4018: '>' : signed/unsigned mismatch
d:\24dialer\running\24dialer\wpoller.h(174): warning C4018: '>=' : signed/unsigned mismatch
d:\24dialer\running\24dialer\wpoller.h(177): warning C4018: '>' : signed/unsigned mismatch
d:\24dialer\running\24dialer\wpoller.h(396): warning C4996: 'sprintf': This function or variable may be unsafe. Consider using sprintf_s instead. To disable deprecation, use _CRT_SECURE_NO_WARNINGS. See online help for details.
          c:\program files (x86)\microsoft visual studio 11.0\vc\include\stdio.h(357) : see declaration of 'sprintf'
d:\24dialer\running\24dialer\wpoller.h(605): warning C4996: 'strcpy': This function or variable may be unsafe. Consider using strcpy_s instead. To disable deprecation, use _CRT_SECURE_NO_WARNINGS. See online help for details.
          c:\program files (x86)\microsoft visual studio 11.0\vc\include\string.h(110) : see declaration of 'strcpy'
d:\24dialer\running\24dialer\wpoller.h(606): warning C4996: 'strcpy': This function or variable may be unsafe. Consider using strcpy_s instead. To disable deprecation, use _CRT_SECURE_NO_WARNINGS. See online help for details.
          c:\program files (x86)\microsoft visual studio 11.0\vc\include\string.h(110) : see declaration of 'strcpy'
d:\24dialer\running\24dialer\wpoller.h(607): warning C4996: 'strcpy': This function or variable may be unsafe. Consider using strcpy_s instead. To disable deprecation, use _CRT_SECURE_NO_WARNINGS. See online help for details.
          c:\program files (x86)\microsoft visual studio 11.0\vc\include\string.h(110) : see declaration of 'strcpy'
d:\24dialer\running\24dialer\wpoller.h(608): warning C4996: 'strcpy': This function or variable may be unsafe. Consider using strcpy_s instead. To disable deprecation, use _CRT_SECURE_NO_WARNINGS. See online help for details.
          c:\program files (x86)\microsoft visual studio 11.0\vc\include\string.h(110) : see declaration of 'strcpy'
d:\24dialer\running\24dialer\wpoller.h(609): warning C4996: 'strcpy': This function or variable may be unsafe. Consider using strcpy_s instead. To disable deprecation, use _CRT_SECURE_NO_WARNINGS. See online help for details.
          c:\program files (x86)\microsoft visual studio 11.0\vc\include\string.h(110) : see declaration of 'strcpy'
d:\24dialer\running\24dialer\wpoller.h(610): warning C4996: 'strcpy': This function or variable may be unsafe. Consider using strcpy_s instead. To disable deprecation, use _CRT_SECURE_NO_WARNINGS. See online help for details.
          c:\program files (x86)\microsoft visual studio 11.0\vc\include\string.h(110) : see declaration of 'strcpy'
d:\24dialer\running\24dialer\wpoller.h(611): warning C4996: 'strcpy': This function or variable may be unsafe. Consider using strcpy_s instead. To disable deprecation, use _CRT_SECURE_NO_WARNINGS. See online help for details.
          c:\program files (x86)\microsoft visual studio 11.0\vc\include\string.h(110) : see declaration of 'strcpy'
d:\24dialer\running\24dialer\wpoller.h(612): warning C4996: 'strcpy': This function or variable may be unsafe. Consider using strcpy_s instead. To disable deprecation, use _CRT_SECURE_NO_WARNINGS. See online help for details.
          c:\program files (x86)\microsoft visual studio 11.0\vc\include\string.h(110) : see declaration of 'strcpy'
d:\24dialer\running\24dialer\wpoller.h(613): warning C4996: 'strcpy': This function or variable may be unsafe. Consider using strcpy_s instead. To disable deprecation, use _CRT_SECURE_NO_WARNINGS. See online help for details.
          c:\program files (x86)\microsoft visual studio 11.0\vc\include\string.h(110) : see declaration of 'strcpy'
d:\24dialer\running\24dialer\wpoller.h(614): warning C4996: 'strcpy': This function or variable may be unsafe. Consider using strcpy_s instead. To disable deprecation, use _CRT_SECURE_NO_WARNINGS. See online help for details.
          c:\program files (x86)\microsoft visual studio 11.0\vc\include\string.h(110) : see declaration of 'strcpy'
d:\24dialer\running\24dialer\wpoller.h(615): warning C4996: 'strcpy': This function or variable may be unsafe. Consider using strcpy_s instead. To disable deprecation, use _CRT_SECURE_NO_WARNINGS. See online help for details.
          c:\program files (x86)\microsoft visual studio 11.0\vc\include\string.h(110) : see declaration of 'strcpy'
d:\24dialer\running\24dialer\wpoller.h(616): warning C4996: 'strcpy': This function or variable may be unsafe. Consider using strcpy_s instead. To disable deprecation, use _CRT_SECURE_NO_WARNINGS. See online help for details.
          c:\program files (x86)\microsoft visual studio 11.0\vc\include\string.h(110) : see declaration of 'strcpy'
d:\24dialer\running\24dialer\wpoller.h(617): warning C4996: 'strcpy': This function or variable may be unsafe. Consider using strcpy_s instead. To disable deprecation, use _CRT_SECURE_NO_WARNINGS. See online help for details.
          c:\program files (x86)\microsoft visual studio 11.0\vc\include\string.h(110) : see declaration of 'strcpy'
d:\24dialer\running\24dialer\wpoller.h(618): warning C4996: 'strcpy': This function or variable may be unsafe. Consider using strcpy_s instead. To disable deprecation, use _CRT_SECURE_NO_WARNINGS. See online help for details.
          c:\program files (x86)\microsoft visual studio 11.0\vc\include\string.h(110) : see declaration of 'strcpy'
d:\24dialer\running\24dialer\wpoller.h(619): warning C4996: 'strcpy': This function or variable may be unsafe. Consider using strcpy_s instead. To disable deprecation, use _CRT_SECURE_NO_WARNINGS. See online help for details.
          c:\program files (x86)\microsoft visual studio 11.0\vc\include\string.h(110) : see declaration of 'strcpy'
d:\24dialer\running\24dialer\wpoller.h(620): warning C4996: 'strcpy': This function or variable may be unsafe. Consider using strcpy_s instead. To disable deprecation, use _CRT_SECURE_NO_WARNINGS. See online help for details.
          c:\program files (x86)\microsoft visual studio 11.0\vc\include\string.h(110) : see declaration of 'strcpy'
d:\24dialer\running\24dialer\wpoller.h(621): warning C4996: 'strcpy': This function or variable may be unsafe. Consider using strcpy_s instead. To disable deprecation, use _CRT_SECURE_NO_WARNINGS. See online help for details.
          c:\program files (x86)\microsoft visual studio 11.0\vc\include\string.h(110) : see declaration of 'strcpy'
d:\24dialer\running\24dialer\wpoller.h(631): warning C4018: '<' : signed/unsigned mismatch
d:\24dialer\running\24dialer\wpoller.h(633): warning C4018: '<' : signed/unsigned mismatch
d:\24dialer\running\24dialer\wpoller.h(730): warning C4996: 'strnicmp': The POSIX name for this item is deprecated. Instead, use the ISO C++ conformant name: _strnicmp. See online help for details.
          c:\program files (x86)\microsoft visual studio 11.0\vc\include\string.h(251) : see declaration of 'strnicmp'
d:\24dialer\running\24dialer\dialeragent.cpp(145): warning C4018: '>' : signed/unsigned mismatch
d:\24dialer\running\24dialer\dialeragent.cpp(146): warning C4018: '>' : signed/unsigned mismatch
d:\24dialer\running\24dialer\dialeragent.cpp(160): warning C4018: '>' : signed/unsigned mismatch
d:\24dialer\running\24dialer\dialeragent.cpp(383): warning C4018: '<' : signed/unsigned mismatch
d:\24dialer\running\24dialer\dialeragent.cpp(662): warning C4018: '<' : signed/unsigned mismatch
d:\24dialer\running\24dialer\dialeragent.cpp(669): warning C4018: '>=' : signed/unsigned mismatch
  DialerAgentExtension.cpp
d:\24dialer\running\24dialer\wstring.h(183): warning C4996: 'sprintf': This function or variable may be unsafe. Consider using sprintf_s instead. To disable deprecation, use _CRT_SECURE_NO_WARNINGS. See online help for details.
          c:\program files (x86)\microsoft visual studio 11.0\vc\include\stdio.h(357) : see declaration of 'sprintf'
d:\24dialer\running\24dialer\wstring.h(239): warning C4996: 'vsprintf': This function or variable may be unsafe. Consider using vsprintf_s instead. To disable deprecation, use _CRT_SECURE_NO_WARNINGS. See online help for details.
          c:\program files (x86)\microsoft visual studio 11.0\vc\include\stdio.h(357) : see declaration of 'vsprintf'
d:\24dialer\running\24dialer\dialerstate.h(157): warning C4244: 'return' : conversion from '__int64' to 'TInt', possible loss of data
d:\24dialer\running\24dialer\dialerstate.h(402): warning C4018: '>=' : signed/unsigned mismatch
d:\24dialer\running\24dialer\dialerstate.h(411): warning C4018: '<' : signed/unsigned mismatch
d:\24dialer\running\24dialer\dialerstate.h(412): warning C4018: '<=' : signed/unsigned mismatch
  _WIN32_WINNT not defined. Defaulting to _WIN32_WINNT_MAXVER (see WinSDKVer.h)
d:\24dialer\running\24dialer\wpoller.h(142): warning C4018: '>' : signed/unsigned mismatch
d:\24dialer\running\24dialer\wpoller.h(145): warning C4018: '>' : signed/unsigned mismatch
d:\24dialer\running\24dialer\wpoller.h(147): warning C4018: '<' : signed/unsigned mismatch
d:\24dialer\running\24dialer\wpoller.h(155): warning C4018: '>' : signed/unsigned mismatch
d:\24dialer\running\24dialer\wpoller.h(158): warning C4018: '>' : signed/unsigned mismatch
d:\24dialer\running\24dialer\wpoller.h(174): warning C4018: '>=' : signed/unsigned mismatch
d:\24dialer\running\24dialer\wpoller.h(177): warning C4018: '>' : signed/unsigned mismatch
d:\24dialer\running\24dialer\wpoller.h(396): warning C4996: 'sprintf': This function or variable may be unsafe. Consider using sprintf_s instead. To disable deprecation, use _CRT_SECURE_NO_WARNINGS. See online help for details.
          c:\program files (x86)\microsoft visual studio 11.0\vc\include\stdio.h(357) : see declaration of 'sprintf'
d:\24dialer\running\24dialer\wpoller.h(605): warning C4996: 'strcpy': This function or variable may be unsafe. Consider using strcpy_s instead. To disable deprecation, use _CRT_SECURE_NO_WARNINGS. See online help for details.
          c:\program files (x86)\microsoft visual studio 11.0\vc\include\string.h(110) : see declaration of 'strcpy'
d:\24dialer\running\24dialer\wpoller.h(606): warning C4996: 'strcpy': This function or variable may be unsafe. Consider using strcpy_s instead. To disable deprecation, use _CRT_SECURE_NO_WARNINGS. See online help for details.
          c:\program files (x86)\microsoft visual studio 11.0\vc\include\string.h(110) : see declaration of 'strcpy'
d:\24dialer\running\24dialer\wpoller.h(607): warning C4996: 'strcpy': This function or variable may be unsafe. Consider using strcpy_s instead. To disable deprecation, use _CRT_SECURE_NO_WARNINGS. See online help for details.
          c:\program files (x86)\microsoft visual studio 11.0\vc\include\string.h(110) : see declaration of 'strcpy'
d:\24dialer\running\24dialer\wpoller.h(608): warning C4996: 'strcpy': This function or variable may be unsafe. Consider using strcpy_s instead. To disable deprecation, use _CRT_SECURE_NO_WARNINGS. See online help for details.
          c:\program files (x86)\microsoft visual studio 11.0\vc\include\string.h(110) : see declaration of 'strcpy'
d:\24dialer\running\24dialer\wpoller.h(609): warning C4996: 'strcpy': This function or variable may be unsafe. Consider using strcpy_s instead. To disable deprecation, use _CRT_SECURE_NO_WARNINGS. See online help for details.
          c:\program files (x86)\microsoft visual studio 11.0\vc\include\string.h(110) : see declaration of 'strcpy'
d:\24dialer\running\24dialer\wpoller.h(610): warning C4996: 'strcpy': This function or variable may be unsafe. Consider using strcpy_s instead. To disable deprecation, use _CRT_SECURE_NO_WARNINGS. See online help for details.
          c:\program files (x86)\microsoft visual studio 11.0\vc\include\string.h(110) : see declaration of 'strcpy'
d:\24dialer\running\24dialer\wpoller.h(611): warning C4996: 'strcpy': This function or variable may be unsafe. Consider using strcpy_s instead. To disable deprecation, use _CRT_SECURE_NO_WARNINGS. See online help for details.
          c:\program files (x86)\microsoft visual studio 11.0\vc\include\string.h(110) : see declaration of 'strcpy'
d:\24dialer\running\24dialer\wpoller.h(612): warning C4996: 'strcpy': This function or variable may be unsafe. Consider using strcpy_s instead. To disable deprecation, use _CRT_SECURE_NO_WARNINGS. See online help for details.
          c:\program files (x86)\microsoft visual studio 11.0\vc\include\string.h(110) : see declaration of 'strcpy'
d:\24dialer\running\24dialer\wpoller.h(613): warning C4996: 'strcpy': This function or variable may be unsafe. Consider using strcpy_s instead. To disable deprecation, use _CRT_SECURE_NO_WARNINGS. See online help for details.
          c:\program files (x86)\microsoft visual studio 11.0\vc\include\string.h(110) : see declaration of 'strcpy'
d:\24dialer\running\24dialer\wpoller.h(614): warning C4996: 'strcpy': This function or variable may be unsafe. Consider using strcpy_s instead. To disable deprecation, use _CRT_SECURE_NO_WARNINGS. See online help for details.
          c:\program files (x86)\microsoft visual studio 11.0\vc\include\string.h(110) : see declaration of 'strcpy'
d:\24dialer\running\24dialer\wpoller.h(615): warning C4996: 'strcpy': This function or variable may be unsafe. Consider using strcpy_s instead. To disable deprecation, use _CRT_SECURE_NO_WARNINGS. See online help for details.
          c:\program files (x86)\microsoft visual studio 11.0\vc\include\string.h(110) : see declaration of 'strcpy'
d:\24dialer\running\24dialer\wpoller.h(616): warning C4996: 'strcpy': This function or variable may be unsafe. Consider using strcpy_s instead. To disable deprecation, use _CRT_SECURE_NO_WARNINGS. See online help for details.
          c:\program files (x86)\microsoft visual studio 11.0\vc\include\string.h(110) : see declaration of 'strcpy'
d:\24dialer\running\24dialer\wpoller.h(617): warning C4996: 'strcpy': This function or variable may be unsafe. Consider using strcpy_s instead. To disable deprecation, use _CRT_SECURE_NO_WARNINGS. See online help for details.
          c:\program files (x86)\microsoft visual studio 11.0\vc\include\string.h(110) : see declaration of 'strcpy'
d:\24dialer\running\24dialer\wpoller.h(618): warning C4996: 'strcpy': This function or variable may be unsafe. Consider using strcpy_s instead. To disable deprecation, use _CRT_SECURE_NO_WARNINGS. See online help for details.
          c:\program files (x86)\microsoft visual studio 11.0\vc\include\string.h(110) : see declaration of 'strcpy'
d:\24dialer\running\24dialer\wpoller.h(619): warning C4996: 'strcpy': This function or variable may be unsafe. Consider using strcpy_s instead. To disable deprecation, use _CRT_SECURE_NO_WARNINGS. See online help for details.
          c:\program files (x86)\microsoft visual studio 11.0\vc\include\string.h(110) : see declaration of 'strcpy'
d:\24dialer\running\24dialer\wpoller.h(620): warning C4996: 'strcpy': This function or variable may be unsafe. Consider using strcpy_s instead. To disable deprecation, use _CRT_SECURE_NO_WARNINGS. See online help for details.
          c:\program files (x86)\microsoft visual studio 11.0\vc\include\string.h(110) : see declaration of 'strcpy'
d:\24dialer\running\24dialer\wpoller.h(621): warning C4996: 'strcpy': This function or variable may be unsafe. Consider using strcpy_s instead. To disable deprecation, use _CRT_SECURE_NO_WARNINGS. See online help for details.
          c:\program files (x86)\microsoft visual studio 11.0\vc\include\string.h(110) : see declaration of 'strcpy'
d:\24dialer\running\24dialer\wpoller.h(631): warning C4018: '<' : signed/unsigned mismatch
d:\24dialer\running\24dialer\wpoller.h(633): warning C4018: '<' : signed/unsigned mismatch
d:\24dialer\running\24dialer\wpoller.h(730): warning C4996: 'strnicmp': The POSIX name for this item is deprecated. Instead, use the ISO C++ conformant name: _strnicmp. See online help for details.
          c:\program files (x86)\microsoft visual studio 11.0\vc\include\string.h(251) : see declaration of 'strnicmp'
d:\24dialer\running\24dialer\dialeragentextension.cpp(44): warning C4018: '<' : signed/unsigned mismatch
d:\24dialer\running\24dialer\dialeragentextension.cpp(141): warning C4018: '<' : signed/unsigned mismatch
  Globals.cpp
d:\24dialer\running\24dialer\wstring.h(183): warning C4996: 'sprintf': This function or variable may be unsafe. Consider using sprintf_s instead. To disable deprecation, use _CRT_SECURE_NO_WARNINGS. See online help for details.
          c:\program files (x86)\microsoft visual studio 11.0\vc\include\stdio.h(357) : see declaration of 'sprintf'
d:\24dialer\running\24dialer\wstring.h(239): warning C4996: 'vsprintf': This function or variable may be unsafe. Consider using vsprintf_s instead. To disable deprecation, use _CRT_SECURE_NO_WARNINGS. See online help for details.
          c:\program files (x86)\microsoft visual studio 11.0\vc\include\stdio.h(357) : see declaration of 'vsprintf'
  LoginDlg.cpp
  _WIN32_WINNT not defined. Defaulting to _WIN32_WINNT_MAXVER (see WinSDKVer.h)
d:\24dialer\running\24dialer\wstring.h(183): warning C4996: 'sprintf': This function or variable may be unsafe. Consider using sprintf_s instead. To disable deprecation, use _CRT_SECURE_NO_WARNINGS. See online help for details.
          c:\program files (x86)\microsoft visual studio 11.0\vc\include\stdio.h(357) : see declaration of 'sprintf'
d:\24dialer\running\24dialer\wstring.h(239): warning C4996: 'vsprintf': This function or variable may be unsafe. Consider using vsprintf_s instead. To disable deprecation, use _CRT_SECURE_NO_WARNINGS. See online help for details.
          c:\program files (x86)\microsoft visual studio 11.0\vc\include\stdio.h(357) : see declaration of 'vsprintf'
d:\24dialer\running\24dialer\wpoller.h(142): warning C4018: '>' : signed/unsigned mismatch
d:\24dialer\running\24dialer\wpoller.h(145): warning C4018: '>' : signed/unsigned mismatch
d:\24dialer\running\24dialer\wpoller.h(147): warning C4018: '<' : signed/unsigned mismatch
d:\24dialer\running\24dialer\wpoller.h(155): warning C4018: '>' : signed/unsigned mismatch
d:\24dialer\running\24dialer\wpoller.h(158): warning C4018: '>' : signed/unsigned mismatch
d:\24dialer\running\24dialer\wpoller.h(174): warning C4018: '>=' : signed/unsigned mismatch
d:\24dialer\running\24dialer\wpoller.h(177): warning C4018: '>' : signed/unsigned mismatch
d:\24dialer\running\24dialer\wpoller.h(396): warning C4996: 'sprintf': This function or variable may be unsafe. Consider using sprintf_s instead. To disable deprecation, use _CRT_SECURE_NO_WARNINGS. See online help for details.
          c:\program files (x86)\microsoft visual studio 11.0\vc\include\stdio.h(357) : see declaration of 'sprintf'
d:\24dialer\running\24dialer\wpoller.h(605): warning C4996: 'strcpy': This function or variable may be unsafe. Consider using strcpy_s instead. To disable deprecation, use _CRT_SECURE_NO_WARNINGS. See online help for details.
          c:\program files (x86)\microsoft visual studio 11.0\vc\include\string.h(110) : see declaration of 'strcpy'
d:\24dialer\running\24dialer\wpoller.h(606): warning C4996: 'strcpy': This function or variable may be unsafe. Consider using strcpy_s instead. To disable deprecation, use _CRT_SECURE_NO_WARNINGS. See online help for details.
          c:\program files (x86)\microsoft visual studio 11.0\vc\include\string.h(110) : see declaration of 'strcpy'
d:\24dialer\running\24dialer\wpoller.h(607): warning C4996: 'strcpy': This function or variable may be unsafe. Consider using strcpy_s instead. To disable deprecation, use _CRT_SECURE_NO_WARNINGS. See online help for details.
          c:\program files (x86)\microsoft visual studio 11.0\vc\include\string.h(110) : see declaration of 'strcpy'
d:\24dialer\running\24dialer\wpoller.h(608): warning C4996: 'strcpy': This function or variable may be unsafe. Consider using strcpy_s instead. To disable deprecation, use _CRT_SECURE_NO_WARNINGS. See online help for details.
          c:\program files (x86)\microsoft visual studio 11.0\vc\include\string.h(110) : see declaration of 'strcpy'
d:\24dialer\running\24dialer\wpoller.h(609): warning C4996: 'strcpy': This function or variable may be unsafe. Consider using strcpy_s instead. To disable deprecation, use _CRT_SECURE_NO_WARNINGS. See online help for details.
          c:\program files (x86)\microsoft visual studio 11.0\vc\include\string.h(110) : see declaration of 'strcpy'
d:\24dialer\running\24dialer\wpoller.h(610): warning C4996: 'strcpy': This function or variable may be unsafe. Consider using strcpy_s instead. To disable deprecation, use _CRT_SECURE_NO_WARNINGS. See online help for details.
          c:\program files (x86)\microsoft visual studio 11.0\vc\include\string.h(110) : see declaration of 'strcpy'
d:\24dialer\running\24dialer\wpoller.h(611): warning C4996: 'strcpy': This function or variable may be unsafe. Consider using strcpy_s instead. To disable deprecation, use _CRT_SECURE_NO_WARNINGS. See online help for details.
          c:\program files (x86)\microsoft visual studio 11.0\vc\include\string.h(110) : see declaration of 'strcpy'
d:\24dialer\running\24dialer\wpoller.h(612): warning C4996: 'strcpy': This function or variable may be unsafe. Consider using strcpy_s instead. To disable deprecation, use _CRT_SECURE_NO_WARNINGS. See online help for details.
          c:\program files (x86)\microsoft visual studio 11.0\vc\include\string.h(110) : see declaration of 'strcpy'
d:\24dialer\running\24dialer\wpoller.h(613): warning C4996: 'strcpy': This function or variable may be unsafe. Consider using strcpy_s instead. To disable deprecation, use _CRT_SECURE_NO_WARNINGS. See online help for details.
          c:\program files (x86)\microsoft visual studio 11.0\vc\include\string.h(110) : see declaration of 'strcpy'
d:\24dialer\running\24dialer\wpoller.h(614): warning C4996: 'strcpy': This function or variable may be unsafe. Consider using strcpy_s instead. To disable deprecation, use _CRT_SECURE_NO_WARNINGS. See online help for details.
          c:\program files (x86)\microsoft visual studio 11.0\vc\include\string.h(110) : see declaration of 'strcpy'
d:\24dialer\running\24dialer\wpoller.h(615): warning C4996: 'strcpy': This function or variable may be unsafe. Consider using strcpy_s instead. To disable deprecation, use _CRT_SECURE_NO_WARNINGS. See online help for details.
          c:\program files (x86)\microsoft visual studio 11.0\vc\include\string.h(110) : see declaration of 'strcpy'
d:\24dialer\running\24dialer\wpoller.h(616): warning C4996: 'strcpy': This function or variable may be unsafe. Consider using strcpy_s instead. To disable deprecation, use _CRT_SECURE_NO_WARNINGS. See online help for details.
          c:\program files (x86)\microsoft visual studio 11.0\vc\include\string.h(110) : see declaration of 'strcpy'
d:\24dialer\running\24dialer\wpoller.h(617): warning C4996: 'strcpy': This function or variable may be unsafe. Consider using strcpy_s instead. To disable deprecation, use _CRT_SECURE_NO_WARNINGS. See online help for details.
          c:\program files (x86)\microsoft visual studio 11.0\vc\include\string.h(110) : see declaration of 'strcpy'
d:\24dialer\running\24dialer\wpoller.h(618): warning C4996: 'strcpy': This function or variable may be unsafe. Consider using strcpy_s instead. To disable deprecation, use _CRT_SECURE_NO_WARNINGS. See online help for details.
          c:\program files (x86)\microsoft visual studio 11.0\vc\include\string.h(110) : see declaration of 'strcpy'
d:\24dialer\running\24dialer\wpoller.h(619): warning C4996: 'strcpy': This function or variable may be unsafe. Consider using strcpy_s instead. To disable deprecation, use _CRT_SECURE_NO_WARNINGS. See online help for details.
          c:\program files (x86)\microsoft visual studio 11.0\vc\include\string.h(110) : see declaration of 'strcpy'
d:\24dialer\running\24dialer\wpoller.h(620): warning C4996: 'strcpy': This function or variable may be unsafe. Consider using strcpy_s instead. To disable deprecation, use _CRT_SECURE_NO_WARNINGS. See online help for details.
          c:\program files (x86)\microsoft visual studio 11.0\vc\include\string.h(110) : see declaration of 'strcpy'
d:\24dialer\running\24dialer\wpoller.h(621): warning C4996: 'strcpy': This function or variable may be unsafe. Consider using strcpy_s instead. To disable deprecation, use _CRT_SECURE_NO_WARNINGS. See online help for details.
          c:\program files (x86)\microsoft visual studio 11.0\vc\include\string.h(110) : see declaration of 'strcpy'
d:\24dialer\running\24dialer\wpoller.h(631): warning C4018: '<' : signed/unsigned mismatch
d:\24dialer\running\24dialer\wpoller.h(633): warning C4018: '<' : signed/unsigned mismatch
d:\24dialer\running\24dialer\wpoller.h(730): warning C4996: 'strnicmp': The POSIX name for this item is deprecated. Instead, use the ISO C++ conformant name: _strnicmp. See online help for details.
          c:\program files (x86)\microsoft visual studio 11.0\vc\include\string.h(251) : see declaration of 'strnicmp'
d:\24dialer\running\24dialer\dialerstate.h(157): warning C4244: 'return' : conversion from '__int64' to 'TInt', possible loss of data
d:\24dialer\running\24dialer\dialerstate.h(402): warning C4018: '>=' : signed/unsigned mismatch
d:\24dialer\running\24dialer\dialerstate.h(411): warning C4018: '<' : signed/unsigned mismatch
d:\24dialer\running\24dialer\dialerstate.h(412): warning C4018: '<=' : signed/unsigned mismatch
  SmoothDialer.cpp
  _WIN32_WINNT not defined. Defaulting to _WIN32_WINNT_MAXVER (see WinSDKVer.h)
d:\24dialer\running\24dialer\wstring.h(183): warning C4996: 'sprintf': This function or variable may be unsafe. Consider using sprintf_s instead. To disable deprecation, use _CRT_SECURE_NO_WARNINGS. See online help for details.
          c:\program files (x86)\microsoft visual studio 11.0\vc\include\stdio.h(357) : see declaration of 'sprintf'
d:\24dialer\running\24dialer\wstring.h(239): warning C4996: 'vsprintf': This function or variable may be unsafe. Consider using vsprintf_s instead. To disable deprecation, use _CRT_SECURE_NO_WARNINGS. See online help for details.
          c:\program files (x86)\microsoft visual studio 11.0\vc\include\stdio.h(357) : see declaration of 'vsprintf'
d:\24dialer\running\24dialer\wpoller.h(142): warning C4018: '>' : signed/unsigned mismatch
d:\24dialer\running\24dialer\wpoller.h(145): warning C4018: '>' : signed/unsigned mismatch
d:\24dialer\running\24dialer\wpoller.h(147): warning C4018: '<' : signed/unsigned mismatch
d:\24dialer\running\24dialer\wpoller.h(155): warning C4018: '>' : signed/unsigned mismatch
d:\24dialer\running\24dialer\wpoller.h(158): warning C4018: '>' : signed/unsigned mismatch
d:\24dialer\running\24dialer\wpoller.h(174): warning C4018: '>=' : signed/unsigned mismatch
d:\24dialer\running\24dialer\wpoller.h(177): warning C4018: '>' : signed/unsigned mismatch
d:\24dialer\running\24dialer\wpoller.h(396): warning C4996: 'sprintf': This function or variable may be unsafe. Consider using sprintf_s instead. To disable deprecation, use _CRT_SECURE_NO_WARNINGS. See online help for details.
          c:\program files (x86)\microsoft visual studio 11.0\vc\include\stdio.h(357) : see declaration of 'sprintf'
d:\24dialer\running\24dialer\wpoller.h(605): warning C4996: 'strcpy': This function or variable may be unsafe. Consider using strcpy_s instead. To disable deprecation, use _CRT_SECURE_NO_WARNINGS. See online help for details.
          c:\program files (x86)\microsoft visual studio 11.0\vc\include\string.h(110) : see declaration of 'strcpy'
d:\24dialer\running\24dialer\wpoller.h(606): warning C4996: 'strcpy': This function or variable may be unsafe. Consider using strcpy_s instead. To disable deprecation, use _CRT_SECURE_NO_WARNINGS. See online help for details.
          c:\program files (x86)\microsoft visual studio 11.0\vc\include\string.h(110) : see declaration of 'strcpy'
d:\24dialer\running\24dialer\wpoller.h(607): warning C4996: 'strcpy': This function or variable may be unsafe. Consider using strcpy_s instead. To disable deprecation, use _CRT_SECURE_NO_WARNINGS. See online help for details.
          c:\program files (x86)\microsoft visual studio 11.0\vc\include\string.h(110) : see declaration of 'strcpy'
d:\24dialer\running\24dialer\wpoller.h(608): warning C4996: 'strcpy': This function or variable may be unsafe. Consider using strcpy_s instead. To disable deprecation, use _CRT_SECURE_NO_WARNINGS. See online help for details.
          c:\program files (x86)\microsoft visual studio 11.0\vc\include\string.h(110) : see declaration of 'strcpy'
d:\24dialer\running\24dialer\wpoller.h(609): warning C4996: 'strcpy': This function or variable may be unsafe. Consider using strcpy_s instead. To disable deprecation, use _CRT_SECURE_NO_WARNINGS. See online help for details.
          c:\program files (x86)\microsoft visual studio 11.0\vc\include\string.h(110) : see declaration of 'strcpy'
d:\24dialer\running\24dialer\wpoller.h(610): warning C4996: 'strcpy': This function or variable may be unsafe. Consider using strcpy_s instead. To disable deprecation, use _CRT_SECURE_NO_WARNINGS. See online help for details.
          c:\program files (x86)\microsoft visual studio 11.0\vc\include\string.h(110) : see declaration of 'strcpy'
d:\24dialer\running\24dialer\wpoller.h(611): warning C4996: 'strcpy': This function or variable may be unsafe. Consider using strcpy_s instead. To disable deprecation, use _CRT_SECURE_NO_WARNINGS. See online help for details.
          c:\program files (x86)\microsoft visual studio 11.0\vc\include\string.h(110) : see declaration of 'strcpy'
d:\24dialer\running\24dialer\wpoller.h(612): warning C4996: 'strcpy': This function or variable may be unsafe. Consider using strcpy_s instead. To disable deprecation, use _CRT_SECURE_NO_WARNINGS. See online help for details.
          c:\program files (x86)\microsoft visual studio 11.0\vc\include\string.h(110) : see declaration of 'strcpy'
d:\24dialer\running\24dialer\wpoller.h(613): warning C4996: 'strcpy': This function or variable may be unsafe. Consider using strcpy_s instead. To disable deprecation, use _CRT_SECURE_NO_WARNINGS. See online help for details.
          c:\program files (x86)\microsoft visual studio 11.0\vc\include\string.h(110) : see declaration of 'strcpy'
d:\24dialer\running\24dialer\wpoller.h(614): warning C4996: 'strcpy': This function or variable may be unsafe. Consider using strcpy_s instead. To disable deprecation, use _CRT_SECURE_NO_WARNINGS. See online help for details.
          c:\program files (x86)\microsoft visual studio 11.0\vc\include\string.h(110) : see declaration of 'strcpy'
d:\24dialer\running\24dialer\wpoller.h(615): warning C4996: 'strcpy': This function or variable may be unsafe. Consider using strcpy_s instead. To disable deprecation, use _CRT_SECURE_NO_WARNINGS. See online help for details.
          c:\program files (x86)\microsoft visual studio 11.0\vc\include\string.h(110) : see declaration of 'strcpy'
d:\24dialer\running\24dialer\wpoller.h(616): warning C4996: 'strcpy': This function or variable may be unsafe. Consider using strcpy_s instead. To disable deprecation, use _CRT_SECURE_NO_WARNINGS. See online help for details.
          c:\program files (x86)\microsoft visual studio 11.0\vc\include\string.h(110) : see declaration of 'strcpy'
d:\24dialer\running\24dialer\wpoller.h(617): warning C4996: 'strcpy': This function or variable may be unsafe. Consider using strcpy_s instead. To disable deprecation, use _CRT_SECURE_NO_WARNINGS. See online help for details.
          c:\program files (x86)\microsoft visual studio 11.0\vc\include\string.h(110) : see declaration of 'strcpy'
d:\24dialer\running\24dialer\wpoller.h(618): warning C4996: 'strcpy': This function or variable may be unsafe. Consider using strcpy_s instead. To disable deprecation, use _CRT_SECURE_NO_WARNINGS. See online help for details.
          c:\program files (x86)\microsoft visual studio 11.0\vc\include\string.h(110) : see declaration of 'strcpy'
d:\24dialer\running\24dialer\wpoller.h(619): warning C4996: 'strcpy': This function or variable may be unsafe. Consider using strcpy_s instead. To disable deprecation, use _CRT_SECURE_NO_WARNINGS. See online help for details.
          c:\program files (x86)\microsoft visual studio 11.0\vc\include\string.h(110) : see declaration of 'strcpy'
d:\24dialer\running\24dialer\wpoller.h(620): warning C4996: 'strcpy': This function or variable may be unsafe. Consider using strcpy_s instead. To disable deprecation, use _CRT_SECURE_NO_WARNINGS. See online help for details.
          c:\program files (x86)\microsoft visual studio 11.0\vc\include\string.h(110) : see declaration of 'strcpy'
d:\24dialer\running\24dialer\wpoller.h(621): warning C4996: 'strcpy': This function or variable may be unsafe. Consider using strcpy_s instead. To disable deprecation, use _CRT_SECURE_NO_WARNINGS. See online help for details.
          c:\program files (x86)\microsoft visual studio 11.0\vc\include\string.h(110) : see declaration of 'strcpy'
d:\24dialer\running\24dialer\wpoller.h(631): warning C4018: '<' : signed/unsigned mismatch
d:\24dialer\running\24dialer\wpoller.h(633): warning C4018: '<' : signed/unsigned mismatch
d:\24dialer\running\24dialer\wpoller.h(730): warning C4996: 'strnicmp': The POSIX name for this item is deprecated. Instead, use the ISO C++ conformant name: _strnicmp. See online help for details.
          c:\program files (x86)\microsoft visual studio 11.0\vc\include\string.h(251) : see declaration of 'strnicmp'
d:\24dialer\running\24dialer\dialerstate.h(157): warning C4244: 'return' : conversion from '__int64' to 'TInt', possible loss of data
d:\24dialer\running\24dialer\dialerstate.h(402): warning C4018: '>=' : signed/unsigned mismatch
d:\24dialer\running\24dialer\dialerstate.h(411): warning C4018: '<' : signed/unsigned mismatch
d:\24dialer\running\24dialer\dialerstate.h(412): warning C4018: '<=' : signed/unsigned mismatch
d:\24dialer\running\24dialer\smoothdialer.cpp(54): warning C4996: 'CWinApp::Enable3dControls': CWinApp::Enable3dControls is no longer needed. You should remove this call.
          c:\program files (x86)\microsoft visual studio 11.0\vc\atlmfc\include\afxwin.h(5361) : see declaration of 'CWinApp::Enable3dControls'
  SmoothDialerDlg.cpp
  _WIN32_WINNT not defined. Defaulting to _WIN32_WINNT_MAXVER (see WinSDKVer.h)
d:\24dialer\running\24dialer\wstring.h(183): warning C4996: 'sprintf': This function or variable may be unsafe. Consider using sprintf_s instead. To disable deprecation, use _CRT_SECURE_NO_WARNINGS. See online help for details.
          c:\program files (x86)\microsoft visual studio 11.0\vc\include\stdio.h(357) : see declaration of 'sprintf'
d:\24dialer\running\24dialer\wstring.h(239): warning C4996: 'vsprintf': This function or variable may be unsafe. Consider using vsprintf_s instead. To disable deprecation, use _CRT_SECURE_NO_WARNINGS. See online help for details.
          c:\program files (x86)\microsoft visual studio 11.0\vc\include\stdio.h(357) : see declaration of 'vsprintf'
d:\24dialer\running\24dialer\wpoller.h(142): warning C4018: '>' : signed/unsigned mismatch
d:\24dialer\running\24dialer\wpoller.h(145): warning C4018: '>' : signed/unsigned mismatch
d:\24dialer\running\24dialer\wpoller.h(147): warning C4018: '<' : signed/unsigned mismatch
d:\24dialer\running\24dialer\wpoller.h(155): warning C4018: '>' : signed/unsigned mismatch
d:\24dialer\running\24dialer\wpoller.h(158): warning C4018: '>' : signed/unsigned mismatch
d:\24dialer\running\24dialer\wpoller.h(174): warning C4018: '>=' : signed/unsigned mismatch
d:\24dialer\running\24dialer\wpoller.h(177): warning C4018: '>' : signed/unsigned mismatch
d:\24dialer\running\24dialer\wpoller.h(396): warning C4996: 'sprintf': This function or variable may be unsafe. Consider using sprintf_s instead. To disable deprecation, use _CRT_SECURE_NO_WARNINGS. See online help for details.
          c:\program files (x86)\microsoft visual studio 11.0\vc\include\stdio.h(357) : see declaration of 'sprintf'
d:\24dialer\running\24dialer\wpoller.h(605): warning C4996: 'strcpy': This function or variable may be unsafe. Consider using strcpy_s instead. To disable deprecation, use _CRT_SECURE_NO_WARNINGS. See online help for details.
          c:\program files (x86)\microsoft visual studio 11.0\vc\include\string.h(110) : see declaration of 'strcpy'
d:\24dialer\running\24dialer\wpoller.h(606): warning C4996: 'strcpy': This function or variable may be unsafe. Consider using strcpy_s instead. To disable deprecation, use _CRT_SECURE_NO_WARNINGS. See online help for details.
          c:\program files (x86)\microsoft visual studio 11.0\vc\include\string.h(110) : see declaration of 'strcpy'
d:\24dialer\running\24dialer\wpoller.h(607): warning C4996: 'strcpy': This function or variable may be unsafe. Consider using strcpy_s instead. To disable deprecation, use _CRT_SECURE_NO_WARNINGS. See online help for details.
          c:\program files (x86)\microsoft visual studio 11.0\vc\include\string.h(110) : see declaration of 'strcpy'
d:\24dialer\running\24dialer\wpoller.h(608): warning C4996: 'strcpy': This function or variable may be unsafe. Consider using strcpy_s instead. To disable deprecation, use _CRT_SECURE_NO_WARNINGS. See online help for details.
          c:\program files (x86)\microsoft visual studio 11.0\vc\include\string.h(110) : see declaration of 'strcpy'
d:\24dialer\running\24dialer\wpoller.h(609): warning C4996: 'strcpy': This function or variable may be unsafe. Consider using strcpy_s instead. To disable deprecation, use _CRT_SECURE_NO_WARNINGS. See online help for details.
          c:\program files (x86)\microsoft visual studio 11.0\vc\include\string.h(110) : see declaration of 'strcpy'
d:\24dialer\running\24dialer\wpoller.h(610): warning C4996: 'strcpy': This function or variable may be unsafe. Consider using strcpy_s instead. To disable deprecation, use _CRT_SECURE_NO_WARNINGS. See online help for details.
          c:\program files (x86)\microsoft visual studio 11.0\vc\include\string.h(110) : see declaration of 'strcpy'
d:\24dialer\running\24dialer\wpoller.h(611): warning C4996: 'strcpy': This function or variable may be unsafe. Consider using strcpy_s instead. To disable deprecation, use _CRT_SECURE_NO_WARNINGS. See online help for details.
          c:\program files (x86)\microsoft visual studio 11.0\vc\include\string.h(110) : see declaration of 'strcpy'
d:\24dialer\running\24dialer\wpoller.h(612): warning C4996: 'strcpy': This function or variable may be unsafe. Consider using strcpy_s instead. To disable deprecation, use _CRT_SECURE_NO_WARNINGS. See online help for details.
          c:\program files (x86)\microsoft visual studio 11.0\vc\include\string.h(110) : see declaration of 'strcpy'
d:\24dialer\running\24dialer\wpoller.h(613): warning C4996: 'strcpy': This function or variable may be unsafe. Consider using strcpy_s instead. To disable deprecation, use _CRT_SECURE_NO_WARNINGS. See online help for details.
          c:\program files (x86)\microsoft visual studio 11.0\vc\include\string.h(110) : see declaration of 'strcpy'
d:\24dialer\running\24dialer\wpoller.h(614): warning C4996: 'strcpy': This function or variable may be unsafe. Consider using strcpy_s instead. To disable deprecation, use _CRT_SECURE_NO_WARNINGS. See online help for details.
          c:\program files (x86)\microsoft visual studio 11.0\vc\include\string.h(110) : see declaration of 'strcpy'
d:\24dialer\running\24dialer\wpoller.h(615): warning C4996: 'strcpy': This function or variable may be unsafe. Consider using strcpy_s instead. To disable deprecation, use _CRT_SECURE_NO_WARNINGS. See online help for details.
          c:\program files (x86)\microsoft visual studio 11.0\vc\include\string.h(110) : see declaration of 'strcpy'
d:\24dialer\running\24dialer\wpoller.h(616): warning C4996: 'strcpy': This function or variable may be unsafe. Consider using strcpy_s instead. To disable deprecation, use _CRT_SECURE_NO_WARNINGS. See online help for details.
          c:\program files (x86)\microsoft visual studio 11.0\vc\include\string.h(110) : see declaration of 'strcpy'
d:\24dialer\running\24dialer\wpoller.h(617): warning C4996: 'strcpy': This function or variable may be unsafe. Consider using strcpy_s instead. To disable deprecation, use _CRT_SECURE_NO_WARNINGS. See online help for details.
          c:\program files (x86)\microsoft visual studio 11.0\vc\include\string.h(110) : see declaration of 'strcpy'
d:\24dialer\running\24dialer\wpoller.h(618): warning C4996: 'strcpy': This function or variable may be unsafe. Consider using strcpy_s instead. To disable deprecation, use _CRT_SECURE_NO_WARNINGS. See online help for details.
          c:\program files (x86)\microsoft visual studio 11.0\vc\include\string.h(110) : see declaration of 'strcpy'
d:\24dialer\running\24dialer\wpoller.h(619): warning C4996: 'strcpy': This function or variable may be unsafe. Consider using strcpy_s instead. To disable deprecation, use _CRT_SECURE_NO_WARNINGS. See online help for details.
          c:\program files (x86)\microsoft visual studio 11.0\vc\include\string.h(110) : see declaration of 'strcpy'
d:\24dialer\running\24dialer\wpoller.h(620): warning C4996: 'strcpy': This function or variable may be unsafe. Consider using strcpy_s instead. To disable deprecation, use _CRT_SECURE_NO_WARNINGS. See online help for details.
          c:\program files (x86)\microsoft visual studio 11.0\vc\include\string.h(110) : see declaration of 'strcpy'
d:\24dialer\running\24dialer\wpoller.h(621): warning C4996: 'strcpy': This function or variable may be unsafe. Consider using strcpy_s instead. To disable deprecation, use _CRT_SECURE_NO_WARNINGS. See online help for details.
          c:\program files (x86)\microsoft visual studio 11.0\vc\include\string.h(110) : see declaration of 'strcpy'
d:\24dialer\running\24dialer\wpoller.h(631): warning C4018: '<' : signed/unsigned mismatch
d:\24dialer\running\24dialer\wpoller.h(633): warning C4018: '<' : signed/unsigned mismatch
d:\24dialer\running\24dialer\wpoller.h(730): warning C4996: 'strnicmp': The POSIX name for this item is deprecated. Instead, use the ISO C++ conformant name: _strnicmp. See online help for details.
          c:\program files (x86)\microsoft visual studio 11.0\vc\include\string.h(251) : see declaration of 'strnicmp'
d:\24dialer\running\24dialer\dialerstate.h(157): warning C4244: 'return' : conversion from '__int64' to 'TInt', possible loss of data
d:\24dialer\running\24dialer\dialerstate.h(402): warning C4018: '>=' : signed/unsigned mismatch
d:\24dialer\running\24dialer\dialerstate.h(411): warning C4018: '<' : signed/unsigned mismatch
d:\24dialer\running\24dialer\dialerstate.h(412): warning C4018: '<=' : signed/unsigned mismatch
  StdAfx.cpp
  _WIN32_WINNT not defined. Defaulting to _WIN32_WINNT_MAXVER (see WinSDKVer.h)
  Generating Code...
d:\24dialer\running\24dialer\dialeragent.cpp(610): warning C4715: 'DialerAgent::SendFeedbackToAuthServer' : not all control paths return a value
  SmoothDialer.vcxproj -> D:\24Dialer\Running\24Dialer\.\Release\24Dialer.exe
