^D:\24DIALER\RUNNING\24PCDIALER\AUDIOENGINESYMBIAN.CPP|D:\24DIALER\RUNNING\24PCDIALER\AUDIOTHREAD.CPP|D:\24DIALER\RUNNING\24PCDIALER\CONTACTSDLG.CPP|D:\24DIALER\RUNNING\24PCDIALER\DIALERAGENT.CPP|D:\24DIALER\RUNNING\24PCDIALER\DIALERAGENTEXTENSION.CPP|D:\24DIALER\RUNNING\24PCDIALER\FLEXIACCOUNT.CPP|D:\24DIALER\RUNNING\24PCDIALER\GLOBALS.CPP|D:\24DIALER\RUNNING\24PCDIALER\LOGINDLG.CPP|D:\24DIALER\RUNNING\24PCDIALER\RECHAGEDLG.CPP|D:\24DIALER\RUNNING\24PCDIALER\SMOOTHDIALER.CPP|D:\24DIALER\RUNNING\24PCDIALER\SMOOTHDIALERDLG.CPP|D:\24DIALER\RUNNING\24PCDIALER\STDAFX.CPP
D:\24DIALER\RUNNING\24PCDIALER\RELEASE\AUDIOENGINESYMBIAN.SBR
D:\24DIALER\RUNNING\24PCDIALER\RELEASE\AUDIOTHREAD.SBR
D:\24DIALER\RUNNING\24PCDIALER\RELEASE\CONTACTSDLG.SBR
D:\24DIALER\RUNNING\24PCDIALER\RELEASE\DIALERAGENT.SBR
D:\24DIALER\RUNNING\24PCDIALER\RELEASE\DIALERAGENTEXTENSION.SBR
D:\24DIALER\RUNNING\24PCDIALER\RELEASE\FLEXIACCOUNT.SBR
D:\24DIALER\RUNNING\24PCDIALER\RELEASE\GLOBALS.SBR
D:\24DIALER\RUNNING\24PCDIALER\RELEASE\LOGINDLG.SBR
D:\24DIALER\RUNNING\24PCDIALER\RELEASE\RECHAGEDLG.SBR
D:\24DIALER\RUNNING\24PCDIALER\RELEASE\SMOOTHDIALER.SBR
D:\24DIALER\RUNNING\24PCDIALER\RELEASE\SMOOTHDIALERDLG.SBR
D:\24DIALER\RUNNING\24PCDIALER\RELEASE\STDAFX.SBR
D:\24DIALER\RUNNING\24PCDIALER\RELEASE\STDAFX.OBJ
D:\24DIALER\RUNNING\24PCDIALER\RELEASE\SMOOTHDIALERDLG.OBJ
D:\24DIALER\RUNNING\24PCDIALER\RELEASE\SMOOTHDIALER.OBJ
D:\24DIALER\RUNNING\24PCDIALER\RELEASE\RECHAGEDLG.OBJ
D:\24DIALER\RUNNING\24PCDIALER\RELEASE\LOGINDLG.OBJ
D:\24DIALER\RUNNING\24PCDIALER\RELEASE\GLOBALS.OBJ
D:\24DIALER\RUNNING\24PCDIALER\RELEASE\FLEXIACCOUNT.OBJ
D:\24DIALER\RUNNING\24PCDIALER\RELEASE\DIALERAGENTEXTENSION.OBJ
D:\24DIALER\RUNNING\24PCDIALER\RELEASE\DIALERAGENT.OBJ
D:\24DIALER\RUNNING\24PCDIALER\RELEASE\CONTACTSDLG.OBJ
D:\24DIALER\RUNNING\24PCDIALER\RELEASE\AUDIOTHREAD.OBJ
D:\24DIALER\RUNNING\24PCDIALER\RELEASE\AUDIOENGINESYMBIAN.OBJ
^D:\24DIALER\RUNNING\24PCDIALER\AUDIOENGINESYMBIAN.CPP
D:\24DIALER\RUNNING\24PCDIALER\RELEASE\VC110.PDB
^D:\24DIALER\RUNNING\24PCDIALER\AUDIOTHREAD.CPP
D:\24DIALER\RUNNING\24PCDIALER\RELEASE\VC110.PDB
^D:\24DIALER\RUNNING\24PCDIALER\CONTACTSDLG.CPP
D:\24DIALER\RUNNING\24PCDIALER\RELEASE\VC110.PDB
^D:\24DIALER\RUNNING\24PCDIALER\DIALERAGENTEXTENSION.CPP
D:\24DIALER\RUNNING\24PCDIALER\RELEASE\VC110.PDB
^D:\24DIALER\RUNNING\24PCDIALER\FLEXIACCOUNT.CPP
D:\24DIALER\RUNNING\24PCDIALER\RELEASE\VC110.PDB
^D:\24DIALER\RUNNING\24PCDIALER\GLOBALS.CPP
D:\24DIALER\RUNNING\24PCDIALER\RELEASE\VC110.PDB
^D:\24DIALER\RUNNING\24PCDIALER\LOGINDLG.CPP
D:\24DIALER\RUNNING\24PCDIALER\RELEASE\VC110.PDB
^D:\24DIALER\RUNNING\24PCDIALER\RECHAGEDLG.CPP
D:\24DIALER\RUNNING\24PCDIALER\RELEASE\VC110.PDB
^D:\24DIALER\RUNNING\24PCDIALER\SMOOTHDIALER.CPP
D:\24DIALER\RUNNING\24PCDIALER\RELEASE\VC110.PDB
^D:\24DIALER\RUNNING\24PCDIALER\SMOOTHDIALERDLG.CPP
D:\24DIALER\RUNNING\24PCDIALER\RELEASE\VC110.PDB
^D:\24DIALER\RUNNING\24PCDIALER\STDAFX.CPP
D:\24DIALER\RUNNING\24PCDIALER\RELEASE\VC110.PDB
^D:\24DIALER\RUNNING\24PCDIALER\DIALERAGENT.CPP
D:\24DIALER\RUNNING\24PCDIALER\RELEASE\DIALERAGENT.SBR
D:\24DIALER\RUNNING\24PCDIALER\RELEASE\DIALERAGENT.OBJ
D:\24DIALER\RUNNING\24PCDIALER\RELEASE\VC110.PDB
