^D:\24PCDIALER WORKS\NEW VERSION\DEVELOPING\24PCDIALER\DIALERAGENT\APP.RC
D:\24PCDIALER WORKS\NEW VERSION\DEVELOPING\24PCDIALER\DIALERAGENT\RESOURCE.H
D:\24PCDIALER WORKS\NEW VERSION\DEVELOPING\24PCDIALER\DIALERAGENT\APP.ICO
