^D:\24PCDIALER WORKS\NEW VERSION\WITH SMS,FLEXI\24PCDIALER\DIALERAGENT\APP.RC
D:\24PCDIALER WORKS\NEW VERSION\WITH SMS,FLEXI\24PCDIALER\DIALERAGENT\RESOURCE.H
D:\24PCDIALER WORKS\NEW VERSION\WITH SMS,FLEXI\24PCDIALER\DIALERAGENT\APP.ICO
