^D:\24DIALER\BACKUP\24PCDIALER_V4.0.5.0_FINAL_11.09.2013\24PCDIALER\RELEASE\AUDIOENGINESYMBIAN.OBJ|D:\24DIALER\BACKUP\24PCDIALER_V4.0.5.0_FINAL_11.09.2013\24PCDIALER\RELEASE\AUDIOTHREAD.OBJ|D:\24DIALER\BACKUP\24PCDIALER_V4.0.5.0_FINAL_11.09.2013\24PCDIALER\RELEASE\CONTACTSDLG.OBJ|D:\24DIALER\BACKUP\24PCDIALER_V4.0.5.0_FINAL_11.09.2013\24PCDIALER\RELEASE\DIALERAGENT.OBJ|D:\24DIALER\BACKUP\24PCDIALER_V4.0.5.0_FINAL_11.09.2013\24PCDIALER\RELEASE\DIALERAGENTEXTENSION.OBJ|D:\24DIALER\BACKUP\24PCDIALER_V4.0.5.0_FINAL_11.09.2013\24PCDIALER\RELEASE\GLOBALS.OBJ|D:\24DIALER\BACKUP\24PCDIALER_V4.0.5.0_FINAL_11.09.2013\24PCDIALER\RELEASE\LOGINDLG.OBJ|D:\24DIALER\BACKUP\24PCDIALER_V4.0.5.0_FINAL_11.09.2013\24PCDIALER\RELEASE\SMOOTHDIALER.OBJ|D:\24DIALER\BACKUP\24PCDIALER_V4.0.5.0_FINAL_11.09.2013\24PCDIALER\RELEASE\SMOOTHDIALER.RES|D:\24DIALER\BACKUP\24PCDIALER_V4.0.5.0_FINAL_11.09.2013\24PCDIALER\RELEASE\SMOOTHDIALERDLG.OBJ|D:\24DIALER\BACKUP\24PCDIALER_V4.0.5.0_FINAL_11.09.2013\24PCDIALER\RELEASE\STDAFX.OBJ
D:\24DIALER\BACKUP\24PCDIALER_V4.0.5.0_FINAL_11.09.2013\24PCDIALER\RELEASE\24PCDIALER.ILK
D:\24DIALER\BACKUP\24PCDIALER_V4.0.5.0_FINAL_11.09.2013\24PCDIALER\RELEASE\24PCDIALER.EXE
D:\24DIALER\BACKUP\24PCDIALER_V4.0.5.0_FINAL_11.09.2013\24PCDIALER\RELEASE\24PCDIALER.PDB
