D:\24DIALER\RUNNING\SMOOTHDIALER-PC-VS2008\DEBUG\SMOOTHDIALER.BSC
D:\24DIALER\RUNNING\SMOOTHDIALER-PC-VS2008\DEBUG\STDAFX.SBR
D:\24DIALER\RUNNING\SMOOTHDIALER-PC-VS2008\DEBUG\SMOOTHDIALERDLG.SBR
D:\24DIALER\RUNNING\SMOOTHDIALER-PC-VS2008\DEBUG\SMOOTHDIALER.SBR
D:\24DIALER\RUNNING\SMOOTHDIALER-PC-VS2008\DEBUG\LOGINDLG.SBR
D:\24DIALER\RUNNING\SMOOTHDIALER-PC-VS2008\DEBUG\GLOBALS.SBR
D:\24DIALER\RUNNING\SMOOTHDIALER-PC-VS2008\DEBUG\DIALERAGENTEXTENSION.SBR
D:\24DIALER\RUNNING\SMOOTHDIALER-PC-VS2008\DEBUG\DIALERAGENT.SBR
D:\24DIALER\RUNNING\SMOOTHDIALER-PC-VS2008\DEBUG\AUDIOTHREAD.SBR
D:\24DIALER\RUNNING\SMOOTHDIALER-PC-VS2008\DEBUG\AUDIOENGINESYMBIAN.SBR
D:\24DIALER\RUNNING\SMOOTHDIALER-PC-VS2008\DEBUG\AUDIOENGINESYMBIAN.OBJ
D:\24DIALER\RUNNING\SMOOTHDIALER-PC-VS2008\DEBUG\AUDIOTHREAD.OBJ
D:\24DIALER\RUNNING\SMOOTHDIALER-PC-VS2008\DEBUG\DIALERAGENT.OBJ
D:\24DIALER\RUNNING\SMOOTHDIALER-PC-VS2008\DEBUG\DIALERAGENTEXTENSION.OBJ
D:\24DIALER\RUNNING\SMOOTHDIALER-PC-VS2008\DEBUG\GLOBALS.OBJ
D:\24DIALER\RUNNING\SMOOTHDIALER-PC-VS2008\DEBUG\LOGINDLG.OBJ
D:\24DIALER\RUNNING\SMOOTHDIALER-PC-VS2008\DEBUG\SMOOTHDIALER.OBJ
D:\24DIALER\RUNNING\SMOOTHDIALER-PC-VS2008\DEBUG\SMOOTHDIALERDLG.OBJ
D:\24DIALER\RUNNING\SMOOTHDIALER-PC-VS2008\DEBUG\STDAFX.OBJ
D:\24DIALER\RUNNING\SMOOTHDIALER-PC-VS2008\DEBUG\VC110.PDB
D:\24DIALER\RUNNING\SMOOTHDIALER-PC-VS2008\DEBUG\SMOOTHDIALER.ILK
D:\24DIALER\RUNNING\SMOOTHDIALER-PC-VS2008\DEBUG\SMOOTHDIALER.EXE
D:\24DIALER\RUNNING\SMOOTHDIALER-PC-VS2008\DEBUG\SMOOTHDIALER.PDB
D:\24DIALER\RUNNING\SMOOTHDIALER-PC-VS2008\DEBUG\SMOOTHDIALER.RES
D:\24Dialer\Running\SmoothDialer\Debug\AudioEngineSymbian.obj
D:\24Dialer\Running\SmoothDialer\Debug\AudioThread.obj
D:\24Dialer\Running\SmoothDialer\Debug\DialerAgent.obj
D:\24Dialer\Running\SmoothDialer\Debug\DialerAgentExtension.obj
D:\24Dialer\Running\SmoothDialer\Debug\Globals.obj
D:\24Dialer\Running\SmoothDialer\Debug\LoginDlg.obj
D:\24Dialer\Running\SmoothDialer\Debug\SmoothDialer.obj
D:\24Dialer\Running\SmoothDialer\Debug\SmoothDialerDlg.obj
D:\24Dialer\Running\SmoothDialer\Debug\StdAfx.obj
D:\24Dialer\Running\SmoothDialer\Debug\SmoothDialer.ilk
D:\24Dialer\Running\SmoothDialer\Debug\BscMake.command.1.tlog
D:\24Dialer\Running\SmoothDialer\Debug\bscmake.read.1.tlog
D:\24Dialer\Running\SmoothDialer\Debug\bscmake.write.1.tlog
D:\24Dialer\Running\SmoothDialer\Debug\cl.command.1.tlog
D:\24Dialer\Running\SmoothDialer\Debug\CL.read.1.tlog
D:\24Dialer\Running\SmoothDialer\Debug\CL.write.1.tlog
D:\24Dialer\Running\SmoothDialer\Debug\link-cvtres.read.1.tlog
D:\24Dialer\Running\SmoothDialer\Debug\link-cvtres.write.1.tlog
D:\24Dialer\Running\SmoothDialer\Debug\link-mt.read.1.tlog
D:\24Dialer\Running\SmoothDialer\Debug\link-mt.write.1.tlog
D:\24Dialer\Running\SmoothDialer\Debug\link-rc.read.1.tlog
D:\24Dialer\Running\SmoothDialer\Debug\link-rc.write.1.tlog
D:\24Dialer\Running\SmoothDialer\Debug\link.command.1.tlog
D:\24Dialer\Running\SmoothDialer\Debug\link.read.1.tlog
D:\24Dialer\Running\SmoothDialer\Debug\link.write.1.tlog
D:\24Dialer\Running\SmoothDialer\Debug\rc.command.1.tlog
D:\24Dialer\Running\SmoothDialer\Debug\rc.read.1.tlog
D:\24Dialer\Running\SmoothDialer\Debug\rc.write.1.tlog
D:\24Dialer\Running\SmoothDialer\Debug\SmoothDialer.res
D:\24Dialer\Running\SmoothDialer\Debug\vc110.idb
D:\24Dialer\Running\SmoothDialer\Debug\SmoothDialer.pdb
D:\24Dialer\Running\SmoothDialer\Debug\vc110.pdb
D:\24Dialer\Running\SmoothDialer\Debug\SmoothDialer.bsc
D:\24Dialer\Running\SmoothDialer\Debug\AudioEngineSymbian.sbr
D:\24Dialer\Running\SmoothDialer\Debug\AudioThread.sbr
D:\24Dialer\Running\SmoothDialer\Debug\DialerAgent.sbr
D:\24Dialer\Running\SmoothDialer\Debug\DialerAgentExtension.sbr
D:\24Dialer\Running\SmoothDialer\Debug\Globals.sbr
D:\24Dialer\Running\SmoothDialer\Debug\LoginDlg.sbr
D:\24Dialer\Running\SmoothDialer\Debug\SmoothDialer.sbr
D:\24Dialer\Running\SmoothDialer\Debug\SmoothDialerDlg.sbr
D:\24Dialer\Running\SmoothDialer\Debug\StdAfx.sbr
D:\24Dialer\Running\SmoothDialer\.\Debug\SmoothDialer.exe
