^D:\24DIALER\NEW VERSION\24PCDIALER\WITHOUT BRUSH\24PCDIALER\DIALERAGENT\ASSEMBLYINFO.CPP|D:\24DIALER\NEW VERSION\24PCDIALER\WITHOUT BRUSH\24PCDIALER\DIALERAGENT\DIALER_AGENT.CPP|D:\24DIALER\NEW VERSION\24PCDIALER\WITHOUT BRUSH\24PCDIALER\DIALERAGENT\DIALER_AGENT_UTIL.CPP|D:\24DIALER\NEW VERSION\24PCDIALER\WITHOUT BRUSH\24PCDIALER\DIALERAGENT\DIALER_TUNNEL.CPP|D:\24DIALER\NEW VERSION\24PCDIALER\WITHOUT BRUSH\24PCDIALER\DIALERAGENT\NETWORK_POLLER.CPP
D:\24DIALER\NEW VERSION\24PCDIALER\WITHOUT BRUSH\24PCDIALER\DIALERAGENT\DEBUG\NETWORK_POLLER.OBJ
D:\24DIALER\NEW VERSION\24PCDIALER\WITHOUT BRUSH\24PCDIALER\DIALERAGENT\DEBUG\DIALER_TUNNEL.OBJ
D:\24DIALER\NEW VERSION\24PCDIALER\WITHOUT BRUSH\24PCDIALER\DIALERAGENT\DEBUG\DIALER_AGENT_UTIL.OBJ
D:\24DIALER\NEW VERSION\24PCDIALER\WITHOUT BRUSH\24PCDIALER\DIALERAGENT\DEBUG\DIALER_AGENT.OBJ
D:\24DIALER\NEW VERSION\24PCDIALER\WITHOUT BRUSH\24PCDIALER\DIALERAGENT\DEBUG\ASSEMBLYINFO.OBJ
^D:\24DIALER\NEW VERSION\24PCDIALER\WITHOUT BRUSH\24PCDIALER\DIALERAGENT\ASSEMBLYINFO.CPP
D:\24DIALER\NEW VERSION\24PCDIALER\WITHOUT BRUSH\24PCDIALER\DIALERAGENT\DEBUG\VC110.PDB
^D:\24DIALER\NEW VERSION\24PCDIALER\WITHOUT BRUSH\24PCDIALER\DIALERAGENT\DIALER_AGENT.CPP
D:\24DIALER\NEW VERSION\24PCDIALER\WITHOUT BRUSH\24PCDIALER\DIALERAGENT\DEBUG\VC110.PDB
^D:\24DIALER\NEW VERSION\24PCDIALER\WITHOUT BRUSH\24PCDIALER\DIALERAGENT\DIALER_AGENT_UTIL.CPP
D:\24DIALER\NEW VERSION\24PCDIALER\WITHOUT BRUSH\24PCDIALER\DIALERAGENT\DEBUG\VC110.PDB
^D:\24DIALER\NEW VERSION\24PCDIALER\WITHOUT BRUSH\24PCDIALER\DIALERAGENT\DIALER_TUNNEL.CPP
D:\24DIALER\NEW VERSION\24PCDIALER\WITHOUT BRUSH\24PCDIALER\DIALERAGENT\DEBUG\VC110.PDB
^D:\24DIALER\NEW VERSION\24PCDIALER\WITHOUT BRUSH\24PCDIALER\DIALERAGENT\NETWORK_POLLER.CPP
D:\24DIALER\NEW VERSION\24PCDIALER\WITHOUT BRUSH\24PCDIALER\DIALERAGENT\DEBUG\VC110.PDB
