^D:\24DIALER\NEW VERSION\SMOOTHDIALER-PC\G729\STDAFX.CPP
D:\24DIALER\NEW VERSION\SMOOTHDIALER-PC\G729\DEBUG\G729.PCH
D:\24DIALER\NEW VERSION\SMOOTHDIALER-PC\G729\DEBUG\STDAFX.OBJ
D:\24DIALER\NEW VERSION\SMOOTHDIALER-PC\G729\DEBUG\VC110.PDB
^D:\24DIALER\NEW VERSION\SMOOTHDIALER-PC\G729\ASSEMBLYINFO.CPP
D:\24DIALER\NEW VERSION\SMOOTHDIALER-PC\G729\DEBUG\ASSEMBLYINFO.OBJ
D:\24DIALER\NEW VERSION\SMOOTHDIALER-PC\G729\DEBUG\VC110.PDB
^D:\24DIALER\NEW VERSION\SMOOTHDIALER-PC\G729\SOURCE\ACELP_CA.C|D:\24DIALER\NEW VERSION\SMOOTHDIALER-PC\G729\SOURCE\BASIC_OP.C|D:\24DIALER\NEW VERSION\SMOOTHDIALER-PC\G729\SOURCE\BITS.C|D:\24DIALER\NEW VERSION\SMOOTHDIALER-PC\G729\SOURCE\COD_LD8A.C|D:\24DIALER\NEW VERSION\SMOOTHDIALER-PC\G729\SOURCE\COR_FUNC.C|D:\24DIALER\NEW VERSION\SMOOTHDIALER-PC\G729\SOURCE\DEC_GAIN.C|D:\24DIALER\NEW VERSION\SMOOTHDIALER-PC\G729\SOURCE\DEC_LAG3.C|D:\24DIALER\NEW VERSION\SMOOTHDIALER-PC\G729\SOURCE\DEC_LD8A.C|D:\24DIALER\NEW VERSION\SMOOTHDIALER-PC\G729\SOURCE\DE_ACELP.C|D:\24DIALER\NEW VERSION\SMOOTHDIALER-PC\G729\SOURCE\DSPFUNC.C|D:\24DIALER\NEW VERSION\SMOOTHDIALER-PC\G729\SOURCE\FILTER.C|D:\24DIALER\NEW VERSION\SMOOTHDIALER-PC\G729\SOURCE\G729A_DECODER.C|D:\24DIALER\NEW VERSION\SMOOTHDIALER-PC\G729\SOURCE\G729A_ENCODER.C|D:\24DIALER\NEW VERSION\SMOOTHDIALER-PC\G729\SOURCE\GAINPRED.C|D:\24DIALER\NEW VERSION\SMOOTHDIALER-PC\G729\SOURCE\LPC.C|D:\24DIALER\NEW VERSION\SMOOTHDIALER-PC\G729\SOURCE\LPCFUNC.C|D:\24DIALER\NEW VERSION\SMOOTHDIALER-PC\G729\SOURCE\LSPDEC.C|D:\24DIALER\NEW VERSION\SMOOTHDIALER-PC\G729\SOURCE\LSPGETQ.C|D:\24DIALER\NEW VERSION\SMOOTHDIALER-PC\G729\SOURCE\MAIN.C|D:\24DIALER\NEW VERSION\SMOOTHDIALER-PC\G729\SOURCE\OPER_32B.C|D:\24DIALER\NEW VERSION\SMOOTHDIALER-PC\G729\SOURCE\PITCH_A.C|D:\24DIALER\NEW VERSION\SMOOTHDIALER-PC\G729\SOURCE\POSTFILT.C|D:\24DIALER\NEW VERSION\SMOOTHDIALER-PC\G729\SOURCE\POST_PRO.C|D:\24DIALER\NEW VERSION\SMOOTHDIALER-PC\G729\SOURCE\PRED_LT3.C|D:\24DIALER\NEW VERSION\SMOOTHDIALER-PC\G729\SOURCE\PRE_PROC.C|D:\24DIALER\NEW VERSION\SMOOTHDIALER-PC\G729\SOURCE\P_PARITY.C|D:\24DIALER\NEW VERSION\SMOOTHDIALER-PC\G729\SOURCE\QUA_GAIN.C|D:\24DIALER\NEW VERSION\SMOOTHDIALER-PC\G729\SOURCE\QUA_LSP.C|D:\24DIALER\NEW VERSION\SMOOTHDIALER-PC\G729\SOURCE\ROUND.C|D:\24DIALER\NEW VERSION\SMOOTHDIALER-PC\G729\SOURCE\TAB_LD8A.C|D:\24DIALER\NEW VERSION\SMOOTHDIALER-PC\G729\SOURCE\TAMING.C|D:\24DIALER\NEW VERSION\SMOOTHDIALER-PC\G729\SOURCE\UTIL.C
D:\24DIALER\NEW VERSION\SMOOTHDIALER-PC\G729\DEBUG\OPER_32B.OBJ
D:\24DIALER\NEW VERSION\SMOOTHDIALER-PC\G729\DEBUG\MAIN.OBJ
D:\24DIALER\NEW VERSION\SMOOTHDIALER-PC\G729\DEBUG\LSPGETQ.OBJ
D:\24DIALER\NEW VERSION\SMOOTHDIALER-PC\G729\DEBUG\LSPDEC.OBJ
D:\24DIALER\NEW VERSION\SMOOTHDIALER-PC\G729\DEBUG\LPCFUNC.OBJ
D:\24DIALER\NEW VERSION\SMOOTHDIALER-PC\G729\DEBUG\LPC.OBJ
D:\24DIALER\NEW VERSION\SMOOTHDIALER-PC\G729\DEBUG\GAINPRED.OBJ
D:\24DIALER\NEW VERSION\SMOOTHDIALER-PC\G729\DEBUG\G729A_ENCODER.OBJ
D:\24DIALER\NEW VERSION\SMOOTHDIALER-PC\G729\DEBUG\G729A_DECODER.OBJ
D:\24DIALER\NEW VERSION\SMOOTHDIALER-PC\G729\DEBUG\FILTER.OBJ
D:\24DIALER\NEW VERSION\SMOOTHDIALER-PC\G729\DEBUG\DSPFUNC.OBJ
D:\24DIALER\NEW VERSION\SMOOTHDIALER-PC\G729\DEBUG\DEC_LD8A.OBJ
D:\24DIALER\NEW VERSION\SMOOTHDIALER-PC\G729\DEBUG\DEC_LAG3.OBJ
D:\24DIALER\NEW VERSION\SMOOTHDIALER-PC\G729\DEBUG\DEC_GAIN.OBJ
D:\24DIALER\NEW VERSION\SMOOTHDIALER-PC\G729\DEBUG\DE_ACELP.OBJ
D:\24DIALER\NEW VERSION\SMOOTHDIALER-PC\G729\DEBUG\COR_FUNC.OBJ
D:\24DIALER\NEW VERSION\SMOOTHDIALER-PC\G729\DEBUG\COD_LD8A.OBJ
D:\24DIALER\NEW VERSION\SMOOTHDIALER-PC\G729\DEBUG\BITS.OBJ
D:\24DIALER\NEW VERSION\SMOOTHDIALER-PC\G729\DEBUG\BASIC_OP.OBJ
D:\24DIALER\NEW VERSION\SMOOTHDIALER-PC\G729\DEBUG\ACELP_CA.OBJ
D:\24DIALER\NEW VERSION\SMOOTHDIALER-PC\G729\DEBUG\UTIL.OBJ
D:\24DIALER\NEW VERSION\SMOOTHDIALER-PC\G729\DEBUG\TAMING.OBJ
D:\24DIALER\NEW VERSION\SMOOTHDIALER-PC\G729\DEBUG\TAB_LD8A.OBJ
D:\24DIALER\NEW VERSION\SMOOTHDIALER-PC\G729\DEBUG\ROUND.OBJ
D:\24DIALER\NEW VERSION\SMOOTHDIALER-PC\G729\DEBUG\QUA_LSP.OBJ
D:\24DIALER\NEW VERSION\SMOOTHDIALER-PC\G729\DEBUG\QUA_GAIN.OBJ
D:\24DIALER\NEW VERSION\SMOOTHDIALER-PC\G729\DEBUG\PRED_LT3.OBJ
D:\24DIALER\NEW VERSION\SMOOTHDIALER-PC\G729\DEBUG\PRE_PROC.OBJ
D:\24DIALER\NEW VERSION\SMOOTHDIALER-PC\G729\DEBUG\POSTFILT.OBJ
D:\24DIALER\NEW VERSION\SMOOTHDIALER-PC\G729\DEBUG\POST_PRO.OBJ
D:\24DIALER\NEW VERSION\SMOOTHDIALER-PC\G729\DEBUG\PITCH_A.OBJ
D:\24DIALER\NEW VERSION\SMOOTHDIALER-PC\G729\DEBUG\P_PARITY.OBJ
^D:\24DIALER\NEW VERSION\SMOOTHDIALER-PC\G729\SOURCE\ACELP_CA.C
D:\24DIALER\NEW VERSION\SMOOTHDIALER-PC\G729\DEBUG\VC110.PDB
^D:\24DIALER\NEW VERSION\SMOOTHDIALER-PC\G729\SOURCE\BASIC_OP.C
D:\24DIALER\NEW VERSION\SMOOTHDIALER-PC\G729\DEBUG\VC110.PDB
^D:\24DIALER\NEW VERSION\SMOOTHDIALER-PC\G729\SOURCE\BITS.C
D:\24DIALER\NEW VERSION\SMOOTHDIALER-PC\G729\DEBUG\VC110.PDB
^D:\24DIALER\NEW VERSION\SMOOTHDIALER-PC\G729\SOURCE\COD_LD8A.C
D:\24DIALER\NEW VERSION\SMOOTHDIALER-PC\G729\DEBUG\VC110.PDB
^D:\24DIALER\NEW VERSION\SMOOTHDIALER-PC\G729\SOURCE\COR_FUNC.C
D:\24DIALER\NEW VERSION\SMOOTHDIALER-PC\G729\DEBUG\VC110.PDB
^D:\24DIALER\NEW VERSION\SMOOTHDIALER-PC\G729\SOURCE\DE_ACELP.C
D:\24DIALER\NEW VERSION\SMOOTHDIALER-PC\G729\DEBUG\VC110.PDB
^D:\24DIALER\NEW VERSION\SMOOTHDIALER-PC\G729\SOURCE\DEC_GAIN.C
D:\24DIALER\NEW VERSION\SMOOTHDIALER-PC\G729\DEBUG\VC110.PDB
^D:\24DIALER\NEW VERSION\SMOOTHDIALER-PC\G729\SOURCE\DEC_LAG3.C
D:\24DIALER\NEW VERSION\SMOOTHDIALER-PC\G729\DEBUG\VC110.PDB
^D:\24DIALER\NEW VERSION\SMOOTHDIALER-PC\G729\SOURCE\DEC_LD8A.C
D:\24DIALER\NEW VERSION\SMOOTHDIALER-PC\G729\DEBUG\VC110.PDB
^D:\24DIALER\NEW VERSION\SMOOTHDIALER-PC\G729\SOURCE\DSPFUNC.C
D:\24DIALER\NEW VERSION\SMOOTHDIALER-PC\G729\DEBUG\VC110.PDB
^D:\24DIALER\NEW VERSION\SMOOTHDIALER-PC\G729\SOURCE\FILTER.C
D:\24DIALER\NEW VERSION\SMOOTHDIALER-PC\G729\DEBUG\VC110.PDB
^D:\24DIALER\NEW VERSION\SMOOTHDIALER-PC\G729\SOURCE\G729A_DECODER.C
D:\24DIALER\NEW VERSION\SMOOTHDIALER-PC\G729\DEBUG\VC110.PDB
^D:\24DIALER\NEW VERSION\SMOOTHDIALER-PC\G729\SOURCE\G729A_ENCODER.C
D:\24DIALER\NEW VERSION\SMOOTHDIALER-PC\G729\DEBUG\VC110.PDB
^D:\24DIALER\NEW VERSION\SMOOTHDIALER-PC\G729\SOURCE\GAINPRED.C
D:\24DIALER\NEW VERSION\SMOOTHDIALER-PC\G729\DEBUG\VC110.PDB
^D:\24DIALER\NEW VERSION\SMOOTHDIALER-PC\G729\SOURCE\LPC.C
D:\24DIALER\NEW VERSION\SMOOTHDIALER-PC\G729\DEBUG\VC110.PDB
^D:\24DIALER\NEW VERSION\SMOOTHDIALER-PC\G729\SOURCE\LPCFUNC.C
D:\24DIALER\NEW VERSION\SMOOTHDIALER-PC\G729\DEBUG\VC110.PDB
^D:\24DIALER\NEW VERSION\SMOOTHDIALER-PC\G729\SOURCE\LSPDEC.C
D:\24DIALER\NEW VERSION\SMOOTHDIALER-PC\G729\DEBUG\VC110.PDB
^D:\24DIALER\NEW VERSION\SMOOTHDIALER-PC\G729\SOURCE\LSPGETQ.C
D:\24DIALER\NEW VERSION\SMOOTHDIALER-PC\G729\DEBUG\VC110.PDB
^D:\24DIALER\NEW VERSION\SMOOTHDIALER-PC\G729\SOURCE\MAIN.C
D:\24DIALER\NEW VERSION\SMOOTHDIALER-PC\G729\DEBUG\VC110.PDB
^D:\24DIALER\NEW VERSION\SMOOTHDIALER-PC\G729\SOURCE\OPER_32B.C
D:\24DIALER\NEW VERSION\SMOOTHDIALER-PC\G729\DEBUG\VC110.PDB
^D:\24DIALER\NEW VERSION\SMOOTHDIALER-PC\G729\SOURCE\P_PARITY.C
D:\24DIALER\NEW VERSION\SMOOTHDIALER-PC\G729\DEBUG\VC110.PDB
^D:\24DIALER\NEW VERSION\SMOOTHDIALER-PC\G729\SOURCE\PITCH_A.C
D:\24DIALER\NEW VERSION\SMOOTHDIALER-PC\G729\DEBUG\VC110.PDB
^D:\24DIALER\NEW VERSION\SMOOTHDIALER-PC\G729\SOURCE\POST_PRO.C
D:\24DIALER\NEW VERSION\SMOOTHDIALER-PC\G729\DEBUG\VC110.PDB
^D:\24DIALER\NEW VERSION\SMOOTHDIALER-PC\G729\SOURCE\POSTFILT.C
D:\24DIALER\NEW VERSION\SMOOTHDIALER-PC\G729\DEBUG\VC110.PDB
^D:\24DIALER\NEW VERSION\SMOOTHDIALER-PC\G729\SOURCE\PRE_PROC.C
D:\24DIALER\NEW VERSION\SMOOTHDIALER-PC\G729\DEBUG\VC110.PDB
^D:\24DIALER\NEW VERSION\SMOOTHDIALER-PC\G729\SOURCE\PRED_LT3.C
D:\24DIALER\NEW VERSION\SMOOTHDIALER-PC\G729\DEBUG\VC110.PDB
^D:\24DIALER\NEW VERSION\SMOOTHDIALER-PC\G729\SOURCE\QUA_GAIN.C
D:\24DIALER\NEW VERSION\SMOOTHDIALER-PC\G729\DEBUG\VC110.PDB
^D:\24DIALER\NEW VERSION\SMOOTHDIALER-PC\G729\SOURCE\QUA_LSP.C
D:\24DIALER\NEW VERSION\SMOOTHDIALER-PC\G729\DEBUG\VC110.PDB
^D:\24DIALER\NEW VERSION\SMOOTHDIALER-PC\G729\SOURCE\ROUND.C
D:\24DIALER\NEW VERSION\SMOOTHDIALER-PC\G729\DEBUG\VC110.PDB
^D:\24DIALER\NEW VERSION\SMOOTHDIALER-PC\G729\SOURCE\TAB_LD8A.C
D:\24DIALER\NEW VERSION\SMOOTHDIALER-PC\G729\DEBUG\VC110.PDB
^D:\24DIALER\NEW VERSION\SMOOTHDIALER-PC\G729\SOURCE\TAMING.C
D:\24DIALER\NEW VERSION\SMOOTHDIALER-PC\G729\DEBUG\VC110.PDB
^D:\24DIALER\NEW VERSION\SMOOTHDIALER-PC\G729\SOURCE\UTIL.C
D:\24DIALER\NEW VERSION\SMOOTHDIALER-PC\G729\DEBUG\VC110.PDB
