^D:\24DIALER\NEW VERSION\SMOOTHDIALER-PC\G729\DEBUG\ACELP_CA.OBJ|D:\24DIALER\NEW VERSION\SMOOTHDIALER-PC\G729\DEBUG\APP.RES|D:\24DIALER\NEW VERSION\SMOOTHDIALER-PC\G729\DEBUG\ASSEMBLYINFO.OBJ|D:\24DIALER\NEW VERSION\SMOOTHDIALER-PC\G729\DEBUG\BASIC_OP.OBJ|D:\24DIALER\NEW VERSION\SMOOTHDIALER-PC\G729\DEBUG\BITS.OBJ|D:\24DIALER\NEW VERSION\SMOOTHDIALER-PC\G729\DEBUG\COD_LD8A.OBJ|D:\24DIALER\NEW VERSION\SMOOTHDIALER-PC\G729\DEBUG\COR_FUNC.OBJ|D:\24DIALER\NEW VERSION\SMOOTHDIALER-PC\G729\DEBUG\DEC_GAIN.OBJ|D:\24DIALER\NEW VERSION\SMOOTHDIALER-PC\G729\DEBUG\DEC_LAG3.OBJ|D:\24DIALER\NEW VERSION\SMOOTHDIALER-PC\G729\DEBUG\DEC_LD8A.OBJ|D:\24DIALER\NEW VERSION\SMOOTHDIALER-PC\G729\DEBUG\DE_ACELP.OBJ|D:\24DIALER\NEW VERSION\SMOOTHDIALER-PC\G729\DEBUG\DSPFUNC.OBJ|D:\24DIALER\NEW VERSION\SMOOTHDIALER-PC\G729\DEBUG\FILTER.OBJ|D:\24DIALER\NEW VERSION\SMOOTHDIALER-PC\G729\DEBUG\G729A_DECODER.OBJ|D:\24DIALER\NEW VERSION\SMOOTHDIALER-PC\G729\DEBUG\G729A_ENCODER.OBJ|D:\24DIALER\NEW VERSION\SMOOTHDIALER-PC\G729\DEBUG\GAINPRED.OBJ|D:\24DIALER\NEW VERSION\SMOOTHDIALER-PC\G729\DEBUG\LPC.OBJ|D:\24DIALER\NEW VERSION\SMOOTHDIALER-PC\G729\DEBUG\LPCFUNC.OBJ|D:\24DIALER\NEW VERSION\SMOOTHDIALER-PC\G729\DEBUG\LSPDEC.OBJ|D:\24DIALER\NEW VERSION\SMOOTHDIALER-PC\G729\DEBUG\LSPGETQ.OBJ|D:\24DIALER\NEW VERSION\SMOOTHDIALER-PC\G729\DEBUG\MAIN.OBJ|D:\24DIALER\NEW VERSION\SMOOTHDIALER-PC\G729\DEBUG\OPER_32B.OBJ|D:\24DIALER\NEW VERSION\SMOOTHDIALER-PC\G729\DEBUG\PITCH_A.OBJ|D:\24DIALER\NEW VERSION\SMOOTHDIALER-PC\G729\DEBUG\POSTFILT.OBJ|D:\24DIALER\NEW VERSION\SMOOTHDIALER-PC\G729\DEBUG\POST_PRO.OBJ|D:\24DIALER\NEW VERSION\SMOOTHDIALER-PC\G729\DEBUG\PRED_LT3.OBJ|D:\24DIALER\NEW VERSION\SMOOTHDIALER-PC\G729\DEBUG\PRE_PROC.OBJ|D:\24DIALER\NEW VERSION\SMOOTHDIALER-PC\G729\DEBUG\P_PARITY.OBJ|D:\24DIALER\NEW VERSION\SMOOTHDIALER-PC\G729\DEBUG\QUA_GAIN.OBJ|D:\24DIALER\NEW VERSION\SMOOTHDIALER-PC\G729\DEBUG\QUA_LSP.OBJ|D:\24DIALER\NEW VERSION\SMOOTHDIALER-PC\G729\DEBUG\ROUND.OBJ|D:\24DIALER\NEW VERSION\SMOOTHDIALER-PC\G729\DEBUG\STDAFX.OBJ|D:\24DIALER\NEW VERSION\SMOOTHDIALER-PC\G729\DEBUG\TAB_LD8A.OBJ|D:\24DIALER\NEW VERSION\SMOOTHDIALER-PC\G729\DEBUG\TAMING.OBJ|D:\24DIALER\NEW VERSION\SMOOTHDIALER-PC\G729\DEBUG\UTIL.OBJ
D:\24DIALER\NEW VERSION\SMOOTHDIALER-PC\G729\DEBUG\APP.RES
C:\WINDOWS\GLOBALIZATION\SORTING\SORTDEFAULT.NLS
C:\WINDOWS\SYSTEM32\TZRES.DLL
D:\24DIALER\NEW VERSION\SMOOTHDIALER-PC\G729\DEBUG\ASSEMBLYINFO.OBJ
D:\24DIALER\NEW VERSION\SMOOTHDIALER-PC\G729\DEBUG\STDAFX.OBJ
D:\24DIALER\NEW VERSION\SMOOTHDIALER-PC\G729\DEBUG\ACELP_CA.OBJ
D:\24DIALER\NEW VERSION\SMOOTHDIALER-PC\G729\DEBUG\BASIC_OP.OBJ
D:\24DIALER\NEW VERSION\SMOOTHDIALER-PC\G729\DEBUG\BITS.OBJ
D:\24DIALER\NEW VERSION\SMOOTHDIALER-PC\G729\DEBUG\COD_LD8A.OBJ
D:\24DIALER\NEW VERSION\SMOOTHDIALER-PC\G729\DEBUG\COR_FUNC.OBJ
D:\24DIALER\NEW VERSION\SMOOTHDIALER-PC\G729\DEBUG\DE_ACELP.OBJ
D:\24DIALER\NEW VERSION\SMOOTHDIALER-PC\G729\DEBUG\DEC_GAIN.OBJ
D:\24DIALER\NEW VERSION\SMOOTHDIALER-PC\G729\DEBUG\DEC_LAG3.OBJ
D:\24DIALER\NEW VERSION\SMOOTHDIALER-PC\G729\DEBUG\DEC_LD8A.OBJ
D:\24DIALER\NEW VERSION\SMOOTHDIALER-PC\G729\DEBUG\DSPFUNC.OBJ
D:\24DIALER\NEW VERSION\SMOOTHDIALER-PC\G729\DEBUG\FILTER.OBJ
D:\24DIALER\NEW VERSION\SMOOTHDIALER-PC\G729\DEBUG\G729A_DECODER.OBJ
D:\24DIALER\NEW VERSION\SMOOTHDIALER-PC\G729\DEBUG\G729A_ENCODER.OBJ
D:\24DIALER\NEW VERSION\SMOOTHDIALER-PC\G729\DEBUG\GAINPRED.OBJ
D:\24DIALER\NEW VERSION\SMOOTHDIALER-PC\G729\DEBUG\LPC.OBJ
D:\24DIALER\NEW VERSION\SMOOTHDIALER-PC\G729\DEBUG\LPCFUNC.OBJ
D:\24DIALER\NEW VERSION\SMOOTHDIALER-PC\G729\DEBUG\LSPDEC.OBJ
D:\24DIALER\NEW VERSION\SMOOTHDIALER-PC\G729\DEBUG\LSPGETQ.OBJ
D:\24DIALER\NEW VERSION\SMOOTHDIALER-PC\G729\DEBUG\MAIN.OBJ
D:\24DIALER\NEW VERSION\SMOOTHDIALER-PC\G729\DEBUG\OPER_32B.OBJ
D:\24DIALER\NEW VERSION\SMOOTHDIALER-PC\G729\DEBUG\P_PARITY.OBJ
D:\24DIALER\NEW VERSION\SMOOTHDIALER-PC\G729\DEBUG\PITCH_A.OBJ
D:\24DIALER\NEW VERSION\SMOOTHDIALER-PC\G729\DEBUG\POST_PRO.OBJ
D:\24DIALER\NEW VERSION\SMOOTHDIALER-PC\G729\DEBUG\POSTFILT.OBJ
D:\24DIALER\NEW VERSION\SMOOTHDIALER-PC\G729\DEBUG\PRE_PROC.OBJ
D:\24DIALER\NEW VERSION\SMOOTHDIALER-PC\G729\DEBUG\PRED_LT3.OBJ
D:\24DIALER\NEW VERSION\SMOOTHDIALER-PC\G729\DEBUG\QUA_GAIN.OBJ
D:\24DIALER\NEW VERSION\SMOOTHDIALER-PC\G729\DEBUG\QUA_LSP.OBJ
D:\24DIALER\NEW VERSION\SMOOTHDIALER-PC\G729\DEBUG\ROUND.OBJ
D:\24DIALER\NEW VERSION\SMOOTHDIALER-PC\G729\DEBUG\TAB_LD8A.OBJ
D:\24DIALER\NEW VERSION\SMOOTHDIALER-PC\G729\DEBUG\TAMING.OBJ
D:\24DIALER\NEW VERSION\SMOOTHDIALER-PC\G729\DEBUG\UTIL.OBJ
C:\PROGRAM FILES (X86)\MICROSOFT VISUAL STUDIO 11.0\VC\BIN\1033\LINKUI.DLL
