^D:\24DIALER\RUNNING\24DIALER\AUDIOENGINESYMBIAN.CPP
/c /ZI /nologo /W3 /WX- /Od /Oy- /D WIN32 /D NDEBUG /D _WINDOWS /D _VC80_UPGRADE=0x0600 /D _MBCS /Gm- /EHsc /MT /GS /Gy- /fp:precise /Zc:wchar_t /Zc:forScope /Fo".\RELEASE\\" /Fd".\RELEASE\VC110.PDB" /FR".\Release\\" /Gd /TP /analyze- D:\24DIALER\RUNNING\24DIALER\AUDIOENGINESYMBIAN.CPP
^D:\24DIALER\RUNNING\24DIALER\AUDIOTHREAD.CPP
/c /ZI /nologo /W3 /WX- /Od /Oy- /D WIN32 /D NDEBUG /D _WINDOWS /D _VC80_UPGRADE=0x0600 /D _MBCS /Gm- /EHsc /MT /GS /Gy- /fp:precise /Zc:wchar_t /Zc:forScope /Fo".\RELEASE\\" /Fd".\RELEASE\VC110.PDB" /FR".\Release\\" /Gd /TP /analyze- D:\24DIALER\RUNNING\24DIALER\AUDIOTHREAD.CPP
^D:\24DIALER\RUNNING\24DIALER\CONTACTSDLG.CPP
/c /ZI /nologo /W3 /WX- /Od /Oy- /D WIN32 /D NDEBUG /D _WINDOWS /D _VC80_UPGRADE=0x0600 /D _MBCS /Gm- /EHsc /MT /GS /Gy- /fp:precise /Zc:wchar_t /Zc:forScope /Fo".\RELEASE\\" /Fd".\RELEASE\VC110.PDB" /FR".\Release\\" /Gd /TP /analyze- D:\24DIALER\RUNNING\24DIALER\CONTACTSDLG.CPP
^D:\24DIALER\RUNNING\24DIALER\DIALERAGENT.CPP
/c /ZI /nologo /W3 /WX- /Od /Oy- /D WIN32 /D NDEBUG /D _WINDOWS /D _VC80_UPGRADE=0x0600 /D _MBCS /Gm- /EHsc /MT /GS /Gy- /fp:precise /Zc:wchar_t /Zc:forScope /Fo".\RELEASE\\" /Fd".\RELEASE\VC110.PDB" /FR".\Release\\" /Gd /TP /analyze- D:\24DIALER\RUNNING\24DIALER\DIALERAGENT.CPP
^D:\24DIALER\RUNNING\24DIALER\DIALERAGENTEXTENSION.CPP
/c /ZI /nologo /W3 /WX- /Od /Oy- /D WIN32 /D NDEBUG /D _WINDOWS /D _VC80_UPGRADE=0x0600 /D _MBCS /Gm- /EHsc /MT /GS /Gy- /fp:precise /Zc:wchar_t /Zc:forScope /Fo".\RELEASE\\" /Fd".\RELEASE\VC110.PDB" /FR".\Release\\" /Gd /TP /analyze- D:\24DIALER\RUNNING\24DIALER\DIALERAGENTEXTENSION.CPP
^D:\24DIALER\RUNNING\24DIALER\GLOBALS.CPP
/c /ZI /nologo /W3 /WX- /Od /Oy- /D WIN32 /D NDEBUG /D _WINDOWS /D _VC80_UPGRADE=0x0600 /D _MBCS /Gm- /EHsc /MT /GS /Gy- /fp:precise /Zc:wchar_t /Zc:forScope /Fo".\RELEASE\\" /Fd".\RELEASE\VC110.PDB" /FR".\Release\\" /Gd /TP /analyze- D:\24DIALER\RUNNING\24DIALER\GLOBALS.CPP
^D:\24DIALER\RUNNING\24DIALER\LOGINDLG.CPP
/c /ZI /nologo /W3 /WX- /Od /Oy- /D WIN32 /D NDEBUG /D _WINDOWS /D _VC80_UPGRADE=0x0600 /D _MBCS /Gm- /EHsc /MT /GS /Gy- /fp:precise /Zc:wchar_t /Zc:forScope /Fo".\RELEASE\\" /Fd".\RELEASE\VC110.PDB" /FR".\Release\\" /Gd /TP /analyze- D:\24DIALER\RUNNING\24DIALER\LOGINDLG.CPP
^D:\24DIALER\RUNNING\24DIALER\SMOOTHDIALER.CPP
/c /ZI /nologo /W3 /WX- /Od /Oy- /D WIN32 /D NDEBUG /D _WINDOWS /D _VC80_UPGRADE=0x0600 /D _MBCS /Gm- /EHsc /MT /GS /Gy- /fp:precise /Zc:wchar_t /Zc:forScope /Fo".\RELEASE\\" /Fd".\RELEASE\VC110.PDB" /FR".\Release\\" /Gd /TP /analyze- D:\24DIALER\RUNNING\24DIALER\SMOOTHDIALER.CPP
^D:\24DIALER\RUNNING\24DIALER\STDAFX.CPP
/c /ZI /nologo /W3 /WX- /Od /Oy- /D WIN32 /D NDEBUG /D _WINDOWS /D _VC80_UPGRADE=0x0600 /D _MBCS /Gm- /EHsc /MT /GS /Gy- /fp:precise /Zc:wchar_t /Zc:forScope /Fo".\RELEASE\\" /Fd".\RELEASE\VC110.PDB" /FR".\Release\\" /Gd /TP /analyze- D:\24DIALER\RUNNING\24DIALER\STDAFX.CPP
^D:\24DIALER\RUNNING\24DIALER\SMOOTHDIALERDLG.CPP
/c /ZI /nologo /W3 /WX- /Od /Oy- /D WIN32 /D NDEBUG /D _WINDOWS /D _VC80_UPGRADE=0x0600 /D _MBCS /Gm- /EHsc /MT /GS /Gy- /fp:precise /Zc:wchar_t /Zc:forScope /Fo".\RELEASE\\" /Fd".\RELEASE\VC110.PDB" /FR".\Release\\" /Gd /TP /analyze- D:\24DIALER\RUNNING\24DIALER\SMOOTHDIALERDLG.CPP
