^D:\24DIALER\RUNNING\24PCDIALER\RELEASE\AUDIOENGINESYMBIAN.SBR|D:\24DIALER\RUNNING\24PCDIALER\RELEASE\AUDIOTHREAD.SBR|D:\24DIALER\RUNNING\24PCDIALER\RELEASE\BLOCK_ALLOCATOR.SBR|D:\24DIALER\RUNNING\24PCDIALER\RELEASE\CONTACTSDLG.SBR|D:\24DIALER\RUNNING\24PCDIALER\RELEASE\DIALERAGENT.SBR|D:\24DIALER\RUNNING\24PCDIALER\RELEASE\DIALERAGENTEXTENSION.SBR|D:\24DIALER\RUNNING\24PCDIALER\RELEASE\FLEXIACCOUNT.SBR|D:\24DIALER\RUNNING\24PCDIALER\RELEASE\FLEXITLISTDLG.SBR|D:\24DIALER\RUNNING\24PCDIALER\RELEASE\GLOBALS.SBR|D:\24DIALER\RUNNING\24PCDIALER\RELEASE\JSON.SBR|D:\24DIALER\RUNNING\24PCDIALER\RELEASE\LISTDLG.SBR|D:\24DIALER\RUNNING\24PCDIALER\RELEASE\LOGINDLG.SBR|D:\24DIALER\RUNNING\24PCDIALER\RELEASE\RECHAGEDLG.SBR|D:\24DIALER\RUNNING\24PCDIALER\RELEASE\SMOOTHDIALER.SBR|D:\24DIALER\RUNNING\24PCDIALER\RELEASE\SMOOTHDIALERDLG.SBR|D:\24DIALER\RUNNING\24PCDIALER\RELEASE\SMSSENDDLG.SBR|D:\24DIALER\RUNNING\24PCDIALER\RELEASE\STDAFX.SBR
C:\WINDOWS\SYSTEM32\TZRES.DLL
D:\24DIALER\RUNNING\24PCDIALER\RELEASE\AUDIOENGINESYMBIAN.SBR
D:\24DIALER\RUNNING\24PCDIALER\RELEASE\AUDIOTHREAD.SBR
D:\24DIALER\RUNNING\24PCDIALER\RELEASE\BLOCK_ALLOCATOR.SBR
D:\24DIALER\RUNNING\24PCDIALER\RELEASE\CONTACTSDLG.SBR
D:\24DIALER\RUNNING\24PCDIALER\RELEASE\DIALERAGENT.SBR
D:\24DIALER\RUNNING\24PCDIALER\RELEASE\DIALERAGENTEXTENSION.SBR
D:\24DIALER\RUNNING\24PCDIALER\RELEASE\FLEXIACCOUNT.SBR
D:\24DIALER\RUNNING\24PCDIALER\RELEASE\FLEXITLISTDLG.SBR
D:\24DIALER\RUNNING\24PCDIALER\RELEASE\GLOBALS.SBR
D:\24DIALER\RUNNING\24PCDIALER\RELEASE\JSON.SBR
D:\24DIALER\RUNNING\24PCDIALER\RELEASE\LISTDLG.SBR
D:\24DIALER\RUNNING\24PCDIALER\RELEASE\LOGINDLG.SBR
D:\24DIALER\RUNNING\24PCDIALER\RELEASE\RECHAGEDLG.SBR
D:\24DIALER\RUNNING\24PCDIALER\RELEASE\SMOOTHDIALER.SBR
D:\24DIALER\RUNNING\24PCDIALER\RELEASE\SMOOTHDIALERDLG.SBR
D:\24DIALER\RUNNING\24PCDIALER\RELEASE\SMSSENDDLG.SBR
D:\24DIALER\RUNNING\24PCDIALER\RELEASE\STDAFX.SBR
