^D:\24DIALER\RUNNING\24PCDIALER\RELEASE\AUDIOENGINESYMBIAN.OBJ|D:\24DIALER\RUNNING\24PCDIALER\RELEASE\AUDIOTHREAD.OBJ|D:\24DIALER\RUNNING\24PCDIALER\RELEASE\BLOCK_ALLOCATOR.OBJ|D:\24DIALER\RUNNING\24PCDIALER\RELEASE\CONTACTSDLG.OBJ|D:\24DIALER\RUNNING\24PCDIALER\RELEASE\DIALERAGENT.OBJ|D:\24DIALER\RUNNING\24PCDIALER\RELEASE\DIALERAGENTEXTENSION.OBJ|D:\24DIALER\RUNNING\24PCDIALER\RELEASE\FLEXIACCOUNT.OBJ|D:\24DIALER\RUNNING\24PCDIALER\RELEASE\FLEXITLISTDLG.OBJ|D:\24DIALER\RUNNING\24PCDIALER\RELEASE\GLOBALS.OBJ|D:\24DIALER\RUNNING\24PCDIALER\RELEASE\JSON.OBJ|D:\24DIALER\RUNNING\24PCDIALER\RELEASE\LISTDLG.OBJ|D:\24DIALER\RUNNING\24PCDIALER\RELEASE\LOGINDLG.OBJ|D:\24DIALER\RUNNING\24PCDIALER\RELEASE\RECHAGEDLG.OBJ|D:\24DIALER\RUNNING\24PCDIALER\RELEASE\SMOOTHDIALER.OBJ|D:\24DIALER\RUNNING\24PCDIALER\RELEASE\SMOOTHDIALER.RES|D:\24DIALER\RUNNING\24PCDIALER\RELEASE\SMOOTHDIALERDLG.OBJ|D:\24DIALER\RUNNING\24PCDIALER\RELEASE\SMSSENDDLG.OBJ|D:\24DIALER\RUNNING\24PCDIALER\RELEASE\STDAFX.OBJ
D:\24DIALER\RUNNING\24PCDIALER\RELEASE\HELLO VOIP.ILK
D:\24DIALER\RUNNING\24PCDIALER\RELEASE\HELLO VOIP.EXE
D:\24DIALER\RUNNING\24PCDIALER\RELEASE\HELLO VOIP.PDB
